EESchema Schematic File Version 5
EELAYER 32 0
EELAYER END
$Descr USLetter 11000 8500
encoding utf-8
Sheet 1 1
Title ""
Date ""
Rev ""
Comp "Brooklyn Electronics Group"
Comment1 "Bobby"
Comment2 ""
Comment3 ""
Comment4 ""
Comment5 ""
Comment6 ""
Comment7 ""
Comment8 ""
Comment9 ""
$EndDescr
$EndSCHEMATC
