ISO-10303-21;
HEADER;
FILE_DESCRIPTION((''),'2;1');
FILE_NAME('SRR7032','2012-07-12T',('ryans'),('Bourns, Inc.'),
'PRO/ENGINEER BY PARAMETRIC TECHNOLOGY CORPORATION, 2010100',
'PRO/ENGINEER BY PARAMETRIC TECHNOLOGY CORPORATION, 2010100','');
FILE_SCHEMA(('CONFIG_CONTROL_DESIGN'));
ENDSEC;
DATA;
#1=DIRECTION('',(0.E0,0.E0,-1.E0));
#2=VECTOR('',#1,1.5E0);
#3=CARTESIAN_POINT('',(1.E0,0.E0,3.5E0));
#4=LINE('',#3,#2);
#5=DIRECTION('',(1.E0,0.E0,0.E0));
#6=VECTOR('',#5,2.E0);
#7=CARTESIAN_POINT('',(-1.E0,0.E0,2.E0));
#8=LINE('',#7,#6);
#9=DIRECTION('',(0.E0,0.E0,-1.E0));
#10=VECTOR('',#9,1.5E0);
#11=CARTESIAN_POINT('',(-1.E0,0.E0,3.5E0));
#12=LINE('',#11,#10);
#13=DIRECTION('',(1.E0,0.E0,0.E0));
#14=VECTOR('',#13,2.E0);
#15=CARTESIAN_POINT('',(-1.E0,0.E0,3.5E0));
#16=LINE('',#15,#14);
#17=DIRECTION('',(0.E0,0.E0,-1.E0));
#18=VECTOR('',#17,1.6E0);
#19=CARTESIAN_POINT('',(1.1E0,0.E0,3.5E0));
#20=LINE('',#19,#18);
#21=DIRECTION('',(1.E0,0.E0,0.E0));
#22=VECTOR('',#21,1.097E0);
#23=CARTESIAN_POINT('',(1.1E0,0.E0,3.5E0));
#24=LINE('',#23,#22);
#25=DIRECTION('',(7.071067811865E-1,0.E0,-7.071067811865E-1));
#26=VECTOR('',#25,1.842720271772E0);
#27=CARTESIAN_POINT('',(2.197E0,0.E0,3.5E0));
#28=LINE('',#27,#26);
#29=DIRECTION('',(0.E0,0.E0,-1.E0));
#30=VECTOR('',#29,5.497E0);
#31=CARTESIAN_POINT('',(3.5E0,0.E0,2.197E0));
#32=LINE('',#31,#30);
#33=CARTESIAN_POINT('',(3.3E0,0.E0,-3.3E0));
#34=DIRECTION('',(0.E0,-1.E0,0.E0));
#35=DIRECTION('',(0.E0,0.E0,-1.E0));
#36=AXIS2_PLACEMENT_3D('',#33,#34,#35);
#38=DIRECTION('',(-1.E0,0.E0,0.E0));
#39=VECTOR('',#38,2.2E0);
#40=CARTESIAN_POINT('',(3.3E0,0.E0,-3.5E0));
#41=LINE('',#40,#39);
#42=DIRECTION('',(0.E0,0.E0,1.E0));
#43=VECTOR('',#42,1.6E0);
#44=CARTESIAN_POINT('',(1.1E0,0.E0,-3.5E0));
#45=LINE('',#44,#43);
#46=DIRECTION('',(1.E0,0.E0,0.E0));
#47=VECTOR('',#46,2.2E0);
#48=CARTESIAN_POINT('',(-1.1E0,0.E0,-1.9E0));
#49=LINE('',#48,#47);
#50=DIRECTION('',(0.E0,0.E0,1.E0));
#51=VECTOR('',#50,1.6E0);
#52=CARTESIAN_POINT('',(-1.1E0,0.E0,-3.5E0));
#53=LINE('',#52,#51);
#54=DIRECTION('',(-1.E0,0.E0,0.E0));
#55=VECTOR('',#54,1.097E0);
#56=CARTESIAN_POINT('',(-1.1E0,0.E0,-3.5E0));
#57=LINE('',#56,#55);
#58=DIRECTION('',(-7.071067811865E-1,0.E0,7.071067811865E-1));
#59=VECTOR('',#58,1.842720271772E0);
#60=CARTESIAN_POINT('',(-2.197E0,0.E0,-3.5E0));
#61=LINE('',#60,#59);
#62=DIRECTION('',(0.E0,0.E0,1.E0));
#63=VECTOR('',#62,5.497E0);
#64=CARTESIAN_POINT('',(-3.5E0,0.E0,-2.197E0));
#65=LINE('',#64,#63);
#66=CARTESIAN_POINT('',(-3.3E0,0.E0,3.3E0));
#67=DIRECTION('',(0.E0,-1.E0,0.E0));
#68=DIRECTION('',(0.E0,0.E0,1.E0));
#69=AXIS2_PLACEMENT_3D('',#66,#67,#68);
#71=DIRECTION('',(1.E0,0.E0,0.E0));
#72=VECTOR('',#71,2.2E0);
#73=CARTESIAN_POINT('',(-3.3E0,0.E0,3.5E0));
#74=LINE('',#73,#72);
#75=DIRECTION('',(0.E0,0.E0,-1.E0));
#76=VECTOR('',#75,1.6E0);
#77=CARTESIAN_POINT('',(-1.1E0,0.E0,3.5E0));
#78=LINE('',#77,#76);
#79=DIRECTION('',(-1.E0,0.E0,0.E0));
#80=VECTOR('',#79,2.2E0);
#81=CARTESIAN_POINT('',(1.1E0,0.E0,1.9E0));
#82=LINE('',#81,#80);
#83=DIRECTION('',(-1.E0,0.E0,0.E0));
#84=VECTOR('',#83,2.E0);
#85=CARTESIAN_POINT('',(1.E0,0.E0,-2.E0));
#86=LINE('',#85,#84);
#87=DIRECTION('',(0.E0,0.E0,1.E0));
#88=VECTOR('',#87,1.5E0);
#89=CARTESIAN_POINT('',(1.E0,0.E0,-3.5E0));
#90=LINE('',#89,#88);
#91=DIRECTION('',(-1.E0,0.E0,0.E0));
#92=VECTOR('',#91,2.E0);
#93=CARTESIAN_POINT('',(1.E0,0.E0,-3.5E0));
#94=LINE('',#93,#92);
#95=DIRECTION('',(0.E0,0.E0,1.E0));
#96=VECTOR('',#95,1.5E0);
#97=CARTESIAN_POINT('',(-1.E0,0.E0,-3.5E0));
#98=LINE('',#97,#96);
#99=DIRECTION('',(0.E0,1.E0,0.E0));
#100=VECTOR('',#99,7.5E-1);
#101=CARTESIAN_POINT('',(1.E0,0.E0,2.E0));
#102=LINE('',#101,#100);
#103=DIRECTION('',(0.E0,1.E0,0.E0));
#104=VECTOR('',#103,7.5E-1);
#105=CARTESIAN_POINT('',(1.E0,0.E0,3.5E0));
#106=LINE('',#105,#104);
#107=DIRECTION('',(0.E0,1.E0,0.E0));
#108=VECTOR('',#107,7.5E-1);
#109=CARTESIAN_POINT('',(-1.E0,0.E0,3.5E0));
#110=LINE('',#109,#108);
#111=DIRECTION('',(0.E0,1.E0,0.E0));
#112=VECTOR('',#111,7.5E-1);
#113=CARTESIAN_POINT('',(1.1E0,0.E0,3.5E0));
#114=LINE('',#113,#112);
#115=DIRECTION('',(0.E0,1.E0,0.E0));
#116=VECTOR('',#115,7.5E-1);
#117=CARTESIAN_POINT('',(-1.1E0,0.E0,3.5E0));
#118=LINE('',#117,#116);
#119=DIRECTION('',(0.E0,-1.E0,0.E0));
#120=VECTOR('',#119,7.5E-1);
#121=CARTESIAN_POINT('',(-3.3E0,7.5E-1,3.5E0));
#122=LINE('',#121,#120);
#123=DIRECTION('',(0.E0,1.E0,0.E0));
#124=VECTOR('',#123,7.5E-1);
#125=CARTESIAN_POINT('',(-1.E0,0.E0,2.E0));
#126=LINE('',#125,#124);
#127=DIRECTION('',(0.E0,0.E0,1.E0));
#128=VECTOR('',#127,7.923642747598E-1);
#129=CARTESIAN_POINT('',(1.E0,7.5E-1,-3.354101966250E0));
#130=LINE('',#129,#128);
#131=DIRECTION('',(0.E0,0.E0,-1.E0));
#132=VECTOR('',#131,8.022329129415E-1);
#133=CARTESIAN_POINT('',(1.1E0,7.5E-1,-2.520416632226E0));
#134=LINE('',#133,#132);
#135=DIRECTION('',(0.E0,0.E0,1.E0));
#136=VECTOR('',#135,8.022329129415E-1);
#137=CARTESIAN_POINT('',(-1.1E0,7.5E-1,-3.322649545167E0));
#138=LINE('',#137,#136);
#139=DIRECTION('',(0.E0,0.E0,-1.E0));
#140=VECTOR('',#139,7.923642747598E-1);
#141=CARTESIAN_POINT('',(-1.E0,7.5E-1,-2.561737691490E0));
#142=LINE('',#141,#140);
#143=DIRECTION('',(0.E0,0.E0,-1.E0));
#144=VECTOR('',#143,7.923642747598E-1);
#145=CARTESIAN_POINT('',(-1.E0,7.5E-1,3.354101966250E0));
#146=LINE('',#145,#144);
#147=DIRECTION('',(0.E0,0.E0,1.E0));
#148=VECTOR('',#147,8.022329129415E-1);
#149=CARTESIAN_POINT('',(-1.1E0,7.5E-1,2.520416632226E0));
#150=LINE('',#149,#148);
#151=DIRECTION('',(0.E0,0.E0,-1.E0));
#152=VECTOR('',#151,8.022329129415E-1);
#153=CARTESIAN_POINT('',(1.1E0,7.5E-1,3.322649545167E0));
#154=LINE('',#153,#152);
#155=DIRECTION('',(0.E0,0.E0,1.E0));
#156=VECTOR('',#155,7.923642747598E-1);
#157=CARTESIAN_POINT('',(1.E0,7.5E-1,2.561737691490E0));
#158=LINE('',#157,#156);
#159=DIRECTION('',(0.E0,0.E0,-1.E0));
#160=VECTOR('',#159,4.270609798684E-1);
#161=CARTESIAN_POINT('',(-1.E0,7.5E-1,2.427060979868E0));
#162=LINE('',#161,#160);
#163=DIRECTION('',(1.E0,0.E0,0.E0));
#164=VECTOR('',#163,2.E0);
#165=CARTESIAN_POINT('',(-1.E0,7.5E-1,2.E0));
#166=LINE('',#165,#164);
#167=DIRECTION('',(0.E0,0.E0,1.E0));
#168=VECTOR('',#167,4.270609798685E-1);
#169=CARTESIAN_POINT('',(1.E0,7.5E-1,2.E0));
#170=LINE('',#169,#168);
#171=DIRECTION('',(0.E0,0.E0,-1.E0));
#172=VECTOR('',#171,4.834061760430E-1);
#173=CARTESIAN_POINT('',(1.1E0,7.5E-1,2.383406176043E0));
#174=LINE('',#173,#172);
#175=DIRECTION('',(-1.E0,0.E0,0.E0));
#176=VECTOR('',#175,2.2E0);
#177=CARTESIAN_POINT('',(1.1E0,7.5E-1,1.9E0));
#178=LINE('',#177,#176);
#179=DIRECTION('',(0.E0,0.E0,1.E0));
#180=VECTOR('',#179,4.834061760430E-1);
#181=CARTESIAN_POINT('',(-1.1E0,7.5E-1,1.9E0));
#182=LINE('',#181,#180);
#183=DIRECTION('',(0.E0,0.E0,1.E0));
#184=VECTOR('',#183,4.270609798685E-1);
#185=CARTESIAN_POINT('',(1.E0,7.5E-1,-2.427060979868E0));
#186=LINE('',#185,#184);
#187=DIRECTION('',(-1.E0,0.E0,0.E0));
#188=VECTOR('',#187,2.E0);
#189=CARTESIAN_POINT('',(1.E0,7.5E-1,-2.E0));
#190=LINE('',#189,#188);
#191=DIRECTION('',(0.E0,0.E0,-1.E0));
#192=VECTOR('',#191,4.270609798684E-1);
#193=CARTESIAN_POINT('',(-1.E0,7.5E-1,-2.E0));
#194=LINE('',#193,#192);
#195=DIRECTION('',(0.E0,0.E0,1.E0));
#196=VECTOR('',#195,4.834061760430E-1);
#197=CARTESIAN_POINT('',(-1.1E0,7.5E-1,-2.383406176043E0));
#198=LINE('',#197,#196);
#199=DIRECTION('',(1.E0,0.E0,0.E0));
#200=VECTOR('',#199,2.2E0);
#201=CARTESIAN_POINT('',(-1.1E0,7.5E-1,-1.9E0));
#202=LINE('',#201,#200);
#203=DIRECTION('',(0.E0,0.E0,-1.E0));
#204=VECTOR('',#203,4.834061760430E-1);
#205=CARTESIAN_POINT('',(1.1E0,7.5E-1,-1.9E0));
#206=LINE('',#205,#204);
#207=CARTESIAN_POINT('',(0.E0,7.5E-1,0.E0));
#208=DIRECTION('',(0.E0,1.E0,0.E0));
#209=DIRECTION('',(3.142857142857E-1,0.E0,-9.493284414764E-1));
#210=AXIS2_PLACEMENT_3D('',#207,#208,#209);
#212=DIRECTION('',(0.E0,-1.E0,0.E0));
#213=VECTOR('',#212,2.45E0);
#214=CARTESIAN_POINT('',(3.5E0,3.2E0,0.E0));
#215=LINE('',#214,#213);
#216=CARTESIAN_POINT('',(0.E0,7.5E-1,0.E0));
#217=DIRECTION('',(0.E0,1.E0,0.E0));
#218=DIRECTION('',(-2.857142857143E-1,0.E0,-9.583148474999E-1));
#219=AXIS2_PLACEMENT_3D('',#216,#217,#218);
#221=DIRECTION('',(0.E0,0.E0,-1.E0));
#222=VECTOR('',#221,1.458980337503E-1);
#223=CARTESIAN_POINT('',(1.E0,7.5E-1,3.5E0));
#224=LINE('',#223,#222);
#225=DIRECTION('',(1.E0,0.E0,0.E0));
#226=VECTOR('',#225,1.E0);
#227=CARTESIAN_POINT('',(0.E0,7.5E-1,3.5E0));
#228=LINE('',#227,#226);
#229=CARTESIAN_POINT('',(0.E0,7.5E-1,0.E0));
#230=DIRECTION('',(0.E0,1.E0,0.E0));
#231=DIRECTION('',(0.E0,0.E0,1.E0));
#232=AXIS2_PLACEMENT_3D('',#229,#230,#231);
#234=DIRECTION('',(0.E0,0.E0,-1.E0));
#235=VECTOR('',#234,1.346767116214E-1);
#236=CARTESIAN_POINT('',(1.E0,7.5E-1,2.561737691490E0));
#237=LINE('',#236,#235);
#238=CARTESIAN_POINT('',(0.E0,7.5E-1,0.E0));
#239=DIRECTION('',(0.E0,1.E0,0.E0));
#240=DIRECTION('',(-3.636363636364E-1,0.E0,9.315409787236E-1));
#241=AXIS2_PLACEMENT_3D('',#238,#239,#240);
#243=DIRECTION('',(0.E0,0.E0,-1.E0));
#244=VECTOR('',#243,1.346767116214E-1);
#245=CARTESIAN_POINT('',(-1.E0,7.5E-1,2.561737691490E0));
#246=LINE('',#245,#244);
#247=CARTESIAN_POINT('',(0.E0,7.5E-1,0.E0));
#248=DIRECTION('',(0.E0,1.E0,0.E0));
#249=DIRECTION('',(-3.809523809524E-1,0.E0,9.245946589975E-1));
#250=AXIS2_PLACEMENT_3D('',#247,#248,#249);
#252=DIRECTION('',(0.E0,0.E0,-1.E0));
#253=VECTOR('',#252,1.773504548328E-1);
#254=CARTESIAN_POINT('',(1.1E0,7.5E-1,3.5E0));
#255=LINE('',#254,#253);
#256=CARTESIAN_POINT('',(0.E0,7.5E-1,0.E0));
#257=DIRECTION('',(0.E0,1.E0,0.E0));
#258=DIRECTION('',(3.142857142857E-1,0.E0,9.493284414764E-1));
#259=AXIS2_PLACEMENT_3D('',#256,#257,#258);
#261=DIRECTION('',(0.E0,0.E0,-1.E0));
#262=VECTOR('',#261,2.197E0);
#263=CARTESIAN_POINT('',(3.5E0,7.5E-1,2.197E0));
#264=LINE('',#263,#262);
#265=DIRECTION('',(7.071067811865E-1,0.E0,-7.071067811865E-1));
#266=VECTOR('',#265,1.842720271772E0);
#267=CARTESIAN_POINT('',(2.197E0,7.5E-1,3.5E0));
#268=LINE('',#267,#266);
#269=DIRECTION('',(1.E0,0.E0,0.E0));
#270=VECTOR('',#269,1.097E0);
#271=CARTESIAN_POINT('',(1.1E0,7.5E-1,3.5E0));
#272=LINE('',#271,#270);
#273=DIRECTION('',(0.E0,0.E0,-1.E0));
#274=VECTOR('',#273,1.370104561827E-1);
#275=CARTESIAN_POINT('',(1.1E0,7.5E-1,2.520416632226E0));
#276=LINE('',#275,#274);
#277=CARTESIAN_POINT('',(0.E0,7.5E-1,0.E0));
#278=DIRECTION('',(0.E0,1.E0,0.E0));
#279=DIRECTION('',(4.190476190476E-1,0.E0,9.079642575402E-1));
#280=AXIS2_PLACEMENT_3D('',#277,#278,#279);
#282=DIRECTION('',(-7.071067811865E-1,0.E0,-7.071067811865E-1));
#283=VECTOR('',#282,3.503264202489E-1);
#284=CARTESIAN_POINT('',(1.670941492090E0,7.5E-1,2.024494882683E0));
#285=LINE('',#284,#283);
#286=CARTESIAN_POINT('',(1.6E0,7.5E-1,1.6E0));
#287=DIRECTION('',(0.E0,1.E0,0.E0));
#288=DIRECTION('',(7.071067811865E-1,0.E0,-7.071067811865E-1));
#289=AXIS2_PLACEMENT_3D('',#286,#287,#288);
#291=DIRECTION('',(7.071067811865E-1,0.E0,7.071067811865E-1));
#292=VECTOR('',#291,3.503264202489E-1);
#293=CARTESIAN_POINT('',(1.776776695297E0,7.5E-1,1.423223304703E0));
#294=LINE('',#293,#292);
#295=CARTESIAN_POINT('',(0.E0,7.5E-1,0.E0));
#296=DIRECTION('',(0.E0,1.E0,0.E0));
#297=DIRECTION('',(7.712361457842E-1,0.E0,6.365491398439E-1));
#298=AXIS2_PLACEMENT_3D('',#295,#296,#297);
#300=DIRECTION('',(0.E0,0.E0,1.E0));
#301=VECTOR('',#300,1.370104561827E-1);
#302=CARTESIAN_POINT('',(1.1E0,7.5E-1,-2.520416632226E0));
#303=LINE('',#302,#301);
#304=CARTESIAN_POINT('',(0.E0,7.5E-1,0.E0));
#305=DIRECTION('',(0.E0,1.E0,0.E0));
#306=DIRECTION('',(1.E0,0.E0,0.E0));
#307=AXIS2_PLACEMENT_3D('',#304,#305,#306);
#309=CARTESIAN_POINT('',(0.E0,7.5E-1,0.E0));
#310=DIRECTION('',(0.E0,1.E0,0.E0));
#311=DIRECTION('',(4.E-1,0.E0,9.165151389912E-1));
#312=AXIS2_PLACEMENT_3D('',#309,#310,#311);
#314=DIRECTION('',(0.E0,0.E0,-1.E0));
#315=VECTOR('',#314,1.773504548328E-1);
#316=CARTESIAN_POINT('',(-1.1E0,7.5E-1,3.5E0));
#317=LINE('',#316,#315);
#318=DIRECTION('',(1.E0,0.E0,0.E0));
#319=VECTOR('',#318,2.2E0);
#320=CARTESIAN_POINT('',(-3.3E0,7.5E-1,3.5E0));
#321=LINE('',#320,#319);
#322=CARTESIAN_POINT('',(-3.3E0,7.5E-1,3.3E0));
#323=DIRECTION('',(0.E0,1.E0,0.E0));
#324=DIRECTION('',(-1.E0,0.E0,0.E0));
#325=AXIS2_PLACEMENT_3D('',#322,#323,#324);
#327=DIRECTION('',(0.E0,0.E0,1.E0));
#328=VECTOR('',#327,3.3E0);
#329=CARTESIAN_POINT('',(-3.5E0,7.5E-1,0.E0));
#330=LINE('',#329,#328);
#331=CARTESIAN_POINT('',(0.E0,7.5E-1,0.E0));
#332=DIRECTION('',(0.E0,1.E0,0.E0));
#333=DIRECTION('',(-1.E0,0.E0,0.E0));
#334=AXIS2_PLACEMENT_3D('',#331,#332,#333);
#336=DIRECTION('',(0.E0,0.E0,-1.E0));
#337=VECTOR('',#336,1.370104561827E-1);
#338=CARTESIAN_POINT('',(-1.1E0,7.5E-1,2.520416632226E0));
#339=LINE('',#338,#337);
#340=CARTESIAN_POINT('',(0.E0,7.5E-1,0.E0));
#341=DIRECTION('',(0.E0,1.E0,0.E0));
#342=DIRECTION('',(-1.E0,0.E0,0.E0));
#343=AXIS2_PLACEMENT_3D('',#340,#341,#342);
#345=CARTESIAN_POINT('',(0.E0,7.5E-1,0.E0));
#346=DIRECTION('',(0.E0,1.E0,0.E0));
#347=DIRECTION('',(-4.E-1,0.E0,-9.165151389912E-1));
#348=AXIS2_PLACEMENT_3D('',#345,#346,#347);
#350=DIRECTION('',(0.E0,0.E0,1.E0));
#351=VECTOR('',#350,1.370104561827E-1);
#352=CARTESIAN_POINT('',(-1.1E0,7.5E-1,-2.520416632226E0));
#353=LINE('',#352,#351);
#354=CARTESIAN_POINT('',(0.E0,7.5E-1,0.E0));
#355=DIRECTION('',(0.E0,1.E0,0.E0));
#356=DIRECTION('',(-4.190476190476E-1,0.E0,-9.079642575402E-1));
#357=AXIS2_PLACEMENT_3D('',#354,#355,#356);
#359=DIRECTION('',(7.071067811865E-1,0.E0,7.071067811865E-1));
#360=VECTOR('',#359,3.503264202489E-1);
#361=CARTESIAN_POINT('',(-1.670941492090E0,7.5E-1,-2.024494882683E0));
#362=LINE('',#361,#360);
#363=CARTESIAN_POINT('',(-1.6E0,7.5E-1,-1.6E0));
#364=DIRECTION('',(0.E0,1.E0,0.E0));
#365=DIRECTION('',(-7.071067811865E-1,0.E0,7.071067811865E-1));
#366=AXIS2_PLACEMENT_3D('',#363,#364,#365);
#368=DIRECTION('',(-7.071067811865E-1,0.E0,-7.071067811865E-1));
#369=VECTOR('',#368,3.503264202489E-1);
#370=CARTESIAN_POINT('',(-1.776776695297E0,7.5E-1,-1.423223304703E0));
#371=LINE('',#370,#369);
#372=CARTESIAN_POINT('',(0.E0,7.5E-1,0.E0));
#373=DIRECTION('',(0.E0,1.E0,0.E0));
#374=DIRECTION('',(-7.712361457842E-1,0.E0,-6.365491398439E-1));
#375=AXIS2_PLACEMENT_3D('',#372,#373,#374);
#377=DIRECTION('',(0.E0,0.E0,-1.E0));
#378=VECTOR('',#377,1.458980337503E-1);
#379=CARTESIAN_POINT('',(-1.E0,7.5E-1,3.5E0));
#380=LINE('',#379,#378);
#381=CARTESIAN_POINT('',(0.E0,7.5E-1,0.E0));
#382=DIRECTION('',(0.E0,1.E0,0.E0));
#383=DIRECTION('',(-2.857142857143E-1,0.E0,9.583148474999E-1));
#384=AXIS2_PLACEMENT_3D('',#381,#382,#383);
#386=DIRECTION('',(1.E0,0.E0,0.E0));
#387=VECTOR('',#386,1.E0);
#388=CARTESIAN_POINT('',(-1.E0,7.5E-1,3.5E0));
#389=LINE('',#388,#387);
#390=DIRECTION('',(0.E0,0.E0,1.E0));
#391=VECTOR('',#390,1.458980337503E-1);
#392=CARTESIAN_POINT('',(-1.E0,7.5E-1,-3.5E0));
#393=LINE('',#392,#391);
#394=DIRECTION('',(-1.E0,0.E0,0.E0));
#395=VECTOR('',#394,1.E0);
#396=CARTESIAN_POINT('',(0.E0,7.5E-1,-3.5E0));
#397=LINE('',#396,#395);
#398=CARTESIAN_POINT('',(0.E0,7.5E-1,0.E0));
#399=DIRECTION('',(0.E0,1.E0,0.E0));
#400=DIRECTION('',(0.E0,0.E0,-1.E0));
#401=AXIS2_PLACEMENT_3D('',#398,#399,#400);
#403=DIRECTION('',(0.E0,0.E0,1.E0));
#404=VECTOR('',#403,1.346767116214E-1);
#405=CARTESIAN_POINT('',(-1.E0,7.5E-1,-2.561737691490E0));
#406=LINE('',#405,#404);
#407=CARTESIAN_POINT('',(0.E0,7.5E-1,0.E0));
#408=DIRECTION('',(0.E0,1.E0,0.E0));
#409=DIRECTION('',(3.636363636364E-1,0.E0,-9.315409787236E-1));
#410=AXIS2_PLACEMENT_3D('',#407,#408,#409);
#412=DIRECTION('',(0.E0,0.E0,1.E0));
#413=VECTOR('',#412,1.346767116214E-1);
#414=CARTESIAN_POINT('',(1.E0,7.5E-1,-2.561737691490E0));
#415=LINE('',#414,#413);
#416=CARTESIAN_POINT('',(0.E0,7.5E-1,0.E0));
#417=DIRECTION('',(0.E0,1.E0,0.E0));
#418=DIRECTION('',(3.809523809524E-1,0.E0,-9.245946589975E-1));
#419=AXIS2_PLACEMENT_3D('',#416,#417,#418);
#421=DIRECTION('',(0.E0,0.E0,1.E0));
#422=VECTOR('',#421,1.773504548328E-1);
#423=CARTESIAN_POINT('',(-1.1E0,7.5E-1,-3.5E0));
#424=LINE('',#423,#422);
#425=CARTESIAN_POINT('',(0.E0,7.5E-1,0.E0));
#426=DIRECTION('',(0.E0,1.E0,0.E0));
#427=DIRECTION('',(-3.142857142857E-1,0.E0,-9.493284414764E-1));
#428=AXIS2_PLACEMENT_3D('',#425,#426,#427);
#430=DIRECTION('',(0.E0,0.E0,1.E0));
#431=VECTOR('',#430,2.197E0);
#432=CARTESIAN_POINT('',(-3.5E0,7.5E-1,-2.197E0));
#433=LINE('',#432,#431);
#434=DIRECTION('',(-7.071067811865E-1,0.E0,7.071067811865E-1));
#435=VECTOR('',#434,1.842720271772E0);
#436=CARTESIAN_POINT('',(-2.197E0,7.5E-1,-3.5E0));
#437=LINE('',#436,#435);
#438=DIRECTION('',(-1.E0,0.E0,0.E0));
#439=VECTOR('',#438,1.097E0);
#440=CARTESIAN_POINT('',(-1.1E0,7.5E-1,-3.5E0));
#441=LINE('',#440,#439);
#442=DIRECTION('',(0.E0,0.E0,1.E0));
#443=VECTOR('',#442,1.773504548328E-1);
#444=CARTESIAN_POINT('',(1.1E0,7.5E-1,-3.5E0));
#445=LINE('',#444,#443);
#446=DIRECTION('',(-1.E0,0.E0,0.E0));
#447=VECTOR('',#446,2.2E0);
#448=CARTESIAN_POINT('',(3.3E0,7.5E-1,-3.5E0));
#449=LINE('',#448,#447);
#450=CARTESIAN_POINT('',(3.3E0,7.5E-1,-3.3E0));
#451=DIRECTION('',(0.E0,1.E0,0.E0));
#452=DIRECTION('',(1.E0,0.E0,0.E0));
#453=AXIS2_PLACEMENT_3D('',#450,#451,#452);
#455=DIRECTION('',(0.E0,0.E0,-1.E0));
#456=VECTOR('',#455,3.3E0);
#457=CARTESIAN_POINT('',(3.5E0,7.5E-1,0.E0));
#458=LINE('',#457,#456);
#459=CARTESIAN_POINT('',(0.E0,7.5E-1,0.E0));
#460=DIRECTION('',(0.E0,1.E0,0.E0));
#461=DIRECTION('',(1.E0,0.E0,0.E0));
#462=AXIS2_PLACEMENT_3D('',#459,#460,#461);
#464=DIRECTION('',(0.E0,0.E0,1.E0));
#465=VECTOR('',#464,1.458980337503E-1);
#466=CARTESIAN_POINT('',(1.E0,7.5E-1,-3.5E0));
#467=LINE('',#466,#465);
#468=CARTESIAN_POINT('',(0.E0,7.5E-1,0.E0));
#469=DIRECTION('',(0.E0,1.E0,0.E0));
#470=DIRECTION('',(2.857142857143E-1,0.E0,-9.583148474999E-1));
#471=AXIS2_PLACEMENT_3D('',#468,#469,#470);
#473=DIRECTION('',(-1.E0,0.E0,0.E0));
#474=VECTOR('',#473,1.E0);
#475=CARTESIAN_POINT('',(1.E0,7.5E-1,-3.5E0));
#476=LINE('',#475,#474);
#477=CARTESIAN_POINT('',(0.E0,7.5E-1,0.E0));
#478=DIRECTION('',(0.E0,1.E0,0.E0));
#479=DIRECTION('',(-3.142857142857E-1,0.E0,9.493284414764E-1));
#480=AXIS2_PLACEMENT_3D('',#477,#478,#479);
#482=DIRECTION('',(0.E0,-1.E0,0.E0));
#483=VECTOR('',#482,2.45E0);
#484=CARTESIAN_POINT('',(-3.5E0,3.2E0,0.E0));
#485=LINE('',#484,#483);
#486=CARTESIAN_POINT('',(0.E0,7.5E-1,0.E0));
#487=DIRECTION('',(0.E0,1.E0,0.E0));
#488=DIRECTION('',(2.857142857143E-1,0.E0,9.583148474999E-1));
#489=AXIS2_PLACEMENT_3D('',#486,#487,#488);
#491=CARTESIAN_POINT('',(0.E0,3.2E0,0.E0));
#492=DIRECTION('',(0.E0,1.E0,0.E0));
#493=DIRECTION('',(1.E0,0.E0,0.E0));
#494=AXIS2_PLACEMENT_3D('',#491,#492,#493);
#496=CARTESIAN_POINT('',(0.E0,3.2E0,0.E0));
#497=DIRECTION('',(0.E0,1.E0,0.E0));
#498=DIRECTION('',(-1.E0,0.E0,0.E0));
#499=AXIS2_PLACEMENT_3D('',#496,#497,#498);
#501=CARTESIAN_POINT('',(0.E0,3.2E0,0.E0));
#502=DIRECTION('',(0.E0,-1.E0,0.E0));
#503=DIRECTION('',(1.E0,0.E0,0.E0));
#504=AXIS2_PLACEMENT_3D('',#501,#502,#503);
#506=CARTESIAN_POINT('',(0.E0,3.2E0,0.E0));
#507=DIRECTION('',(0.E0,-1.E0,0.E0));
#508=DIRECTION('',(-1.E0,0.E0,0.E0));
#509=AXIS2_PLACEMENT_3D('',#506,#507,#508);
#511=DIRECTION('',(-7.071068715609E-1,1.290867211540E-6,-7.071066908110E-1));
#512=VECTOR('',#511,2.498519029934E-1);
#513=CARTESIAN_POINT('',(-1.776776695297E0,3.2E0,-1.423223304703E0));
#514=LINE('',#513,#512);
#515=CARTESIAN_POINT('',(-1.6E0,3.2E0,-1.6E0));
#516=DIRECTION('',(0.E0,-1.E0,0.E0));
#517=DIRECTION('',(7.071067811865E-1,0.E0,-7.071067811865E-1));
#518=AXIS2_PLACEMENT_3D('',#515,#516,#517);
#520=DIRECTION('',(7.071066849322E-1,-1.263386478407E-6,7.071068774397E-1));
#521=VECTOR('',#520,2.498502656841E-1);
#522=CARTESIAN_POINT('',(-1.599894097801E0,3.200000315657E0,-1.953447536492E0));
#523=LINE('',#522,#521);
#524=DIRECTION('',(7.071068715609E-1,1.290867211540E-6,7.071066908110E-1));
#525=VECTOR('',#524,2.498519029934E-1);
#526=CARTESIAN_POINT('',(1.776776695297E0,3.2E0,1.423223304703E0));
#527=LINE('',#526,#525);
#528=CARTESIAN_POINT('',(1.6E0,3.2E0,1.6E0));
#529=DIRECTION('',(0.E0,-1.E0,0.E0));
#530=DIRECTION('',(-7.071067811865E-1,0.E0,7.071067811865E-1));
#531=AXIS2_PLACEMENT_3D('',#528,#529,#530);
#533=DIRECTION('',(-7.071066849322E-1,-1.263386481962E-6,-7.071068774398E-1));
#534=VECTOR('',#533,2.498502656841E-1);
#535=CARTESIAN_POINT('',(1.599894097801E0,3.200000315657E0,1.953447536492E0));
#536=LINE('',#535,#534);
#537=CARTESIAN_POINT('',(0.E0,7.5E-1,0.E0));
#538=DIRECTION('',(0.E0,1.E0,0.E0));
#539=DIRECTION('',(-4.E-1,0.E0,9.165151389912E-1));
#540=AXIS2_PLACEMENT_3D('',#537,#538,#539);
#542=CARTESIAN_POINT('',(0.E0,7.5E-1,0.E0));
#543=DIRECTION('',(0.E0,1.E0,0.E0));
#544=DIRECTION('',(3.636363636364E-1,0.E0,9.315409787236E-1));
#545=AXIS2_PLACEMENT_3D('',#542,#543,#544);
#547=DIRECTION('',(0.E0,-1.E0,0.E0));
#548=VECTOR('',#547,2.45E0);
#549=CARTESIAN_POINT('',(2.75E0,3.2E0,0.E0));
#550=LINE('',#549,#548);
#551=CARTESIAN_POINT('',(0.E0,7.5E-1,0.E0));
#552=DIRECTION('',(0.E0,1.E0,0.E0));
#553=DIRECTION('',(4.E-1,0.E0,-9.165151389912E-1));
#554=AXIS2_PLACEMENT_3D('',#551,#552,#553);
#556=CARTESIAN_POINT('',(0.E0,7.5E-1,0.E0));
#557=DIRECTION('',(0.E0,1.E0,0.E0));
#558=DIRECTION('',(-3.636363636364E-1,0.E0,-9.315409787236E-1));
#559=AXIS2_PLACEMENT_3D('',#556,#557,#558);
#561=DIRECTION('',(0.E0,-1.E0,0.E0));
#562=VECTOR('',#561,2.45E0);
#563=CARTESIAN_POINT('',(-2.75E0,3.2E0,0.E0));
#564=LINE('',#563,#562);
#565=CARTESIAN_POINT('',(-1.751721702137E-7,3.2E0,-3.312288458512E-6));
#566=DIRECTION('',(0.E0,1.E0,0.E0));
#567=DIRECTION('',(-7.736435630114E-1,0.E0,-6.336210519001E-1));
#568=AXIS2_PLACEMENT_3D('',#565,#566,#567);
#570=CARTESIAN_POINT('',(-1.751721702137E-7,3.099998453667E0,
-3.312288458512E-6));
#571=DIRECTION('',(0.E0,-1.E0,0.E0));
#572=DIRECTION('',(6.365485600700E-1,0.E0,7.712366243072E-1));
#573=AXIS2_PLACEMENT_3D('',#570,#571,#572);
#575=CARTESIAN_POINT('',(1.599894097801E0,3.200000315657E0,1.953447536492E0));
#576=CARTESIAN_POINT('',(1.611550852414E0,3.183596225121E0,1.965104291105E0));
#577=CARTESIAN_POINT('',(1.635051997731E0,3.150526835484E0,1.988605337711E0));
#578=CARTESIAN_POINT('',(1.658915134272E0,3.116929546454E0,2.012468577994E0));
#579=CARTESIAN_POINT('',(1.670940570036E0,3.100000365723E0,2.024494013759E0));
#581=DIRECTION('',(3.923633533206E-7,-9.999999999999E-1,3.697552122627E-7));
#582=VECTOR('',#581,2.350000365723E0);
#583=CARTESIAN_POINT('',(1.670940570036E0,3.100000365723E0,2.024494013759E0));
#584=LINE('',#583,#582);
#585=DIRECTION('',(0.E0,-1.E0,0.E0));
#586=VECTOR('',#585,2.45E0);
#587=CARTESIAN_POINT('',(1.423223304703E0,3.2E0,1.776776695297E0));
#588=LINE('',#587,#586);
#589=CARTESIAN_POINT('',(2.024495170037E0,3.100000372589E0,1.670941729260E0));
#590=CARTESIAN_POINT('',(2.012471169558E0,3.116927532754E0,1.658917728782E0));
#591=CARTESIAN_POINT('',(1.988607058802E0,3.150522797147E0,1.635053715880E0));
#592=CARTESIAN_POINT('',(1.965106882938E0,3.183594211796E0,1.611553447184E0));
#593=CARTESIAN_POINT('',(1.953448692776E0,3.200000322526E0,1.599895257022E0));
#595=DIRECTION('',(0.E0,-1.E0,0.E0));
#596=VECTOR('',#595,2.45E0);
#597=CARTESIAN_POINT('',(1.776776695297E0,3.2E0,1.423223304703E0));
#598=LINE('',#597,#596);
#599=CARTESIAN_POINT('',(1.751722099597E-7,3.2E0,3.312288456514E-6));
#600=DIRECTION('',(0.E0,1.E0,0.E0));
#601=DIRECTION('',(7.736435630114E-1,0.E0,6.336210519001E-1));
#602=AXIS2_PLACEMENT_3D('',#599,#600,#601);
#604=CARTESIAN_POINT('',(1.751722099597E-7,3.099998453667E0,3.312288456514E-6));
#605=DIRECTION('',(0.E0,-1.E0,0.E0));
#606=DIRECTION('',(-6.365485600700E-1,0.E0,-7.712366243072E-1));
#607=AXIS2_PLACEMENT_3D('',#604,#605,#606);
#609=CARTESIAN_POINT('',(-1.599894097801E0,3.200000315657E0,-1.953447536492E0));
#610=CARTESIAN_POINT('',(-1.611550852414E0,3.183596225121E0,-1.965104291105E0));
#611=CARTESIAN_POINT('',(-1.635051997731E0,3.150526835484E0,-1.988605337711E0));
#612=CARTESIAN_POINT('',(-1.658915134272E0,3.116929546454E0,-2.012468577994E0));
#613=CARTESIAN_POINT('',(-1.670940570036E0,3.100000365723E0,-2.024494013759E0));
#615=DIRECTION('',(-3.923633519032E-7,-9.999999999999E-1,-3.697552183099E-7));
#616=VECTOR('',#615,2.350000365723E0);
#617=CARTESIAN_POINT('',(-1.670940570036E0,3.100000365723E0,-2.024494013759E0));
#618=LINE('',#617,#616);
#619=DIRECTION('',(0.E0,-1.E0,0.E0));
#620=VECTOR('',#619,2.45E0);
#621=CARTESIAN_POINT('',(-1.423223304703E0,3.2E0,-1.776776695297E0));
#622=LINE('',#621,#620);
#623=CARTESIAN_POINT('',(-2.024495170037E0,3.100000372589E0,-1.670941729260E0));
#624=CARTESIAN_POINT('',(-2.012471169558E0,3.116927532754E0,-1.658917728782E0));
#625=CARTESIAN_POINT('',(-1.988607058802E0,3.150522797147E0,-1.635053715880E0));
#626=CARTESIAN_POINT('',(-1.965106882938E0,3.183594211796E0,-1.611553447184E0));
#627=CARTESIAN_POINT('',(-1.953448692776E0,3.200000322526E0,-1.599895257022E0));
#629=DIRECTION('',(0.E0,-1.E0,0.E0));
#630=VECTOR('',#629,2.45E0);
#631=CARTESIAN_POINT('',(-1.776776695297E0,3.2E0,-1.423223304703E0));
#632=LINE('',#631,#630);
#633=CARTESIAN_POINT('',(0.E0,7.5E-1,0.E0));
#634=DIRECTION('',(0.E0,1.E0,0.E0));
#635=DIRECTION('',(-4.190476190476E-1,0.E0,9.079642575402E-1));
#636=AXIS2_PLACEMENT_3D('',#633,#634,#635);
#638=DIRECTION('',(1.222779036246E-7,-1.E0,1.009233649514E-7));
#639=VECTOR('',#638,2.350000372589E0);
#640=CARTESIAN_POINT('',(-2.024495170037E0,3.100000372589E0,-1.670941729260E0));
#641=LINE('',#640,#639);
#642=CARTESIAN_POINT('',(0.E0,7.5E-1,0.E0));
#643=DIRECTION('',(0.E0,1.E0,0.E0));
#644=DIRECTION('',(3.809523809524E-1,0.E0,9.245946589975E-1));
#645=AXIS2_PLACEMENT_3D('',#642,#643,#644);
#647=CARTESIAN_POINT('',(0.E0,7.5E-1,0.E0));
#648=DIRECTION('',(0.E0,1.E0,0.E0));
#649=DIRECTION('',(4.190476190476E-1,0.E0,-9.079642575402E-1));
#650=AXIS2_PLACEMENT_3D('',#647,#648,#649);
#652=DIRECTION('',(-1.222779036246E-7,-1.E0,-1.009233652348E-7));
#653=VECTOR('',#652,2.350000372589E0);
#654=CARTESIAN_POINT('',(2.024495170037E0,3.100000372589E0,1.670941729260E0));
#655=LINE('',#654,#653);
#656=CARTESIAN_POINT('',(0.E0,7.5E-1,0.E0));
#657=DIRECTION('',(0.E0,1.E0,0.E0));
#658=DIRECTION('',(-3.809523809524E-1,0.E0,-9.245946589975E-1));
#659=AXIS2_PLACEMENT_3D('',#656,#657,#658);
#661=DIRECTION('',(0.E0,1.E0,0.E0));
#662=VECTOR('',#661,7.5E-1);
#663=CARTESIAN_POINT('',(1.1E0,0.E0,1.9E0));
#664=LINE('',#663,#662);
#665=DIRECTION('',(0.E0,1.E0,0.E0));
#666=VECTOR('',#665,7.5E-1);
#667=CARTESIAN_POINT('',(-1.1E0,0.E0,1.9E0));
#668=LINE('',#667,#666);
#669=DIRECTION('',(0.E0,-1.E0,0.E0));
#670=VECTOR('',#669,7.5E-1);
#671=CARTESIAN_POINT('',(3.5E0,7.5E-1,-3.3E0));
#672=LINE('',#671,#670);
#673=DIRECTION('',(0.E0,1.E0,0.E0));
#674=VECTOR('',#673,7.5E-1);
#675=CARTESIAN_POINT('',(3.5E0,0.E0,2.197E0));
#676=LINE('',#675,#674);
#677=DIRECTION('',(0.E0,1.E0,0.E0));
#678=VECTOR('',#677,7.5E-1);
#679=CARTESIAN_POINT('',(-1.E0,0.E0,-3.5E0));
#680=LINE('',#679,#678);
#681=DIRECTION('',(0.E0,1.E0,0.E0));
#682=VECTOR('',#681,7.5E-1);
#683=CARTESIAN_POINT('',(1.E0,0.E0,-3.5E0));
#684=LINE('',#683,#682);
#685=DIRECTION('',(0.E0,1.E0,0.E0));
#686=VECTOR('',#685,7.5E-1);
#687=CARTESIAN_POINT('',(-1.1E0,0.E0,-3.5E0));
#688=LINE('',#687,#686);
#689=DIRECTION('',(0.E0,1.E0,0.E0));
#690=VECTOR('',#689,7.5E-1);
#691=CARTESIAN_POINT('',(1.1E0,0.E0,-3.5E0));
#692=LINE('',#691,#690);
#693=DIRECTION('',(0.E0,-1.E0,0.E0));
#694=VECTOR('',#693,7.5E-1);
#695=CARTESIAN_POINT('',(3.3E0,7.5E-1,-3.5E0));
#696=LINE('',#695,#694);
#697=DIRECTION('',(0.E0,1.E0,0.E0));
#698=VECTOR('',#697,7.5E-1);
#699=CARTESIAN_POINT('',(-1.E0,0.E0,-2.E0));
#700=LINE('',#699,#698);
#701=DIRECTION('',(0.E0,1.E0,0.E0));
#702=VECTOR('',#701,7.5E-1);
#703=CARTESIAN_POINT('',(1.E0,0.E0,-2.E0));
#704=LINE('',#703,#702);
#705=DIRECTION('',(0.E0,1.E0,0.E0));
#706=VECTOR('',#705,7.5E-1);
#707=CARTESIAN_POINT('',(-1.1E0,0.E0,-1.9E0));
#708=LINE('',#707,#706);
#709=DIRECTION('',(0.E0,1.E0,0.E0));
#710=VECTOR('',#709,7.5E-1);
#711=CARTESIAN_POINT('',(1.1E0,0.E0,-1.9E0));
#712=LINE('',#711,#710);
#713=DIRECTION('',(0.E0,1.E0,0.E0));
#714=VECTOR('',#713,7.5E-1);
#715=CARTESIAN_POINT('',(-2.197E0,0.E0,-3.5E0));
#716=LINE('',#715,#714);
#717=DIRECTION('',(0.E0,-1.E0,0.E0));
#718=VECTOR('',#717,2.5E-1);
#719=CARTESIAN_POINT('',(-2.589059159102E0,5.E-1,-3.107940840898E0));
#720=LINE('',#719,#718);
#721=DIRECTION('',(-7.071067811865E-1,0.E0,7.071067811865E-1));
#722=VECTOR('',#721,7.E-1);
#723=CARTESIAN_POINT('',(-2.589059159102E0,2.5E-1,-3.107940840898E0));
#724=LINE('',#723,#722);
#725=DIRECTION('',(0.E0,1.E0,0.E0));
#726=VECTOR('',#725,2.5E-1);
#727=CARTESIAN_POINT('',(-3.084033905933E0,2.5E-1,-2.612966094067E0));
#728=LINE('',#727,#726);
#729=DIRECTION('',(7.071067811865E-1,0.E0,-7.071067811865E-1));
#730=VECTOR('',#729,7.E-1);
#731=CARTESIAN_POINT('',(-3.084033905933E0,5.E-1,-2.612966094067E0));
#732=LINE('',#731,#730);
#733=DIRECTION('',(0.E0,-1.E0,0.E0));
#734=VECTOR('',#733,7.5E-1);
#735=CARTESIAN_POINT('',(-3.5E0,7.5E-1,3.3E0));
#736=LINE('',#735,#734);
#737=DIRECTION('',(0.E0,1.E0,0.E0));
#738=VECTOR('',#737,7.5E-1);
#739=CARTESIAN_POINT('',(-3.5E0,0.E0,-2.197E0));
#740=LINE('',#739,#738);
#741=DIRECTION('',(-7.071067811865E-1,0.E0,-7.071067811865E-1));
#742=VECTOR('',#741,5.E-1);
#743=CARTESIAN_POINT('',(-2.589059159102E0,5.E-1,-3.107940840898E0));
#744=LINE('',#743,#742);
#745=DIRECTION('',(-7.071067811865E-1,0.E0,-7.071067811865E-1));
#746=VECTOR('',#745,4.432253351605E-1);
#747=CARTESIAN_POINT('',(3.421348480983E0,5.E-1,2.902466799188E0));
#748=LINE('',#747,#746);
#749=DIRECTION('',(-7.071067811865E-1,0.E0,-7.071067811865E-1));
#750=VECTOR('',#749,5.E-1);
#751=CARTESIAN_POINT('',(-3.084033905933E0,5.E-1,-2.612966094067E0));
#752=LINE('',#751,#750);
#753=DIRECTION('',(-7.071067811865E-1,0.E0,-7.071067811865E-1));
#754=VECTOR('',#753,4.432253351605E-1);
#755=CARTESIAN_POINT('',(2.926373734153E0,5.E-1,3.397441546018E0));
#756=LINE('',#755,#754);
#757=DIRECTION('',(-7.071067811865E-1,0.E0,-7.071067811865E-1));
#758=VECTOR('',#757,5.E-1);
#759=CARTESIAN_POINT('',(-3.084033905933E0,2.5E-1,-2.612966094067E0));
#760=LINE('',#759,#758);
#761=DIRECTION('',(-7.071067811865E-1,0.E0,-7.071067811865E-1));
#762=VECTOR('',#761,4.432253351605E-1);
#763=CARTESIAN_POINT('',(2.926373734153E0,2.5E-1,3.397441546018E0));
#764=LINE('',#763,#762);
#765=DIRECTION('',(-7.071067811865E-1,0.E0,-7.071067811865E-1));
#766=VECTOR('',#765,5.E-1);
#767=CARTESIAN_POINT('',(-2.589059159102E0,2.5E-1,-3.107940840898E0));
#768=LINE('',#767,#766);
#769=DIRECTION('',(-7.071067811865E-1,0.E0,-7.071067811865E-1));
#770=VECTOR('',#769,4.432253351605E-1);
#771=CARTESIAN_POINT('',(3.421348480983E0,2.5E-1,2.902466799188E0));
#772=LINE('',#771,#770);
#773=DIRECTION('',(0.E0,-1.E0,0.E0));
#774=VECTOR('',#773,2.5E-1);
#775=CARTESIAN_POINT('',(-2.942612549695E0,5.E-1,-3.461494231491E0));
#776=LINE('',#775,#774);
#777=DIRECTION('',(7.071067811865E-1,0.E0,-7.071067811865E-1));
#778=VECTOR('',#777,7.E-1);
#779=CARTESIAN_POINT('',(-3.437587296526E0,5.E-1,-2.966519484661E0));
#780=LINE('',#779,#778);
#781=DIRECTION('',(0.E0,1.E0,0.E0));
#782=VECTOR('',#781,2.5E-1);
#783=CARTESIAN_POINT('',(-3.437587296526E0,2.5E-1,-2.966519484661E0));
#784=LINE('',#783,#782);
#785=DIRECTION('',(-7.071067811865E-1,0.E0,7.071067811865E-1));
#786=VECTOR('',#785,7.E-1);
#787=CARTESIAN_POINT('',(-2.942612549695E0,2.5E-1,-3.461494231491E0));
#788=LINE('',#787,#786);
#789=DIRECTION('',(0.E0,1.E0,0.E0));
#790=VECTOR('',#789,7.5E-1);
#791=CARTESIAN_POINT('',(2.197E0,0.E0,3.5E0));
#792=LINE('',#791,#790);
#793=DIRECTION('',(0.E0,-1.E0,0.E0));
#794=VECTOR('',#793,2.5E-1);
#795=CARTESIAN_POINT('',(3.107940840898E0,5.E-1,2.589059159102E0));
#796=LINE('',#795,#794);
#797=DIRECTION('',(7.071067811865E-1,0.E0,-7.071067811865E-1));
#798=VECTOR('',#797,7.E-1);
#799=CARTESIAN_POINT('',(2.612966094067E0,5.E-1,3.084033905933E0));
#800=LINE('',#799,#798);
#801=DIRECTION('',(0.E0,1.E0,0.E0));
#802=VECTOR('',#801,2.5E-1);
#803=CARTESIAN_POINT('',(2.612966094067E0,2.5E-1,3.084033905933E0));
#804=LINE('',#803,#802);
#805=DIRECTION('',(-7.071067811865E-1,0.E0,7.071067811865E-1));
#806=VECTOR('',#805,7.E-1);
#807=CARTESIAN_POINT('',(3.107940840898E0,2.5E-1,2.589059159102E0));
#808=LINE('',#807,#806);
#809=DIRECTION('',(0.E0,-1.E0,0.E0));
#810=VECTOR('',#809,2.5E-1);
#811=CARTESIAN_POINT('',(3.421348480983E0,5.E-1,2.902466799188E0));
#812=LINE('',#811,#810);
#813=DIRECTION('',(-7.071067811865E-1,0.E0,7.071067811865E-1));
#814=VECTOR('',#813,7.E-1);
#815=CARTESIAN_POINT('',(3.421348480983E0,2.5E-1,2.902466799188E0));
#816=LINE('',#815,#814);
#817=DIRECTION('',(0.E0,1.E0,0.E0));
#818=VECTOR('',#817,2.5E-1);
#819=CARTESIAN_POINT('',(2.926373734153E0,2.5E-1,3.397441546018E0));
#820=LINE('',#819,#818);
#821=DIRECTION('',(7.071067811865E-1,0.E0,-7.071067811865E-1));
#822=VECTOR('',#821,7.E-1);
#823=CARTESIAN_POINT('',(2.926373734153E0,5.E-1,3.397441546018E0));
#824=LINE('',#823,#822);
#825=CARTESIAN_POINT('',(-2.197E0,0.E0,-3.5E0));
#826=CARTESIAN_POINT('',(-3.5E0,0.E0,-2.197E0));
#827=VERTEX_POINT('',#825);
#828=VERTEX_POINT('',#826);
#829=CARTESIAN_POINT('',(2.197E0,0.E0,3.5E0));
#830=CARTESIAN_POINT('',(3.5E0,0.E0,2.197E0));
#831=VERTEX_POINT('',#829);
#832=VERTEX_POINT('',#830);
#833=CARTESIAN_POINT('',(-2.197E0,7.5E-1,-3.5E0));
#834=CARTESIAN_POINT('',(-3.5E0,7.5E-1,-2.197E0));
#835=VERTEX_POINT('',#833);
#836=VERTEX_POINT('',#834);
#837=CARTESIAN_POINT('',(2.197E0,7.5E-1,3.5E0));
#838=CARTESIAN_POINT('',(3.5E0,7.5E-1,2.197E0));
#839=VERTEX_POINT('',#837);
#840=VERTEX_POINT('',#838);
#841=CARTESIAN_POINT('',(3.5E0,3.2E0,0.E0));
#842=CARTESIAN_POINT('',(-3.5E0,3.2E0,0.E0));
#843=VERTEX_POINT('',#841);
#844=VERTEX_POINT('',#842);
#845=CARTESIAN_POINT('',(2.75E0,3.2E0,0.E0));
#846=CARTESIAN_POINT('',(-2.75E0,3.2E0,0.E0));
#847=VERTEX_POINT('',#845);
#848=VERTEX_POINT('',#846);
#849=CARTESIAN_POINT('',(-1.423223304703E0,3.2E0,-1.776776695297E0));
#850=CARTESIAN_POINT('',(-1.776776695297E0,3.2E0,-1.423223304703E0));
#851=VERTEX_POINT('',#849);
#852=VERTEX_POINT('',#850);
#853=CARTESIAN_POINT('',(1.423223304703E0,3.2E0,1.776776695297E0));
#854=CARTESIAN_POINT('',(1.776776695297E0,3.2E0,1.423223304703E0));
#855=VERTEX_POINT('',#853);
#856=VERTEX_POINT('',#854);
#857=CARTESIAN_POINT('',(-1.776776695297E0,7.5E-1,-1.423223304703E0));
#858=CARTESIAN_POINT('',(-1.423223304703E0,7.5E-1,-1.776776695297E0));
#859=VERTEX_POINT('',#857);
#860=VERTEX_POINT('',#858);
#861=CARTESIAN_POINT('',(-2.024494882683E0,7.5E-1,-1.670941492090E0));
#862=VERTEX_POINT('',#861);
#863=CARTESIAN_POINT('',(1.670941492090E0,7.5E-1,2.024494882683E0));
#864=CARTESIAN_POINT('',(1.423223304703E0,7.5E-1,1.776776695297E0));
#865=VERTEX_POINT('',#863);
#866=VERTEX_POINT('',#864);
#867=CARTESIAN_POINT('',(1.776776695297E0,7.5E-1,1.423223304703E0));
#868=VERTEX_POINT('',#867);
#869=CARTESIAN_POINT('',(2.024494882683E0,7.5E-1,1.670941492090E0));
#870=VERTEX_POINT('',#869);
#871=CARTESIAN_POINT('',(-1.670941492090E0,7.5E-1,-2.024494882683E0));
#872=VERTEX_POINT('',#871);
#873=CARTESIAN_POINT('',(-3.5E0,7.5E-1,0.E0));
#874=VERTEX_POINT('',#873);
#875=CARTESIAN_POINT('',(3.5E0,7.5E-1,0.E0));
#876=VERTEX_POINT('',#875);
#877=CARTESIAN_POINT('',(2.75E0,7.5E-1,0.E0));
#878=VERTEX_POINT('',#877);
#879=CARTESIAN_POINT('',(-2.75E0,7.5E-1,0.E0));
#880=VERTEX_POINT('',#879);
#881=VERTEX_POINT('',#575);
#882=VERTEX_POINT('',#579);
#883=VERTEX_POINT('',#623);
#884=VERTEX_POINT('',#627);
#885=VERTEX_POINT('',#609);
#886=VERTEX_POINT('',#613);
#887=VERTEX_POINT('',#589);
#888=VERTEX_POINT('',#593);
#889=CARTESIAN_POINT('',(-3.3E0,0.E0,3.5E0));
#890=CARTESIAN_POINT('',(-3.5E0,0.E0,3.3E0));
#891=VERTEX_POINT('',#889);
#892=VERTEX_POINT('',#890);
#893=CARTESIAN_POINT('',(-3.5E0,7.5E-1,3.3E0));
#894=VERTEX_POINT('',#893);
#895=CARTESIAN_POINT('',(-3.3E0,7.5E-1,3.5E0));
#896=VERTEX_POINT('',#895);
#897=CARTESIAN_POINT('',(3.3E0,0.E0,-3.5E0));
#898=CARTESIAN_POINT('',(3.5E0,0.E0,-3.3E0));
#899=VERTEX_POINT('',#897);
#900=VERTEX_POINT('',#898);
#901=CARTESIAN_POINT('',(3.5E0,7.5E-1,-3.3E0));
#902=VERTEX_POINT('',#901);
#903=CARTESIAN_POINT('',(3.3E0,7.5E-1,-3.5E0));
#904=VERTEX_POINT('',#903);
#905=CARTESIAN_POINT('',(3.421348480983E0,5.E-1,2.902466799188E0));
#906=CARTESIAN_POINT('',(3.421348480983E0,2.5E-1,2.902466799188E0));
#907=VERTEX_POINT('',#905);
#908=VERTEX_POINT('',#906);
#909=CARTESIAN_POINT('',(2.926373734153E0,2.5E-1,3.397441546018E0));
#910=VERTEX_POINT('',#909);
#911=CARTESIAN_POINT('',(2.926373734153E0,5.E-1,3.397441546018E0));
#912=VERTEX_POINT('',#911);
#913=CARTESIAN_POINT('',(-2.942612549695E0,5.E-1,-3.461494231491E0));
#914=CARTESIAN_POINT('',(-2.942612549695E0,2.5E-1,-3.461494231491E0));
#915=VERTEX_POINT('',#913);
#916=VERTEX_POINT('',#914);
#917=CARTESIAN_POINT('',(-3.437587296526E0,2.5E-1,-2.966519484661E0));
#918=VERTEX_POINT('',#917);
#919=CARTESIAN_POINT('',(-3.437587296526E0,5.E-1,-2.966519484661E0));
#920=VERTEX_POINT('',#919);
#921=CARTESIAN_POINT('',(-2.589059159102E0,5.E-1,-3.107940840898E0));
#922=CARTESIAN_POINT('',(-2.589059159102E0,2.5E-1,-3.107940840898E0));
#923=VERTEX_POINT('',#921);
#924=VERTEX_POINT('',#922);
#925=CARTESIAN_POINT('',(-3.084033905933E0,2.5E-1,-2.612966094067E0));
#926=VERTEX_POINT('',#925);
#927=CARTESIAN_POINT('',(-3.084033905933E0,5.E-1,-2.612966094067E0));
#928=VERTEX_POINT('',#927);
#929=CARTESIAN_POINT('',(3.107940840898E0,5.E-1,2.589059159102E0));
#930=CARTESIAN_POINT('',(3.107940840898E0,2.5E-1,2.589059159102E0));
#931=VERTEX_POINT('',#929);
#932=VERTEX_POINT('',#930);
#933=CARTESIAN_POINT('',(2.612966094067E0,2.5E-1,3.084033905933E0));
#934=VERTEX_POINT('',#933);
#935=CARTESIAN_POINT('',(2.612966094067E0,5.E-1,3.084033905933E0));
#936=VERTEX_POINT('',#935);
#937=CARTESIAN_POINT('',(1.1E0,7.5E-1,1.9E0));
#938=CARTESIAN_POINT('',(-1.1E0,7.5E-1,1.9E0));
#939=VERTEX_POINT('',#937);
#940=VERTEX_POINT('',#938);
#941=CARTESIAN_POINT('',(-1.E0,7.5E-1,2.E0));
#942=CARTESIAN_POINT('',(1.E0,7.5E-1,2.E0));
#943=VERTEX_POINT('',#941);
#944=VERTEX_POINT('',#942);
#945=CARTESIAN_POINT('',(1.E0,7.5E-1,-2.E0));
#946=CARTESIAN_POINT('',(-1.E0,7.5E-1,-2.E0));
#947=VERTEX_POINT('',#945);
#948=VERTEX_POINT('',#946);
#949=CARTESIAN_POINT('',(-1.1E0,7.5E-1,-1.9E0));
#950=CARTESIAN_POINT('',(1.1E0,7.5E-1,-1.9E0));
#951=VERTEX_POINT('',#949);
#952=VERTEX_POINT('',#950);
#953=CARTESIAN_POINT('',(1.E0,0.E0,3.5E0));
#954=CARTESIAN_POINT('',(1.E0,0.E0,2.E0));
#955=VERTEX_POINT('',#953);
#956=VERTEX_POINT('',#954);
#957=CARTESIAN_POINT('',(1.1E0,0.E0,3.5E0));
#958=CARTESIAN_POINT('',(1.1E0,0.E0,1.9E0));
#959=VERTEX_POINT('',#957);
#960=VERTEX_POINT('',#958);
#961=CARTESIAN_POINT('',(-1.1E0,0.E0,1.9E0));
#962=VERTEX_POINT('',#961);
#963=CARTESIAN_POINT('',(-1.1E0,0.E0,3.5E0));
#964=VERTEX_POINT('',#963);
#965=CARTESIAN_POINT('',(-1.E0,0.E0,3.5E0));
#966=CARTESIAN_POINT('',(-1.E0,0.E0,2.E0));
#967=VERTEX_POINT('',#965);
#968=VERTEX_POINT('',#966);
#969=CARTESIAN_POINT('',(1.E0,0.E0,-2.E0));
#970=CARTESIAN_POINT('',(-1.E0,0.E0,-2.E0));
#971=VERTEX_POINT('',#969);
#972=VERTEX_POINT('',#970);
#973=CARTESIAN_POINT('',(-1.E0,0.E0,-3.5E0));
#974=VERTEX_POINT('',#973);
#975=CARTESIAN_POINT('',(-1.1E0,0.E0,-3.5E0));
#976=CARTESIAN_POINT('',(-1.1E0,0.E0,-1.9E0));
#977=VERTEX_POINT('',#975);
#978=VERTEX_POINT('',#976);
#979=CARTESIAN_POINT('',(1.1E0,0.E0,-1.9E0));
#980=VERTEX_POINT('',#979);
#981=CARTESIAN_POINT('',(1.1E0,0.E0,-3.5E0));
#982=VERTEX_POINT('',#981);
#983=CARTESIAN_POINT('',(1.E0,0.E0,-3.5E0));
#984=VERTEX_POINT('',#983);
#985=CARTESIAN_POINT('',(1.E0,7.5E-1,3.5E0));
#986=CARTESIAN_POINT('',(1.E0,7.5E-1,3.354101966250E0));
#987=VERTEX_POINT('',#985);
#988=VERTEX_POINT('',#986);
#989=CARTESIAN_POINT('',(1.E0,7.5E-1,2.561737691490E0));
#990=CARTESIAN_POINT('',(1.E0,7.5E-1,2.427060979868E0));
#991=VERTEX_POINT('',#989);
#992=VERTEX_POINT('',#990);
#993=CARTESIAN_POINT('',(1.1E0,7.5E-1,3.5E0));
#994=CARTESIAN_POINT('',(1.1E0,7.5E-1,3.322649545167E0));
#995=VERTEX_POINT('',#993);
#996=VERTEX_POINT('',#994);
#997=CARTESIAN_POINT('',(1.1E0,7.5E-1,2.520416632226E0));
#998=CARTESIAN_POINT('',(1.1E0,7.5E-1,2.383406176043E0));
#999=VERTEX_POINT('',#997);
#1000=VERTEX_POINT('',#998);
#1001=CARTESIAN_POINT('',(-1.1E0,7.5E-1,3.5E0));
#1002=CARTESIAN_POINT('',(-1.1E0,7.5E-1,3.322649545167E0));
#1003=VERTEX_POINT('',#1001);
#1004=VERTEX_POINT('',#1002);
#1005=CARTESIAN_POINT('',(-1.1E0,7.5E-1,2.520416632226E0));
#1006=CARTESIAN_POINT('',(-1.1E0,7.5E-1,2.383406176043E0));
#1007=VERTEX_POINT('',#1005);
#1008=VERTEX_POINT('',#1006);
#1009=CARTESIAN_POINT('',(-1.E0,7.5E-1,3.5E0));
#1010=CARTESIAN_POINT('',(-1.E0,7.5E-1,3.354101966250E0));
#1011=VERTEX_POINT('',#1009);
#1012=VERTEX_POINT('',#1010);
#1013=CARTESIAN_POINT('',(-1.E0,7.5E-1,2.561737691490E0));
#1014=CARTESIAN_POINT('',(-1.E0,7.5E-1,2.427060979868E0));
#1015=VERTEX_POINT('',#1013);
#1016=VERTEX_POINT('',#1014);
#1017=CARTESIAN_POINT('',(-1.E0,7.5E-1,-3.5E0));
#1018=CARTESIAN_POINT('',(-1.E0,7.5E-1,-3.354101966250E0));
#1019=VERTEX_POINT('',#1017);
#1020=VERTEX_POINT('',#1018);
#1021=CARTESIAN_POINT('',(-1.E0,7.5E-1,-2.561737691490E0));
#1022=CARTESIAN_POINT('',(-1.E0,7.5E-1,-2.427060979868E0));
#1023=VERTEX_POINT('',#1021);
#1024=VERTEX_POINT('',#1022);
#1025=CARTESIAN_POINT('',(-1.1E0,7.5E-1,-3.5E0));
#1026=CARTESIAN_POINT('',(-1.1E0,7.5E-1,-3.322649545167E0));
#1027=VERTEX_POINT('',#1025);
#1028=VERTEX_POINT('',#1026);
#1029=CARTESIAN_POINT('',(-1.1E0,7.5E-1,-2.520416632226E0));
#1030=CARTESIAN_POINT('',(-1.1E0,7.5E-1,-2.383406176043E0));
#1031=VERTEX_POINT('',#1029);
#1032=VERTEX_POINT('',#1030);
#1033=CARTESIAN_POINT('',(1.1E0,7.5E-1,-3.5E0));
#1034=CARTESIAN_POINT('',(1.1E0,7.5E-1,-3.322649545167E0));
#1035=VERTEX_POINT('',#1033);
#1036=VERTEX_POINT('',#1034);
#1037=CARTESIAN_POINT('',(1.1E0,7.5E-1,-2.520416632226E0));
#1038=CARTESIAN_POINT('',(1.1E0,7.5E-1,-2.383406176043E0));
#1039=VERTEX_POINT('',#1037);
#1040=VERTEX_POINT('',#1038);
#1041=CARTESIAN_POINT('',(1.E0,7.5E-1,-3.5E0));
#1042=CARTESIAN_POINT('',(1.E0,7.5E-1,-3.354101966250E0));
#1043=VERTEX_POINT('',#1041);
#1044=VERTEX_POINT('',#1042);
#1045=CARTESIAN_POINT('',(1.E0,7.5E-1,-2.561737691490E0));
#1046=CARTESIAN_POINT('',(1.E0,7.5E-1,-2.427060979868E0));
#1047=VERTEX_POINT('',#1045);
#1048=VERTEX_POINT('',#1046);
#1049=CARTESIAN_POINT('',(0.E0,7.5E-1,-3.5E0));
#1050=VERTEX_POINT('',#1049);
#1051=CARTESIAN_POINT('',(0.E0,7.5E-1,3.5E0));
#1052=VERTEX_POINT('',#1051);
#1053=CARTESIAN_POINT('',(0.E0,0.E0,0.E0));
#1054=DIRECTION('',(0.E0,1.E0,0.E0));
#1055=DIRECTION('',(1.E0,0.E0,0.E0));
#1056=AXIS2_PLACEMENT_3D('',#1053,#1054,#1055);
#1057=PLANE('',#1056);
#1059=ORIENTED_EDGE('',*,*,#1058,.T.);
#1061=ORIENTED_EDGE('',*,*,#1060,.F.);
#1063=ORIENTED_EDGE('',*,*,#1062,.F.);
#1065=ORIENTED_EDGE('',*,*,#1064,.T.);
#1066=EDGE_LOOP('',(#1059,#1061,#1063,#1065));
#1067=FACE_OUTER_BOUND('',#1066,.F.);
#1069=CARTESIAN_POINT('',(0.E0,0.E0,0.E0));
#1070=DIRECTION('',(0.E0,1.E0,0.E0));
#1071=DIRECTION('',(1.E0,0.E0,0.E0));
#1072=AXIS2_PLACEMENT_3D('',#1069,#1070,#1071);
#1073=PLANE('',#1072);
#1075=ORIENTED_EDGE('',*,*,#1074,.F.);
#1077=ORIENTED_EDGE('',*,*,#1076,.T.);
#1079=ORIENTED_EDGE('',*,*,#1078,.T.);
#1081=ORIENTED_EDGE('',*,*,#1080,.T.);
#1083=ORIENTED_EDGE('',*,*,#1082,.F.);
#1085=ORIENTED_EDGE('',*,*,#1084,.T.);
#1087=ORIENTED_EDGE('',*,*,#1086,.T.);
#1089=ORIENTED_EDGE('',*,*,#1088,.F.);
#1091=ORIENTED_EDGE('',*,*,#1090,.F.);
#1093=ORIENTED_EDGE('',*,*,#1092,.T.);
#1095=ORIENTED_EDGE('',*,*,#1094,.T.);
#1097=ORIENTED_EDGE('',*,*,#1096,.T.);
#1099=ORIENTED_EDGE('',*,*,#1098,.F.);
#1101=ORIENTED_EDGE('',*,*,#1100,.T.);
#1103=ORIENTED_EDGE('',*,*,#1102,.T.);
#1105=ORIENTED_EDGE('',*,*,#1104,.F.);
#1106=EDGE_LOOP('',(#1075,#1077,#1079,#1081,#1083,#1085,#1087,#1089,#1091,#1093,
#1095,#1097,#1099,#1101,#1103,#1105));
#1107=FACE_OUTER_BOUND('',#1106,.F.);
#1109=CARTESIAN_POINT('',(0.E0,0.E0,0.E0));
#1110=DIRECTION('',(0.E0,1.E0,0.E0));
#1111=DIRECTION('',(1.E0,0.E0,0.E0));
#1112=AXIS2_PLACEMENT_3D('',#1109,#1110,#1111);
#1113=PLANE('',#1112);
#1115=ORIENTED_EDGE('',*,*,#1114,.F.);
#1117=ORIENTED_EDGE('',*,*,#1116,.F.);
#1119=ORIENTED_EDGE('',*,*,#1118,.T.);
#1121=ORIENTED_EDGE('',*,*,#1120,.T.);
#1122=EDGE_LOOP('',(#1115,#1117,#1119,#1121));
#1123=FACE_OUTER_BOUND('',#1122,.F.);
#1125=CARTESIAN_POINT('',(1.E0,0.E0,2.E0));
#1126=DIRECTION('',(-1.E0,0.E0,0.E0));
#1127=DIRECTION('',(0.E0,0.E0,1.E0));
#1128=AXIS2_PLACEMENT_3D('',#1125,#1126,#1127);
#1129=PLANE('',#1128);
#1130=ORIENTED_EDGE('',*,*,#1058,.F.);
#1132=ORIENTED_EDGE('',*,*,#1131,.T.);
#1134=ORIENTED_EDGE('',*,*,#1133,.T.);
#1136=ORIENTED_EDGE('',*,*,#1135,.F.);
#1138=ORIENTED_EDGE('',*,*,#1137,.T.);
#1140=ORIENTED_EDGE('',*,*,#1139,.F.);
#1142=ORIENTED_EDGE('',*,*,#1141,.F.);
#1143=EDGE_LOOP('',(#1130,#1132,#1134,#1136,#1138,#1140,#1142));
#1144=FACE_OUTER_BOUND('',#1143,.F.);
#1146=CARTESIAN_POINT('',(-3.5E0,0.E0,3.5E0));
#1147=DIRECTION('',(0.E0,0.E0,1.E0));
#1148=DIRECTION('',(1.E0,0.E0,0.E0));
#1149=AXIS2_PLACEMENT_3D('',#1146,#1147,#1148);
#1150=PLANE('',#1149);
#1151=ORIENTED_EDGE('',*,*,#1131,.F.);
#1152=ORIENTED_EDGE('',*,*,#1064,.F.);
#1154=ORIENTED_EDGE('',*,*,#1153,.T.);
#1156=ORIENTED_EDGE('',*,*,#1155,.T.);
#1158=ORIENTED_EDGE('',*,*,#1157,.T.);
#1159=EDGE_LOOP('',(#1151,#1152,#1154,#1156,#1158));
#1160=FACE_OUTER_BOUND('',#1159,.F.);
#1162=CARTESIAN_POINT('',(-3.5E0,0.E0,3.5E0));
#1163=DIRECTION('',(0.E0,0.E0,1.E0));
#1164=DIRECTION('',(1.E0,0.E0,0.E0));
#1165=AXIS2_PLACEMENT_3D('',#1162,#1163,#1164);
#1166=PLANE('',#1165);
#1168=ORIENTED_EDGE('',*,*,#1167,.T.);
#1170=ORIENTED_EDGE('',*,*,#1169,.T.);
#1172=ORIENTED_EDGE('',*,*,#1171,.F.);
#1173=ORIENTED_EDGE('',*,*,#1076,.F.);
#1174=EDGE_LOOP('',(#1168,#1170,#1172,#1173));
#1175=FACE_OUTER_BOUND('',#1174,.F.);
#1177=CARTESIAN_POINT('',(-3.5E0,0.E0,3.5E0));
#1178=DIRECTION('',(0.E0,0.E0,1.E0));
#1179=DIRECTION('',(1.E0,0.E0,0.E0));
#1180=AXIS2_PLACEMENT_3D('',#1177,#1178,#1179);
#1181=PLANE('',#1180);
#1183=ORIENTED_EDGE('',*,*,#1182,.F.);
#1184=ORIENTED_EDGE('',*,*,#1100,.F.);
#1186=ORIENTED_EDGE('',*,*,#1185,.F.);
#1188=ORIENTED_EDGE('',*,*,#1187,.T.);
#1189=EDGE_LOOP('',(#1183,#1184,#1186,#1188));
#1190=FACE_OUTER_BOUND('',#1189,.F.);
#1192=CARTESIAN_POINT('',(-1.E0,0.E0,3.5E0));
#1193=DIRECTION('',(1.E0,0.E0,0.E0));
#1194=DIRECTION('',(0.E0,0.E0,-1.E0));
#1195=AXIS2_PLACEMENT_3D('',#1192,#1193,#1194);
#1196=PLANE('',#1195);
#1197=ORIENTED_EDGE('',*,*,#1062,.T.);
#1199=ORIENTED_EDGE('',*,*,#1198,.T.);
#1201=ORIENTED_EDGE('',*,*,#1200,.F.);
#1203=ORIENTED_EDGE('',*,*,#1202,.F.);
#1205=ORIENTED_EDGE('',*,*,#1204,.F.);
#1207=ORIENTED_EDGE('',*,*,#1206,.F.);
#1208=ORIENTED_EDGE('',*,*,#1153,.F.);
#1209=EDGE_LOOP('',(#1197,#1199,#1201,#1203,#1205,#1207,#1208));
#1210=FACE_OUTER_BOUND('',#1209,.F.);
#1212=CARTESIAN_POINT('',(-1.E0,0.E0,2.E0));
#1213=DIRECTION('',(0.E0,0.E0,1.E0));
#1214=DIRECTION('',(1.E0,0.E0,0.E0));
#1215=AXIS2_PLACEMENT_3D('',#1212,#1213,#1214);
#1216=PLANE('',#1215);
#1217=ORIENTED_EDGE('',*,*,#1060,.T.);
#1218=ORIENTED_EDGE('',*,*,#1141,.T.);
#1220=ORIENTED_EDGE('',*,*,#1219,.F.);
#1221=ORIENTED_EDGE('',*,*,#1198,.F.);
#1222=EDGE_LOOP('',(#1217,#1218,#1220,#1221));
#1223=FACE_OUTER_BOUND('',#1222,.F.);
#1225=CARTESIAN_POINT('',(0.E0,7.5E-1,0.E0));
#1226=DIRECTION('',(0.E0,1.E0,0.E0));
#1227=DIRECTION('',(-1.E0,0.E0,0.E0));
#1228=AXIS2_PLACEMENT_3D('',#1225,#1226,#1227);
#1229=PLANE('',#1228);
#1231=ORIENTED_EDGE('',*,*,#1230,.T.);
#1233=ORIENTED_EDGE('',*,*,#1232,.T.);
#1235=ORIENTED_EDGE('',*,*,#1234,.F.);
#1237=ORIENTED_EDGE('',*,*,#1236,.T.);
#1238=EDGE_LOOP('',(#1231,#1233,#1235,#1237));
#1239=FACE_OUTER_BOUND('',#1238,.F.);
#1241=CARTESIAN_POINT('',(0.E0,7.5E-1,0.E0));
#1242=DIRECTION('',(0.E0,1.E0,0.E0));
#1243=DIRECTION('',(-1.E0,0.E0,0.E0));
#1244=AXIS2_PLACEMENT_3D('',#1241,#1242,#1243);
#1245=PLANE('',#1244);
#1247=ORIENTED_EDGE('',*,*,#1246,.T.);
#1249=ORIENTED_EDGE('',*,*,#1248,.T.);
#1251=ORIENTED_EDGE('',*,*,#1250,.F.);
#1253=ORIENTED_EDGE('',*,*,#1252,.T.);
#1254=EDGE_LOOP('',(#1247,#1249,#1251,#1253));
#1255=FACE_OUTER_BOUND('',#1254,.F.);
#1257=CARTESIAN_POINT('',(0.E0,7.5E-1,0.E0));
#1258=DIRECTION('',(0.E0,1.E0,0.E0));
#1259=DIRECTION('',(-1.E0,0.E0,0.E0));
#1260=AXIS2_PLACEMENT_3D('',#1257,#1258,#1259);
#1261=PLANE('',#1260);
#1263=ORIENTED_EDGE('',*,*,#1262,.T.);
#1264=ORIENTED_EDGE('',*,*,#1204,.T.);
#1266=ORIENTED_EDGE('',*,*,#1265,.F.);
#1268=ORIENTED_EDGE('',*,*,#1267,.T.);
#1269=EDGE_LOOP('',(#1263,#1264,#1266,#1268));
#1270=FACE_OUTER_BOUND('',#1269,.F.);
#1272=CARTESIAN_POINT('',(0.E0,7.5E-1,0.E0));
#1273=DIRECTION('',(0.E0,1.E0,0.E0));
#1274=DIRECTION('',(-1.E0,0.E0,0.E0));
#1275=AXIS2_PLACEMENT_3D('',#1272,#1273,#1274);
#1276=PLANE('',#1275);
#1278=ORIENTED_EDGE('',*,*,#1277,.T.);
#1280=ORIENTED_EDGE('',*,*,#1279,.T.);
#1282=ORIENTED_EDGE('',*,*,#1281,.F.);
#1283=ORIENTED_EDGE('',*,*,#1135,.T.);
#1284=EDGE_LOOP('',(#1278,#1280,#1282,#1283));
#1285=FACE_OUTER_BOUND('',#1284,.F.);
#1287=CARTESIAN_POINT('',(0.E0,7.5E-1,0.E0));
#1288=DIRECTION('',(0.E0,1.E0,0.E0));
#1289=DIRECTION('',(-1.E0,0.E0,0.E0));
#1290=AXIS2_PLACEMENT_3D('',#1287,#1288,#1289);
#1291=PLANE('',#1290);
#1293=ORIENTED_EDGE('',*,*,#1292,.T.);
#1294=ORIENTED_EDGE('',*,*,#1200,.T.);
#1295=ORIENTED_EDGE('',*,*,#1219,.T.);
#1296=ORIENTED_EDGE('',*,*,#1139,.T.);
#1298=ORIENTED_EDGE('',*,*,#1297,.T.);
#1300=ORIENTED_EDGE('',*,*,#1299,.T.);
#1302=ORIENTED_EDGE('',*,*,#1301,.T.);
#1304=ORIENTED_EDGE('',*,*,#1303,.T.);
#1305=EDGE_LOOP('',(#1293,#1294,#1295,#1296,#1298,#1300,#1302,#1304));
#1306=FACE_OUTER_BOUND('',#1305,.F.);
#1308=CARTESIAN_POINT('',(0.E0,7.5E-1,0.E0));
#1309=DIRECTION('',(0.E0,1.E0,0.E0));
#1310=DIRECTION('',(-1.E0,0.E0,0.E0));
#1311=AXIS2_PLACEMENT_3D('',#1308,#1309,#1310);
#1312=PLANE('',#1311);
#1314=ORIENTED_EDGE('',*,*,#1313,.T.);
#1316=ORIENTED_EDGE('',*,*,#1315,.T.);
#1318=ORIENTED_EDGE('',*,*,#1317,.T.);
#1320=ORIENTED_EDGE('',*,*,#1319,.T.);
#1322=ORIENTED_EDGE('',*,*,#1321,.T.);
#1324=ORIENTED_EDGE('',*,*,#1323,.T.);
#1326=ORIENTED_EDGE('',*,*,#1325,.T.);
#1328=ORIENTED_EDGE('',*,*,#1327,.T.);
#1329=EDGE_LOOP('',(#1314,#1316,#1318,#1320,#1322,#1324,#1326,#1328));
#1330=FACE_OUTER_BOUND('',#1329,.F.);
#1332=CARTESIAN_POINT('',(0.E0,3.2E0,0.E0));
#1333=DIRECTION('',(0.E0,1.E0,0.E0));
#1334=DIRECTION('',(1.E0,0.E0,0.E0));
#1335=AXIS2_PLACEMENT_3D('',#1332,#1333,#1334);
#1336=CYLINDRICAL_SURFACE('',#1335,3.5E0);
#1337=ORIENTED_EDGE('',*,*,#1230,.F.);
#1339=ORIENTED_EDGE('',*,*,#1338,.F.);
#1341=ORIENTED_EDGE('',*,*,#1340,.F.);
#1343=ORIENTED_EDGE('',*,*,#1342,.T.);
#1345=ORIENTED_EDGE('',*,*,#1344,.T.);
#1347=ORIENTED_EDGE('',*,*,#1346,.F.);
#1348=ORIENTED_EDGE('',*,*,#1246,.F.);
#1350=ORIENTED_EDGE('',*,*,#1349,.F.);
#1352=ORIENTED_EDGE('',*,*,#1351,.F.);
#1353=EDGE_LOOP('',(#1337,#1339,#1341,#1343,#1345,#1347,#1348,#1350,#1352));
#1354=FACE_OUTER_BOUND('',#1353,.F.);
#1356=CARTESIAN_POINT('',(0.E0,7.5E-1,0.E0));
#1357=DIRECTION('',(0.E0,1.E0,0.E0));
#1358=DIRECTION('',(1.E0,0.E0,0.E0));
#1359=AXIS2_PLACEMENT_3D('',#1356,#1357,#1358);
#1360=PLANE('',#1359);
#1361=ORIENTED_EDGE('',*,*,#1133,.F.);
#1362=ORIENTED_EDGE('',*,*,#1157,.F.);
#1364=ORIENTED_EDGE('',*,*,#1363,.T.);
#1365=EDGE_LOOP('',(#1361,#1362,#1364));
#1366=FACE_OUTER_BOUND('',#1365,.F.);
#1368=CARTESIAN_POINT('',(0.E0,7.5E-1,0.E0));
#1369=DIRECTION('',(0.E0,1.E0,0.E0));
#1370=DIRECTION('',(1.E0,0.E0,0.E0));
#1371=AXIS2_PLACEMENT_3D('',#1368,#1369,#1370);
#1372=PLANE('',#1371);
#1373=ORIENTED_EDGE('',*,*,#1137,.F.);
#1375=ORIENTED_EDGE('',*,*,#1374,.F.);
#1376=ORIENTED_EDGE('',*,*,#1202,.T.);
#1378=ORIENTED_EDGE('',*,*,#1377,.T.);
#1379=EDGE_LOOP('',(#1373,#1375,#1376,#1378));
#1380=FACE_OUTER_BOUND('',#1379,.F.);
#1382=CARTESIAN_POINT('',(0.E0,7.5E-1,0.E0));
#1383=DIRECTION('',(0.E0,1.E0,0.E0));
#1384=DIRECTION('',(1.E0,0.E0,0.E0));
#1385=AXIS2_PLACEMENT_3D('',#1382,#1383,#1384);
#1386=PLANE('',#1385);
#1388=ORIENTED_EDGE('',*,*,#1387,.T.);
#1390=ORIENTED_EDGE('',*,*,#1389,.T.);
#1392=ORIENTED_EDGE('',*,*,#1391,.F.);
#1394=ORIENTED_EDGE('',*,*,#1393,.F.);
#1395=ORIENTED_EDGE('',*,*,#1169,.F.);
#1396=EDGE_LOOP('',(#1388,#1390,#1392,#1394,#1395));
#1397=FACE_OUTER_BOUND('',#1396,.F.);
#1399=CARTESIAN_POINT('',(0.E0,7.5E-1,0.E0));
#1400=DIRECTION('',(0.E0,1.E0,0.E0));
#1401=DIRECTION('',(1.E0,0.E0,0.E0));
#1402=AXIS2_PLACEMENT_3D('',#1399,#1400,#1401);
#1403=PLANE('',#1402);
#1405=ORIENTED_EDGE('',*,*,#1404,.T.);
#1407=ORIENTED_EDGE('',*,*,#1406,.T.);
#1409=ORIENTED_EDGE('',*,*,#1408,.T.);
#1411=ORIENTED_EDGE('',*,*,#1410,.F.);
#1413=ORIENTED_EDGE('',*,*,#1412,.T.);
#1415=ORIENTED_EDGE('',*,*,#1414,.T.);
#1417=ORIENTED_EDGE('',*,*,#1416,.F.);
#1419=ORIENTED_EDGE('',*,*,#1418,.F.);
#1421=ORIENTED_EDGE('',*,*,#1420,.F.);
#1422=EDGE_LOOP('',(#1405,#1407,#1409,#1411,#1413,#1415,#1417,#1419,#1421));
#1423=FACE_OUTER_BOUND('',#1422,.F.);
#1425=CARTESIAN_POINT('',(0.E0,7.5E-1,0.E0));
#1426=DIRECTION('',(0.E0,1.E0,0.E0));
#1427=DIRECTION('',(1.E0,0.E0,0.E0));
#1428=AXIS2_PLACEMENT_3D('',#1425,#1426,#1427);
#1429=PLANE('',#1428);
#1431=ORIENTED_EDGE('',*,*,#1430,.F.);
#1432=ORIENTED_EDGE('',*,*,#1187,.F.);
#1434=ORIENTED_EDGE('',*,*,#1433,.F.);
#1436=ORIENTED_EDGE('',*,*,#1435,.F.);
#1438=ORIENTED_EDGE('',*,*,#1437,.T.);
#1439=EDGE_LOOP('',(#1431,#1432,#1434,#1436,#1438));
#1440=FACE_OUTER_BOUND('',#1439,.F.);
#1442=CARTESIAN_POINT('',(0.E0,7.5E-1,0.E0));
#1443=DIRECTION('',(0.E0,1.E0,0.E0));
#1444=DIRECTION('',(1.E0,0.E0,0.E0));
#1445=AXIS2_PLACEMENT_3D('',#1442,#1443,#1444);
#1446=PLANE('',#1445);
#1448=ORIENTED_EDGE('',*,*,#1447,.F.);
#1450=ORIENTED_EDGE('',*,*,#1449,.F.);
#1452=ORIENTED_EDGE('',*,*,#1451,.F.);
#1454=ORIENTED_EDGE('',*,*,#1453,.T.);
#1456=ORIENTED_EDGE('',*,*,#1455,.T.);
#1458=ORIENTED_EDGE('',*,*,#1457,.T.);
#1460=ORIENTED_EDGE('',*,*,#1459,.F.);
#1462=ORIENTED_EDGE('',*,*,#1461,.T.);
#1464=ORIENTED_EDGE('',*,*,#1463,.T.);
#1465=EDGE_LOOP('',(#1448,#1450,#1452,#1454,#1456,#1458,#1460,#1462,#1464));
#1466=FACE_OUTER_BOUND('',#1465,.F.);
#1468=CARTESIAN_POINT('',(0.E0,7.5E-1,0.E0));
#1469=DIRECTION('',(0.E0,1.E0,0.E0));
#1470=DIRECTION('',(1.E0,0.E0,0.E0));
#1471=AXIS2_PLACEMENT_3D('',#1468,#1469,#1470);
#1472=PLANE('',#1471);
#1473=ORIENTED_EDGE('',*,*,#1206,.T.);
#1475=ORIENTED_EDGE('',*,*,#1474,.T.);
#1476=ORIENTED_EDGE('',*,*,#1155,.F.);
#1477=EDGE_LOOP('',(#1473,#1475,#1476));
#1478=FACE_OUTER_BOUND('',#1477,.F.);
#1480=CARTESIAN_POINT('',(0.E0,7.5E-1,0.E0));
#1481=DIRECTION('',(0.E0,1.E0,0.E0));
#1482=DIRECTION('',(1.E0,0.E0,0.E0));
#1483=AXIS2_PLACEMENT_3D('',#1480,#1481,#1482);
#1484=PLANE('',#1483);
#1486=ORIENTED_EDGE('',*,*,#1485,.F.);
#1488=ORIENTED_EDGE('',*,*,#1487,.F.);
#1489=ORIENTED_EDGE('',*,*,#1349,.T.);
#1490=EDGE_LOOP('',(#1486,#1488,#1489));
#1491=FACE_OUTER_BOUND('',#1490,.F.);
#1493=CARTESIAN_POINT('',(0.E0,7.5E-1,0.E0));
#1494=DIRECTION('',(0.E0,1.E0,0.E0));
#1495=DIRECTION('',(1.E0,0.E0,0.E0));
#1496=AXIS2_PLACEMENT_3D('',#1493,#1494,#1495);
#1497=PLANE('',#1496);
#1499=ORIENTED_EDGE('',*,*,#1498,.F.);
#1501=ORIENTED_EDGE('',*,*,#1500,.F.);
#1503=ORIENTED_EDGE('',*,*,#1502,.T.);
#1505=ORIENTED_EDGE('',*,*,#1504,.T.);
#1506=EDGE_LOOP('',(#1499,#1501,#1503,#1505));
#1507=FACE_OUTER_BOUND('',#1506,.F.);
#1509=CARTESIAN_POINT('',(0.E0,7.5E-1,0.E0));
#1510=DIRECTION('',(0.E0,1.E0,0.E0));
#1511=DIRECTION('',(1.E0,0.E0,0.E0));
#1512=AXIS2_PLACEMENT_3D('',#1509,#1510,#1511);
#1513=PLANE('',#1512);
#1515=ORIENTED_EDGE('',*,*,#1514,.T.);
#1516=ORIENTED_EDGE('',*,*,#1346,.T.);
#1518=ORIENTED_EDGE('',*,*,#1517,.F.);
#1520=ORIENTED_EDGE('',*,*,#1519,.F.);
#1522=ORIENTED_EDGE('',*,*,#1521,.F.);
#1523=EDGE_LOOP('',(#1515,#1516,#1518,#1520,#1522));
#1524=FACE_OUTER_BOUND('',#1523,.F.);
#1526=CARTESIAN_POINT('',(0.E0,7.5E-1,0.E0));
#1527=DIRECTION('',(0.E0,1.E0,0.E0));
#1528=DIRECTION('',(1.E0,0.E0,0.E0));
#1529=AXIS2_PLACEMENT_3D('',#1526,#1527,#1528);
#1530=PLANE('',#1529);
#1532=ORIENTED_EDGE('',*,*,#1531,.F.);
#1534=ORIENTED_EDGE('',*,*,#1533,.F.);
#1536=ORIENTED_EDGE('',*,*,#1535,.F.);
#1538=ORIENTED_EDGE('',*,*,#1537,.F.);
#1539=ORIENTED_EDGE('',*,*,#1338,.T.);
#1540=EDGE_LOOP('',(#1532,#1534,#1536,#1538,#1539));
#1541=FACE_OUTER_BOUND('',#1540,.F.);
#1543=CARTESIAN_POINT('',(0.E0,7.5E-1,0.E0));
#1544=DIRECTION('',(0.E0,1.E0,0.E0));
#1545=DIRECTION('',(1.E0,0.E0,0.E0));
#1546=AXIS2_PLACEMENT_3D('',#1543,#1544,#1545);
#1547=PLANE('',#1546);
#1549=ORIENTED_EDGE('',*,*,#1548,.T.);
#1550=ORIENTED_EDGE('',*,*,#1351,.T.);
#1552=ORIENTED_EDGE('',*,*,#1551,.F.);
#1553=EDGE_LOOP('',(#1549,#1550,#1552));
#1554=FACE_OUTER_BOUND('',#1553,.F.);
#1556=CARTESIAN_POINT('',(0.E0,3.2E0,0.E0));
#1557=DIRECTION('',(0.E0,1.E0,0.E0));
#1558=DIRECTION('',(1.E0,0.E0,0.E0));
#1559=AXIS2_PLACEMENT_3D('',#1556,#1557,#1558);
#1560=CYLINDRICAL_SURFACE('',#1559,3.5E0);
#1561=ORIENTED_EDGE('',*,*,#1262,.F.);
#1562=ORIENTED_EDGE('',*,*,#1437,.F.);
#1563=ORIENTED_EDGE('',*,*,#1344,.F.);
#1565=ORIENTED_EDGE('',*,*,#1564,.T.);
#1566=ORIENTED_EDGE('',*,*,#1340,.T.);
#1567=ORIENTED_EDGE('',*,*,#1389,.F.);
#1568=ORIENTED_EDGE('',*,*,#1277,.F.);
#1569=ORIENTED_EDGE('',*,*,#1363,.F.);
#1570=ORIENTED_EDGE('',*,*,#1474,.F.);
#1571=EDGE_LOOP('',(#1561,#1562,#1563,#1565,#1566,#1567,#1568,#1569,#1570));
#1572=FACE_OUTER_BOUND('',#1571,.F.);
#1574=CARTESIAN_POINT('',(0.E0,3.2E0,0.E0));
#1575=DIRECTION('',(0.E0,1.E0,0.E0));
#1576=DIRECTION('',(1.E0,0.E0,0.E0));
#1577=AXIS2_PLACEMENT_3D('',#1574,#1575,#1576);
#1578=PLANE('',#1577);
#1579=ORIENTED_EDGE('',*,*,#1342,.F.);
#1580=ORIENTED_EDGE('',*,*,#1564,.F.);
#1581=EDGE_LOOP('',(#1579,#1580));
#1582=FACE_OUTER_BOUND('',#1581,.F.);
#1584=ORIENTED_EDGE('',*,*,#1583,.F.);
#1586=ORIENTED_EDGE('',*,*,#1585,.F.);
#1587=EDGE_LOOP('',(#1584,#1586));
#1588=FACE_BOUND('',#1587,.F.);
#1590=CARTESIAN_POINT('',(0.E0,3.2E0,0.E0));
#1591=DIRECTION('',(0.E0,1.E0,0.E0));
#1592=DIRECTION('',(1.E0,0.E0,0.E0));
#1593=AXIS2_PLACEMENT_3D('',#1590,#1591,#1592);
#1594=PLANE('',#1593);
#1596=ORIENTED_EDGE('',*,*,#1595,.F.);
#1598=ORIENTED_EDGE('',*,*,#1597,.F.);
#1600=ORIENTED_EDGE('',*,*,#1599,.F.);
#1602=ORIENTED_EDGE('',*,*,#1601,.F.);
#1604=ORIENTED_EDGE('',*,*,#1603,.F.);
#1606=ORIENTED_EDGE('',*,*,#1605,.F.);
#1608=ORIENTED_EDGE('',*,*,#1607,.F.);
#1610=ORIENTED_EDGE('',*,*,#1609,.F.);
#1611=EDGE_LOOP('',(#1596,#1598,#1600,#1602,#1604,#1606,#1608,#1610));
#1612=FACE_OUTER_BOUND('',#1611,.F.);
#1614=CARTESIAN_POINT('',(0.E0,3.2E0,0.E0));
#1615=DIRECTION('',(0.E0,1.E0,0.E0));
#1616=DIRECTION('',(1.E0,0.E0,0.E0));
#1617=AXIS2_PLACEMENT_3D('',#1614,#1615,#1616);
#1618=CYLINDRICAL_SURFACE('',#1617,2.75E0);
#1619=ORIENTED_EDGE('',*,*,#1265,.T.);
#1620=ORIENTED_EDGE('',*,*,#1374,.T.);
#1621=ORIENTED_EDGE('',*,*,#1281,.T.);
#1622=ORIENTED_EDGE('',*,*,#1420,.T.);
#1624=ORIENTED_EDGE('',*,*,#1623,.F.);
#1625=ORIENTED_EDGE('',*,*,#1583,.T.);
#1627=ORIENTED_EDGE('',*,*,#1626,.T.);
#1628=ORIENTED_EDGE('',*,*,#1449,.T.);
#1629=EDGE_LOOP('',(#1619,#1620,#1621,#1622,#1624,#1625,#1627,#1628));
#1630=FACE_OUTER_BOUND('',#1629,.F.);
#1632=CARTESIAN_POINT('',(0.E0,3.2E0,0.E0));
#1633=DIRECTION('',(0.E0,1.E0,0.E0));
#1634=DIRECTION('',(1.E0,0.E0,0.E0));
#1635=AXIS2_PLACEMENT_3D('',#1632,#1633,#1634);
#1636=CYLINDRICAL_SURFACE('',#1635,2.75E0);
#1637=ORIENTED_EDGE('',*,*,#1234,.T.);
#1638=ORIENTED_EDGE('',*,*,#1500,.T.);
#1639=ORIENTED_EDGE('',*,*,#1250,.T.);
#1640=ORIENTED_EDGE('',*,*,#1451,.T.);
#1641=ORIENTED_EDGE('',*,*,#1626,.F.);
#1642=ORIENTED_EDGE('',*,*,#1585,.T.);
#1643=ORIENTED_EDGE('',*,*,#1623,.T.);
#1644=ORIENTED_EDGE('',*,*,#1418,.T.);
#1645=EDGE_LOOP('',(#1637,#1638,#1639,#1640,#1641,#1642,#1643,#1644));
#1646=FACE_OUTER_BOUND('',#1645,.F.);
#1648=CARTESIAN_POINT('',(-1.751721702137E-7,3.149998821126E0,
-3.312288458512E-6));
#1649=DIRECTION('',(0.E0,-1.E0,0.E0));
#1650=DIRECTION('',(0.E0,0.E0,-1.E0));
#1651=AXIS2_PLACEMENT_3D('',#1648,#1649,#1650);
#1652=CONICAL_SURFACE('',#1651,2.575001025325E0,4.500008339487E1);
#1653=ORIENTED_EDGE('',*,*,#1595,.T.);
#1655=ORIENTED_EDGE('',*,*,#1654,.T.);
#1657=ORIENTED_EDGE('',*,*,#1656,.T.);
#1659=ORIENTED_EDGE('',*,*,#1658,.T.);
#1660=EDGE_LOOP('',(#1653,#1655,#1657,#1659));
#1661=FACE_OUTER_BOUND('',#1660,.F.);
#1663=CARTESIAN_POINT('',(1.670941492090E0,3.2E0,2.024494882683E0));
#1664=DIRECTION('',(7.071067811865E-1,0.E0,-7.071067811865E-1));
#1665=DIRECTION('',(-7.071067811865E-1,0.E0,-7.071067811865E-1));
#1666=AXIS2_PLACEMENT_3D('',#1663,#1664,#1665);
#1667=PLANE('',#1666);
#1668=ORIENTED_EDGE('',*,*,#1654,.F.);
#1669=ORIENTED_EDGE('',*,*,#1609,.T.);
#1671=ORIENTED_EDGE('',*,*,#1670,.T.);
#1672=ORIENTED_EDGE('',*,*,#1408,.F.);
#1674=ORIENTED_EDGE('',*,*,#1673,.F.);
#1675=EDGE_LOOP('',(#1668,#1669,#1671,#1672,#1674));
#1676=FACE_OUTER_BOUND('',#1675,.F.);
#1678=CARTESIAN_POINT('',(1.6E0,3.2E0,1.6E0));
#1679=DIRECTION('',(0.E0,1.E0,0.E0));
#1680=DIRECTION('',(1.E0,0.E0,0.E0));
#1681=AXIS2_PLACEMENT_3D('',#1678,#1679,#1680);
#1682=CYLINDRICAL_SURFACE('',#1681,2.5E-1);
#1683=ORIENTED_EDGE('',*,*,#1410,.T.);
#1684=ORIENTED_EDGE('',*,*,#1670,.F.);
#1685=ORIENTED_EDGE('',*,*,#1607,.T.);
#1687=ORIENTED_EDGE('',*,*,#1686,.T.);
#1688=EDGE_LOOP('',(#1683,#1684,#1685,#1687));
#1689=FACE_OUTER_BOUND('',#1688,.F.);
#1691=CARTESIAN_POINT('',(1.776776695297E0,3.2E0,1.423223304703E0));
#1692=DIRECTION('',(-7.071067811865E-1,0.E0,7.071067811865E-1));
#1693=DIRECTION('',(7.071067811865E-1,0.E0,7.071067811865E-1));
#1694=AXIS2_PLACEMENT_3D('',#1691,#1692,#1693);
#1695=PLANE('',#1694);
#1697=ORIENTED_EDGE('',*,*,#1696,.F.);
#1699=ORIENTED_EDGE('',*,*,#1698,.T.);
#1700=ORIENTED_EDGE('',*,*,#1412,.F.);
#1701=ORIENTED_EDGE('',*,*,#1686,.F.);
#1702=ORIENTED_EDGE('',*,*,#1605,.T.);
#1703=EDGE_LOOP('',(#1697,#1699,#1700,#1701,#1702));
#1704=FACE_OUTER_BOUND('',#1703,.F.);
#1706=CARTESIAN_POINT('',(1.751722099597E-7,3.149998821126E0,
3.312288456514E-6));
#1707=DIRECTION('',(0.E0,-1.E0,0.E0));
#1708=DIRECTION('',(0.E0,0.E0,-1.E0));
#1709=AXIS2_PLACEMENT_3D('',#1706,#1707,#1708);
#1710=CONICAL_SURFACE('',#1709,2.575001025325E0,4.500008339487E1);
#1711=ORIENTED_EDGE('',*,*,#1603,.T.);
#1713=ORIENTED_EDGE('',*,*,#1712,.T.);
#1715=ORIENTED_EDGE('',*,*,#1714,.T.);
#1716=ORIENTED_EDGE('',*,*,#1696,.T.);
#1717=EDGE_LOOP('',(#1711,#1713,#1715,#1716));
#1718=FACE_OUTER_BOUND('',#1717,.F.);
#1720=CARTESIAN_POINT('',(-1.670941492090E0,3.2E0,-2.024494882683E0));
#1721=DIRECTION('',(-7.071067811865E-1,0.E0,7.071067811865E-1));
#1722=DIRECTION('',(7.071067811865E-1,0.E0,7.071067811865E-1));
#1723=AXIS2_PLACEMENT_3D('',#1720,#1721,#1722);
#1724=PLANE('',#1723);
#1725=ORIENTED_EDGE('',*,*,#1712,.F.);
#1726=ORIENTED_EDGE('',*,*,#1601,.T.);
#1728=ORIENTED_EDGE('',*,*,#1727,.T.);
#1729=ORIENTED_EDGE('',*,*,#1457,.F.);
#1731=ORIENTED_EDGE('',*,*,#1730,.F.);
#1732=EDGE_LOOP('',(#1725,#1726,#1728,#1729,#1731));
#1733=FACE_OUTER_BOUND('',#1732,.F.);
#1735=CARTESIAN_POINT('',(-1.6E0,3.2E0,-1.6E0));
#1736=DIRECTION('',(0.E0,1.E0,0.E0));
#1737=DIRECTION('',(1.E0,0.E0,0.E0));
#1738=AXIS2_PLACEMENT_3D('',#1735,#1736,#1737);
#1739=CYLINDRICAL_SURFACE('',#1738,2.5E-1);
#1740=ORIENTED_EDGE('',*,*,#1459,.T.);
#1741=ORIENTED_EDGE('',*,*,#1727,.F.);
#1742=ORIENTED_EDGE('',*,*,#1599,.T.);
#1744=ORIENTED_EDGE('',*,*,#1743,.T.);
#1745=EDGE_LOOP('',(#1740,#1741,#1742,#1744));
#1746=FACE_OUTER_BOUND('',#1745,.F.);
#1748=CARTESIAN_POINT('',(-1.776776695297E0,3.2E0,-1.423223304703E0));
#1749=DIRECTION('',(7.071067811865E-1,0.E0,-7.071067811865E-1));
#1750=DIRECTION('',(-7.071067811865E-1,0.E0,-7.071067811865E-1));
#1751=AXIS2_PLACEMENT_3D('',#1748,#1749,#1750);
#1752=PLANE('',#1751);
#1753=ORIENTED_EDGE('',*,*,#1658,.F.);
#1755=ORIENTED_EDGE('',*,*,#1754,.T.);
#1756=ORIENTED_EDGE('',*,*,#1461,.F.);
#1757=ORIENTED_EDGE('',*,*,#1743,.F.);
#1758=ORIENTED_EDGE('',*,*,#1597,.T.);
#1759=EDGE_LOOP('',(#1753,#1755,#1756,#1757,#1758));
#1760=FACE_OUTER_BOUND('',#1759,.F.);
#1762=CARTESIAN_POINT('',(0.E0,3.2E0,0.E0));
#1763=DIRECTION('',(0.E0,1.E0,0.E0));
#1764=DIRECTION('',(1.E0,0.E0,0.E0));
#1765=AXIS2_PLACEMENT_3D('',#1762,#1763,#1764);
#1766=CYLINDRICAL_SURFACE('',#1765,2.625E0);
#1767=ORIENTED_EDGE('',*,*,#1292,.F.);
#1768=ORIENTED_EDGE('',*,*,#1463,.F.);
#1769=ORIENTED_EDGE('',*,*,#1754,.F.);
#1770=ORIENTED_EDGE('',*,*,#1656,.F.);
#1771=ORIENTED_EDGE('',*,*,#1673,.T.);
#1772=ORIENTED_EDGE('',*,*,#1406,.F.);
#1773=ORIENTED_EDGE('',*,*,#1297,.F.);
#1774=ORIENTED_EDGE('',*,*,#1377,.F.);
#1775=EDGE_LOOP('',(#1767,#1768,#1769,#1770,#1771,#1772,#1773,#1774));
#1776=FACE_OUTER_BOUND('',#1775,.F.);
#1778=CARTESIAN_POINT('',(0.E0,3.2E0,0.E0));
#1779=DIRECTION('',(0.E0,1.E0,0.E0));
#1780=DIRECTION('',(1.E0,0.E0,0.E0));
#1781=AXIS2_PLACEMENT_3D('',#1778,#1779,#1780);
#1782=CYLINDRICAL_SURFACE('',#1781,2.625E0);
#1783=ORIENTED_EDGE('',*,*,#1313,.F.);
#1784=ORIENTED_EDGE('',*,*,#1414,.F.);
#1785=ORIENTED_EDGE('',*,*,#1698,.F.);
#1786=ORIENTED_EDGE('',*,*,#1714,.F.);
#1787=ORIENTED_EDGE('',*,*,#1730,.T.);
#1788=ORIENTED_EDGE('',*,*,#1455,.F.);
#1789=ORIENTED_EDGE('',*,*,#1321,.F.);
#1790=ORIENTED_EDGE('',*,*,#1504,.F.);
#1791=EDGE_LOOP('',(#1783,#1784,#1785,#1786,#1787,#1788,#1789,#1790));
#1792=FACE_OUTER_BOUND('',#1791,.F.);
#1794=CARTESIAN_POINT('',(1.1E0,0.E0,3.5E0));
#1795=DIRECTION('',(1.E0,0.E0,0.E0));
#1796=DIRECTION('',(0.E0,0.E0,-1.E0));
#1797=AXIS2_PLACEMENT_3D('',#1794,#1795,#1796);
#1798=PLANE('',#1797);
#1799=ORIENTED_EDGE('',*,*,#1074,.T.);
#1801=ORIENTED_EDGE('',*,*,#1800,.T.);
#1802=ORIENTED_EDGE('',*,*,#1299,.F.);
#1803=ORIENTED_EDGE('',*,*,#1404,.F.);
#1804=ORIENTED_EDGE('',*,*,#1279,.F.);
#1805=ORIENTED_EDGE('',*,*,#1387,.F.);
#1806=ORIENTED_EDGE('',*,*,#1167,.F.);
#1807=EDGE_LOOP('',(#1799,#1801,#1802,#1803,#1804,#1805,#1806));
#1808=FACE_OUTER_BOUND('',#1807,.F.);
#1810=CARTESIAN_POINT('',(1.1E0,0.E0,1.9E0));
#1811=DIRECTION('',(0.E0,0.E0,-1.E0));
#1812=DIRECTION('',(-1.E0,0.E0,0.E0));
#1813=AXIS2_PLACEMENT_3D('',#1810,#1811,#1812);
#1814=PLANE('',#1813);
#1815=ORIENTED_EDGE('',*,*,#1104,.T.);
#1817=ORIENTED_EDGE('',*,*,#1816,.T.);
#1818=ORIENTED_EDGE('',*,*,#1301,.F.);
#1819=ORIENTED_EDGE('',*,*,#1800,.F.);
#1820=EDGE_LOOP('',(#1815,#1817,#1818,#1819));
#1821=FACE_OUTER_BOUND('',#1820,.F.);
#1823=CARTESIAN_POINT('',(-1.1E0,0.E0,1.9E0));
#1824=DIRECTION('',(-1.E0,0.E0,0.E0));
#1825=DIRECTION('',(0.E0,0.E0,1.E0));
#1826=AXIS2_PLACEMENT_3D('',#1823,#1824,#1825);
#1827=PLANE('',#1826);
#1828=ORIENTED_EDGE('',*,*,#1102,.F.);
#1829=ORIENTED_EDGE('',*,*,#1182,.T.);
#1830=ORIENTED_EDGE('',*,*,#1430,.T.);
#1831=ORIENTED_EDGE('',*,*,#1267,.F.);
#1832=ORIENTED_EDGE('',*,*,#1447,.T.);
#1833=ORIENTED_EDGE('',*,*,#1303,.F.);
#1834=ORIENTED_EDGE('',*,*,#1816,.F.);
#1835=EDGE_LOOP('',(#1828,#1829,#1830,#1831,#1832,#1833,#1834));
#1836=FACE_OUTER_BOUND('',#1835,.F.);
#1838=CARTESIAN_POINT('',(3.5E0,0.E0,2.197E0));
#1839=DIRECTION('',(1.E0,0.E0,0.E0));
#1840=DIRECTION('',(0.E0,0.E0,-1.E0));
#1841=AXIS2_PLACEMENT_3D('',#1838,#1839,#1840);
#1842=PLANE('',#1841);
#1844=ORIENTED_EDGE('',*,*,#1843,.T.);
#1845=ORIENTED_EDGE('',*,*,#1080,.F.);
#1847=ORIENTED_EDGE('',*,*,#1846,.T.);
#1848=ORIENTED_EDGE('',*,*,#1391,.T.);
#1849=ORIENTED_EDGE('',*,*,#1537,.T.);
#1850=EDGE_LOOP('',(#1844,#1845,#1847,#1848,#1849));
#1851=FACE_OUTER_BOUND('',#1850,.F.);
#1853=CARTESIAN_POINT('',(3.3E0,7.371522228910E0,-3.3E0));
#1854=DIRECTION('',(0.E0,-1.E0,0.E0));
#1855=DIRECTION('',(0.E0,0.E0,-1.E0));
#1856=AXIS2_PLACEMENT_3D('',#1853,#1854,#1855);
#1857=CYLINDRICAL_SURFACE('',#1856,2.E-1);
#1858=ORIENTED_EDGE('',*,*,#1082,.T.);
#1859=ORIENTED_EDGE('',*,*,#1843,.F.);
#1860=ORIENTED_EDGE('',*,*,#1535,.T.);
#1862=ORIENTED_EDGE('',*,*,#1861,.T.);
#1863=EDGE_LOOP('',(#1858,#1859,#1860,#1862));
#1864=FACE_OUTER_BOUND('',#1863,.F.);
#1866=CARTESIAN_POINT('',(3.5E0,0.E0,-3.5E0));
#1867=DIRECTION('',(0.E0,0.E0,-1.E0));
#1868=DIRECTION('',(-1.E0,0.E0,0.E0));
#1869=AXIS2_PLACEMENT_3D('',#1866,#1867,#1868);
#1870=PLANE('',#1869);
#1872=ORIENTED_EDGE('',*,*,#1871,.F.);
#1873=ORIENTED_EDGE('',*,*,#1118,.F.);
#1875=ORIENTED_EDGE('',*,*,#1874,.T.);
#1876=ORIENTED_EDGE('',*,*,#1551,.T.);
#1877=ORIENTED_EDGE('',*,*,#1487,.T.);
#1878=EDGE_LOOP('',(#1872,#1873,#1875,#1876,#1877));
#1879=FACE_OUTER_BOUND('',#1878,.F.);
#1881=CARTESIAN_POINT('',(3.5E0,0.E0,-3.5E0));
#1882=DIRECTION('',(0.E0,0.E0,-1.E0));
#1883=DIRECTION('',(-1.E0,0.E0,0.E0));
#1884=AXIS2_PLACEMENT_3D('',#1881,#1882,#1883);
#1885=PLANE('',#1884);
#1887=ORIENTED_EDGE('',*,*,#1886,.T.);
#1888=ORIENTED_EDGE('',*,*,#1521,.T.);
#1890=ORIENTED_EDGE('',*,*,#1889,.F.);
#1891=ORIENTED_EDGE('',*,*,#1092,.F.);
#1892=EDGE_LOOP('',(#1887,#1888,#1890,#1891));
#1893=FACE_OUTER_BOUND('',#1892,.F.);
#1895=CARTESIAN_POINT('',(3.5E0,0.E0,-3.5E0));
#1896=DIRECTION('',(0.E0,0.E0,-1.E0));
#1897=DIRECTION('',(-1.E0,0.E0,0.E0));
#1898=AXIS2_PLACEMENT_3D('',#1895,#1896,#1897);
#1899=PLANE('',#1898);
#1901=ORIENTED_EDGE('',*,*,#1900,.F.);
#1902=ORIENTED_EDGE('',*,*,#1084,.F.);
#1903=ORIENTED_EDGE('',*,*,#1861,.F.);
#1904=ORIENTED_EDGE('',*,*,#1533,.T.);
#1905=EDGE_LOOP('',(#1901,#1902,#1903,#1904));
#1906=FACE_OUTER_BOUND('',#1905,.F.);
#1908=CARTESIAN_POINT('',(-1.E0,0.E0,-2.E0));
#1909=DIRECTION('',(1.E0,0.E0,0.E0));
#1910=DIRECTION('',(0.E0,0.E0,-1.E0));
#1911=AXIS2_PLACEMENT_3D('',#1908,#1909,#1910);
#1912=PLANE('',#1911);
#1913=ORIENTED_EDGE('',*,*,#1120,.F.);
#1914=ORIENTED_EDGE('',*,*,#1871,.T.);
#1915=ORIENTED_EDGE('',*,*,#1485,.T.);
#1916=ORIENTED_EDGE('',*,*,#1252,.F.);
#1917=ORIENTED_EDGE('',*,*,#1498,.T.);
#1918=ORIENTED_EDGE('',*,*,#1319,.F.);
#1920=ORIENTED_EDGE('',*,*,#1919,.F.);
#1921=EDGE_LOOP('',(#1913,#1914,#1915,#1916,#1917,#1918,#1920));
#1922=FACE_OUTER_BOUND('',#1921,.F.);
#1924=CARTESIAN_POINT('',(1.E0,0.E0,-2.E0));
#1925=DIRECTION('',(0.E0,0.E0,-1.E0));
#1926=DIRECTION('',(-1.E0,0.E0,0.E0));
#1927=AXIS2_PLACEMENT_3D('',#1924,#1925,#1926);
#1928=PLANE('',#1927);
#1929=ORIENTED_EDGE('',*,*,#1114,.T.);
#1930=ORIENTED_EDGE('',*,*,#1919,.T.);
#1931=ORIENTED_EDGE('',*,*,#1317,.F.);
#1933=ORIENTED_EDGE('',*,*,#1932,.F.);
#1934=EDGE_LOOP('',(#1929,#1930,#1931,#1933));
#1935=FACE_OUTER_BOUND('',#1934,.F.);
#1937=CARTESIAN_POINT('',(1.E0,0.E0,-3.5E0));
#1938=DIRECTION('',(-1.E0,0.E0,0.E0));
#1939=DIRECTION('',(0.E0,0.E0,1.E0));
#1940=AXIS2_PLACEMENT_3D('',#1937,#1938,#1939);
#1941=PLANE('',#1940);
#1942=ORIENTED_EDGE('',*,*,#1116,.T.);
#1943=ORIENTED_EDGE('',*,*,#1932,.T.);
#1944=ORIENTED_EDGE('',*,*,#1315,.F.);
#1945=ORIENTED_EDGE('',*,*,#1502,.F.);
#1946=ORIENTED_EDGE('',*,*,#1232,.F.);
#1947=ORIENTED_EDGE('',*,*,#1548,.F.);
#1948=ORIENTED_EDGE('',*,*,#1874,.F.);
#1949=EDGE_LOOP('',(#1942,#1943,#1944,#1945,#1946,#1947,#1948));
#1950=FACE_OUTER_BOUND('',#1949,.F.);
#1952=CARTESIAN_POINT('',(-1.1E0,0.E0,-3.5E0));
#1953=DIRECTION('',(-1.E0,0.E0,0.E0));
#1954=DIRECTION('',(0.E0,0.E0,1.E0));
#1955=AXIS2_PLACEMENT_3D('',#1952,#1953,#1954);
#1956=PLANE('',#1955);
#1957=ORIENTED_EDGE('',*,*,#1090,.T.);
#1959=ORIENTED_EDGE('',*,*,#1958,.T.);
#1960=ORIENTED_EDGE('',*,*,#1323,.F.);
#1961=ORIENTED_EDGE('',*,*,#1453,.F.);
#1962=ORIENTED_EDGE('',*,*,#1248,.F.);
#1963=ORIENTED_EDGE('',*,*,#1514,.F.);
#1964=ORIENTED_EDGE('',*,*,#1886,.F.);
#1965=EDGE_LOOP('',(#1957,#1959,#1960,#1961,#1962,#1963,#1964));
#1966=FACE_OUTER_BOUND('',#1965,.F.);
#1968=CARTESIAN_POINT('',(-1.1E0,0.E0,-1.9E0));
#1969=DIRECTION('',(0.E0,0.E0,1.E0));
#1970=DIRECTION('',(1.E0,0.E0,0.E0));
#1971=AXIS2_PLACEMENT_3D('',#1968,#1969,#1970);
#1972=PLANE('',#1971);
#1973=ORIENTED_EDGE('',*,*,#1088,.T.);
#1975=ORIENTED_EDGE('',*,*,#1974,.T.);
#1976=ORIENTED_EDGE('',*,*,#1325,.F.);
#1977=ORIENTED_EDGE('',*,*,#1958,.F.);
#1978=EDGE_LOOP('',(#1973,#1975,#1976,#1977));
#1979=FACE_OUTER_BOUND('',#1978,.F.);
#1981=CARTESIAN_POINT('',(1.1E0,0.E0,-1.9E0));
#1982=DIRECTION('',(1.E0,0.E0,0.E0));
#1983=DIRECTION('',(0.E0,0.E0,-1.E0));
#1984=AXIS2_PLACEMENT_3D('',#1981,#1982,#1983);
#1985=PLANE('',#1984);
#1986=ORIENTED_EDGE('',*,*,#1086,.F.);
#1987=ORIENTED_EDGE('',*,*,#1900,.T.);
#1988=ORIENTED_EDGE('',*,*,#1531,.T.);
#1989=ORIENTED_EDGE('',*,*,#1236,.F.);
#1990=ORIENTED_EDGE('',*,*,#1416,.T.);
#1991=ORIENTED_EDGE('',*,*,#1327,.F.);
#1992=ORIENTED_EDGE('',*,*,#1974,.F.);
#1993=EDGE_LOOP('',(#1986,#1987,#1988,#1989,#1990,#1991,#1992));
#1994=FACE_OUTER_BOUND('',#1993,.F.);
#1996=CARTESIAN_POINT('',(-2.197E0,0.E0,-3.5E0));
#1997=DIRECTION('',(-7.071067811865E-1,0.E0,-7.071067811865E-1));
#1998=DIRECTION('',(-7.071067811865E-1,0.E0,7.071067811865E-1));
#1999=AXIS2_PLACEMENT_3D('',#1996,#1997,#1998);
#2000=PLANE('',#1999);
#2001=ORIENTED_EDGE('',*,*,#1094,.F.);
#2002=ORIENTED_EDGE('',*,*,#1889,.T.);
#2003=ORIENTED_EDGE('',*,*,#1519,.T.);
#2005=ORIENTED_EDGE('',*,*,#2004,.F.);
#2006=EDGE_LOOP('',(#2001,#2002,#2003,#2005));
#2007=FACE_OUTER_BOUND('',#2006,.F.);
#2009=ORIENTED_EDGE('',*,*,#2008,.T.);
#2011=ORIENTED_EDGE('',*,*,#2010,.T.);
#2013=ORIENTED_EDGE('',*,*,#2012,.T.);
#2015=ORIENTED_EDGE('',*,*,#2014,.T.);
#2016=EDGE_LOOP('',(#2009,#2011,#2013,#2015));
#2017=FACE_BOUND('',#2016,.F.);
#2019=CARTESIAN_POINT('',(-3.5E0,0.E0,-2.197E0));
#2020=DIRECTION('',(-1.E0,0.E0,0.E0));
#2021=DIRECTION('',(0.E0,0.E0,1.E0));
#2022=AXIS2_PLACEMENT_3D('',#2019,#2020,#2021);
#2023=PLANE('',#2022);
#2025=ORIENTED_EDGE('',*,*,#2024,.T.);
#2026=ORIENTED_EDGE('',*,*,#1096,.F.);
#2027=ORIENTED_EDGE('',*,*,#2004,.T.);
#2028=ORIENTED_EDGE('',*,*,#1517,.T.);
#2029=ORIENTED_EDGE('',*,*,#1435,.T.);
#2030=EDGE_LOOP('',(#2025,#2026,#2027,#2028,#2029));
#2031=FACE_OUTER_BOUND('',#2030,.F.);
#2033=CARTESIAN_POINT('',(-3.3E0,7.371522228910E0,3.3E0));
#2034=DIRECTION('',(0.E0,-1.E0,0.E0));
#2035=DIRECTION('',(0.E0,0.E0,1.E0));
#2036=AXIS2_PLACEMENT_3D('',#2033,#2034,#2035);
#2037=CYLINDRICAL_SURFACE('',#2036,2.E-1);
#2038=ORIENTED_EDGE('',*,*,#1098,.T.);
#2039=ORIENTED_EDGE('',*,*,#2024,.F.);
#2040=ORIENTED_EDGE('',*,*,#1433,.T.);
#2041=ORIENTED_EDGE('',*,*,#1185,.T.);
#2042=EDGE_LOOP('',(#2038,#2039,#2040,#2041));
#2043=FACE_OUTER_BOUND('',#2042,.F.);
#2045=CARTESIAN_POINT('',(3.421348480983E0,5.E-1,2.902466799188E0));
#2046=DIRECTION('',(7.071067811865E-1,0.E0,-7.071067811865E-1));
#2047=DIRECTION('',(0.E0,-1.E0,0.E0));
#2048=AXIS2_PLACEMENT_3D('',#2045,#2046,#2047);
#2049=PLANE('',#2048);
#2050=ORIENTED_EDGE('',*,*,#2008,.F.);
#2052=ORIENTED_EDGE('',*,*,#2051,.T.);
#2054=ORIENTED_EDGE('',*,*,#2053,.T.);
#2056=ORIENTED_EDGE('',*,*,#2055,.F.);
#2057=EDGE_LOOP('',(#2050,#2052,#2054,#2056));
#2058=FACE_OUTER_BOUND('',#2057,.F.);
#2060=CARTESIAN_POINT('',(3.421348480983E0,5.E-1,2.902466799188E0));
#2061=DIRECTION('',(7.071067811865E-1,0.E0,-7.071067811865E-1));
#2062=DIRECTION('',(0.E0,-1.E0,0.E0));
#2063=AXIS2_PLACEMENT_3D('',#2060,#2061,#2062);
#2064=PLANE('',#2063);
#2066=ORIENTED_EDGE('',*,*,#2065,.T.);
#2068=ORIENTED_EDGE('',*,*,#2067,.F.);
#2070=ORIENTED_EDGE('',*,*,#2069,.F.);
#2072=ORIENTED_EDGE('',*,*,#2071,.T.);
#2073=EDGE_LOOP('',(#2066,#2068,#2070,#2072));
#2074=FACE_OUTER_BOUND('',#2073,.F.);
#2076=CARTESIAN_POINT('',(2.926373734153E0,5.E-1,3.397441546018E0));
#2077=DIRECTION('',(0.E0,1.E0,0.E0));
#2078=DIRECTION('',(7.071067811865E-1,0.E0,-7.071067811865E-1));
#2079=AXIS2_PLACEMENT_3D('',#2076,#2077,#2078);
#2080=PLANE('',#2079);
#2081=ORIENTED_EDGE('',*,*,#2014,.F.);
#2083=ORIENTED_EDGE('',*,*,#2082,.T.);
#2085=ORIENTED_EDGE('',*,*,#2084,.T.);
#2086=ORIENTED_EDGE('',*,*,#2051,.F.);
#2087=EDGE_LOOP('',(#2081,#2083,#2085,#2086));
#2088=FACE_OUTER_BOUND('',#2087,.F.);
#2090=CARTESIAN_POINT('',(2.926373734153E0,5.E-1,3.397441546018E0));
#2091=DIRECTION('',(0.E0,1.E0,0.E0));
#2092=DIRECTION('',(7.071067811865E-1,0.E0,-7.071067811865E-1));
#2093=AXIS2_PLACEMENT_3D('',#2090,#2091,#2092);
#2094=PLANE('',#2093);
#2096=ORIENTED_EDGE('',*,*,#2095,.T.);
#2097=ORIENTED_EDGE('',*,*,#2071,.F.);
#2099=ORIENTED_EDGE('',*,*,#2098,.F.);
#2101=ORIENTED_EDGE('',*,*,#2100,.T.);
#2102=EDGE_LOOP('',(#2096,#2097,#2099,#2101));
#2103=FACE_OUTER_BOUND('',#2102,.F.);
#2105=CARTESIAN_POINT('',(2.926373734153E0,2.5E-1,3.397441546018E0));
#2106=DIRECTION('',(-7.071067811865E-1,0.E0,7.071067811865E-1));
#2107=DIRECTION('',(0.E0,1.E0,0.E0));
#2108=AXIS2_PLACEMENT_3D('',#2105,#2106,#2107);
#2109=PLANE('',#2108);
#2110=ORIENTED_EDGE('',*,*,#2012,.F.);
#2112=ORIENTED_EDGE('',*,*,#2111,.T.);
#2114=ORIENTED_EDGE('',*,*,#2113,.T.);
#2115=ORIENTED_EDGE('',*,*,#2082,.F.);
#2116=EDGE_LOOP('',(#2110,#2112,#2114,#2115));
#2117=FACE_OUTER_BOUND('',#2116,.F.);
#2119=CARTESIAN_POINT('',(2.926373734153E0,2.5E-1,3.397441546018E0));
#2120=DIRECTION('',(-7.071067811865E-1,0.E0,7.071067811865E-1));
#2121=DIRECTION('',(0.E0,1.E0,0.E0));
#2122=AXIS2_PLACEMENT_3D('',#2119,#2120,#2121);
#2123=PLANE('',#2122);
#2125=ORIENTED_EDGE('',*,*,#2124,.T.);
#2126=ORIENTED_EDGE('',*,*,#2100,.F.);
#2128=ORIENTED_EDGE('',*,*,#2127,.F.);
#2130=ORIENTED_EDGE('',*,*,#2129,.T.);
#2131=EDGE_LOOP('',(#2125,#2126,#2128,#2130));
#2132=FACE_OUTER_BOUND('',#2131,.F.);
#2134=CARTESIAN_POINT('',(3.421348480983E0,2.5E-1,2.902466799188E0));
#2135=DIRECTION('',(0.E0,-1.E0,0.E0));
#2136=DIRECTION('',(-7.071067811865E-1,0.E0,7.071067811865E-1));
#2137=AXIS2_PLACEMENT_3D('',#2134,#2135,#2136);
#2138=PLANE('',#2137);
#2139=ORIENTED_EDGE('',*,*,#2010,.F.);
#2140=ORIENTED_EDGE('',*,*,#2055,.T.);
#2142=ORIENTED_EDGE('',*,*,#2141,.T.);
#2143=ORIENTED_EDGE('',*,*,#2111,.F.);
#2144=EDGE_LOOP('',(#2139,#2140,#2142,#2143));
#2145=FACE_OUTER_BOUND('',#2144,.F.);
#2147=CARTESIAN_POINT('',(3.421348480983E0,2.5E-1,2.902466799188E0));
#2148=DIRECTION('',(0.E0,-1.E0,0.E0));
#2149=DIRECTION('',(-7.071067811865E-1,0.E0,7.071067811865E-1));
#2150=AXIS2_PLACEMENT_3D('',#2147,#2148,#2149);
#2151=PLANE('',#2150);
#2153=ORIENTED_EDGE('',*,*,#2152,.T.);
#2154=ORIENTED_EDGE('',*,*,#2129,.F.);
#2156=ORIENTED_EDGE('',*,*,#2155,.F.);
#2157=ORIENTED_EDGE('',*,*,#2067,.T.);
#2158=EDGE_LOOP('',(#2153,#2154,#2156,#2157));
#2159=FACE_OUTER_BOUND('',#2158,.F.);
#2161=CARTESIAN_POINT('',(-3.202053390593E0,0.E0,-3.202053390593E0));
#2162=DIRECTION('',(-7.071067811865E-1,0.E0,-7.071067811865E-1));
#2163=DIRECTION('',(-7.071067811865E-1,0.E0,7.071067811865E-1));
#2164=AXIS2_PLACEMENT_3D('',#2161,#2162,#2163);
#2165=PLANE('',#2164);
#2166=ORIENTED_EDGE('',*,*,#2053,.F.);
#2167=ORIENTED_EDGE('',*,*,#2084,.F.);
#2168=ORIENTED_EDGE('',*,*,#2113,.F.);
#2169=ORIENTED_EDGE('',*,*,#2141,.F.);
#2170=EDGE_LOOP('',(#2166,#2167,#2168,#2169));
#2171=FACE_OUTER_BOUND('',#2170,.F.);
#2173=CARTESIAN_POINT('',(2.197E0,0.E0,3.5E0));
#2174=DIRECTION('',(7.071067811865E-1,0.E0,7.071067811865E-1));
#2175=DIRECTION('',(7.071067811865E-1,0.E0,-7.071067811865E-1));
#2176=AXIS2_PLACEMENT_3D('',#2173,#2174,#2175);
#2177=PLANE('',#2176);
#2178=ORIENTED_EDGE('',*,*,#1078,.F.);
#2179=ORIENTED_EDGE('',*,*,#1171,.T.);
#2180=ORIENTED_EDGE('',*,*,#1393,.T.);
#2181=ORIENTED_EDGE('',*,*,#1846,.F.);
#2182=EDGE_LOOP('',(#2178,#2179,#2180,#2181));
#2183=FACE_OUTER_BOUND('',#2182,.F.);
#2184=ORIENTED_EDGE('',*,*,#2065,.F.);
#2185=ORIENTED_EDGE('',*,*,#2095,.F.);
#2186=ORIENTED_EDGE('',*,*,#2124,.F.);
#2187=ORIENTED_EDGE('',*,*,#2152,.F.);
#2188=EDGE_LOOP('',(#2184,#2185,#2186,#2187));
#2189=FACE_BOUND('',#2188,.F.);
#2191=CARTESIAN_POINT('',(3.161907640086E0,0.E0,3.161907640086E0));
#2192=DIRECTION('',(-7.071067811865E-1,0.E0,-7.071067811865E-1));
#2193=DIRECTION('',(-7.071067811865E-1,0.E0,7.071067811865E-1));
#2194=AXIS2_PLACEMENT_3D('',#2191,#2192,#2193);
#2195=PLANE('',#2194);
#2196=ORIENTED_EDGE('',*,*,#2069,.T.);
#2197=ORIENTED_EDGE('',*,*,#2155,.T.);
#2198=ORIENTED_EDGE('',*,*,#2127,.T.);
#2199=ORIENTED_EDGE('',*,*,#2098,.T.);
#2200=EDGE_LOOP('',(#2196,#2197,#2198,#2199));
#2201=FACE_OUTER_BOUND('',#2200,.F.);
#2203=CLOSED_SHELL('',(#1068,#1108,#1124,#1145,#1161,#1176,#1191,#1211,#1224,
#1240,#1256,#1271,#1286,#1307,#1331,#1355,#1367,#1381,#1398,#1424,#1441,#1467,
#1479,#1492,#1508,#1525,#1542,#1555,#1573,#1589,#1613,#1631,#1647,#1662,#1677,
#1690,#1705,#1719,#1734,#1747,#1761,#1777,#1793,#1809,#1822,#1837,#1852,#1865,
#1880,#1894,#1907,#1923,#1936,#1951,#1967,#1980,#1995,#2018,#2032,#2044,#2059,
#2075,#2089,#2104,#2118,#2133,#2146,#2160,#2172,#2190,#2202));
#2204=MANIFOLD_SOLID_BREP('',#2203);
#2206=DIMENSIONAL_EXPONENTS(0.E0,0.E0,0.E0,0.E0,0.E0,0.E0,0.E0);
#2208=PLANE_ANGLE_MEASURE_WITH_UNIT(PLANE_ANGLE_MEASURE(1.745329251994E-2),
#2207);
#2209=(CONVERSION_BASED_UNIT('DEGREE',#2208)NAMED_UNIT(*)PLANE_ANGLE_UNIT());
#2211=UNCERTAINTY_MEASURE_WITH_UNIT(LENGTH_MEASURE(4.334762327787E-4),#2205,
'closure',
'Maximum model space distance between geometric entities at asserted connectivities');
#2214=APPLICATION_CONTEXT(
'CONFIGURATION CONTROLLED 3D DESIGNS OF MECHANICAL PARTS AND ASSEMBLIES');
#2215=APPLICATION_PROTOCOL_DEFINITION('international standard',
'config_control_design',1994,#2214);
#2216=DESIGN_CONTEXT('',#2214,'design');
#2217=MECHANICAL_CONTEXT('',#2214,'mechanical');
#2218=PRODUCT('SRR7032','SRR7032','NOT SPECIFIED',(#2217));
#2219=PRODUCT_DEFINITION_FORMATION_WITH_SPECIFIED_SOURCE('1','LAST_VERSION',
#2218,.MADE.);
#2223=PRODUCT_CATEGORY('part','');
#2224=PRODUCT_RELATED_PRODUCT_CATEGORY('detail','',(#2218));
#2225=PRODUCT_CATEGORY_RELATIONSHIP('','',#2223,#2224);
#2226=SECURITY_CLASSIFICATION_LEVEL('unclassified');
#2227=SECURITY_CLASSIFICATION('','',#2226);
#2228=CC_DESIGN_SECURITY_CLASSIFICATION(#2227,(#2219));
#2229=APPROVAL_STATUS('approved');
#2230=APPROVAL(#2229,'');
#2231=CC_DESIGN_APPROVAL(#2230,(#2227,#2219,#2220));
#2232=CALENDAR_DATE(112,12,7);
#2233=COORDINATED_UNIVERSAL_TIME_OFFSET(7,0,.BEHIND.);
#2234=LOCAL_TIME(14,37,1.2E1,#2233);
#2235=DATE_AND_TIME(#2232,#2234);
#2236=APPROVAL_DATE_TIME(#2235,#2230);
#2237=DATE_TIME_ROLE('creation_date');
#2238=CC_DESIGN_DATE_AND_TIME_ASSIGNMENT(#2235,#2237,(#2220));
#2239=DATE_TIME_ROLE('classification_date');
#2240=CC_DESIGN_DATE_AND_TIME_ASSIGNMENT(#2235,#2239,(#2227));
#2241=PERSON('UNSPECIFIED','UNSPECIFIED',$,$,$,$);
#2242=ORGANIZATION('UNSPECIFIED','UNSPECIFIED','UNSPECIFIED');
#2243=PERSON_AND_ORGANIZATION(#2241,#2242);
#2244=APPROVAL_ROLE('approver');
#2245=APPROVAL_PERSON_ORGANIZATION(#2243,#2230,#2244);
#2246=PERSON_AND_ORGANIZATION_ROLE('creator');
#2247=CC_DESIGN_PERSON_AND_ORGANIZATION_ASSIGNMENT(#2243,#2246,(#2219,#2220));
#2248=PERSON_AND_ORGANIZATION_ROLE('design_supplier');
#2249=CC_DESIGN_PERSON_AND_ORGANIZATION_ASSIGNMENT(#2243,#2248,(#2219));
#2250=PERSON_AND_ORGANIZATION_ROLE('classification_officer');
#2251=CC_DESIGN_PERSON_AND_ORGANIZATION_ASSIGNMENT(#2243,#2250,(#2227));
#2252=PERSON_AND_ORGANIZATION_ROLE('design_owner');
#2253=CC_DESIGN_PERSON_AND_ORGANIZATION_ASSIGNMENT(#2243,#2252,(#2218));
#37=CIRCLE('',#36,2.E-1);
#70=CIRCLE('',#69,2.E-1);
#211=CIRCLE('',#210,3.5E0);
#220=CIRCLE('',#219,3.5E0);
#233=CIRCLE('',#232,3.5E0);
#242=CIRCLE('',#241,2.75E0);
#251=CIRCLE('',#250,2.625E0);
#260=CIRCLE('',#259,3.5E0);
#281=CIRCLE('',#280,2.625E0);
#290=CIRCLE('',#289,2.5E-1);
#299=CIRCLE('',#298,2.625E0);
#308=CIRCLE('',#307,2.75E0);
#313=CIRCLE('',#312,2.75E0);
#326=CIRCLE('',#325,2.E-1);
#335=CIRCLE('',#334,3.5E0);
#344=CIRCLE('',#343,2.75E0);
#349=CIRCLE('',#348,2.75E0);
#358=CIRCLE('',#357,2.625E0);
#367=CIRCLE('',#366,2.5E-1);
#376=CIRCLE('',#375,2.625E0);
#385=CIRCLE('',#384,3.5E0);
#402=CIRCLE('',#401,3.5E0);
#411=CIRCLE('',#410,2.75E0);
#420=CIRCLE('',#419,2.625E0);
#429=CIRCLE('',#428,3.5E0);
#454=CIRCLE('',#453,2.E-1);
#463=CIRCLE('',#462,3.5E0);
#472=CIRCLE('',#471,3.5E0);
#481=CIRCLE('',#480,3.5E0);
#490=CIRCLE('',#489,3.5E0);
#495=CIRCLE('',#494,3.5E0);
#500=CIRCLE('',#499,3.5E0);
#505=CIRCLE('',#504,2.75E0);
#510=CIRCLE('',#509,2.75E0);
#519=CIRCLE('',#518,2.5E-1);
#532=CIRCLE('',#531,2.5E-1);
#541=CIRCLE('',#540,2.75E0);
#546=CIRCLE('',#545,2.75E0);
#555=CIRCLE('',#554,2.75E0);
#560=CIRCLE('',#559,2.75E0);
#569=CIRCLE('',#568,2.524999700895E0);
#574=CIRCLE('',#573,2.625001538337E0);
#580=B_SPLINE_CURVE_WITH_KNOTS('',3,(#575,#576,#577,#578,#579),.UNSPECIFIED.,
.F.,.F.,(4,1,4),(0.E0,5.E-1,1.E0),.UNSPECIFIED.);
#594=B_SPLINE_CURVE_WITH_KNOTS('',3,(#589,#590,#591,#592,#593),.UNSPECIFIED.,
.F.,.F.,(4,1,4),(0.E0,5.E-1,1.E0),.UNSPECIFIED.);
#603=CIRCLE('',#602,2.524999700895E0);
#608=CIRCLE('',#607,2.625001538337E0);
#614=B_SPLINE_CURVE_WITH_KNOTS('',3,(#609,#610,#611,#612,#613),.UNSPECIFIED.,
.F.,.F.,(4,1,4),(0.E0,5.E-1,1.E0),.UNSPECIFIED.);
#628=B_SPLINE_CURVE_WITH_KNOTS('',3,(#623,#624,#625,#626,#627),.UNSPECIFIED.,
.F.,.F.,(4,1,4),(0.E0,5.E-1,1.E0),.UNSPECIFIED.);
#637=CIRCLE('',#636,2.625E0);
#646=CIRCLE('',#645,2.625E0);
#651=CIRCLE('',#650,2.625E0);
#660=CIRCLE('',#659,2.625E0);
#1058=EDGE_CURVE('',#955,#956,#4,.T.);
#1060=EDGE_CURVE('',#968,#956,#8,.T.);
#1062=EDGE_CURVE('',#967,#968,#12,.T.);
#1064=EDGE_CURVE('',#967,#955,#16,.T.);
#1068=ADVANCED_FACE('',(#1067),#1057,.F.);
#1074=EDGE_CURVE('',#959,#960,#20,.T.);
#1076=EDGE_CURVE('',#959,#831,#24,.T.);
#1078=EDGE_CURVE('',#831,#832,#28,.T.);
#1080=EDGE_CURVE('',#832,#900,#32,.T.);
#1082=EDGE_CURVE('',#899,#900,#37,.T.);
#1084=EDGE_CURVE('',#899,#982,#41,.T.);
#1086=EDGE_CURVE('',#982,#980,#45,.T.);
#1088=EDGE_CURVE('',#978,#980,#49,.T.);
#1090=EDGE_CURVE('',#977,#978,#53,.T.);
#1092=EDGE_CURVE('',#977,#827,#57,.T.);
#1094=EDGE_CURVE('',#827,#828,#61,.T.);
#1096=EDGE_CURVE('',#828,#892,#65,.T.);
#1098=EDGE_CURVE('',#891,#892,#70,.T.);
#1100=EDGE_CURVE('',#891,#964,#74,.T.);
#1102=EDGE_CURVE('',#964,#962,#78,.T.);
#1104=EDGE_CURVE('',#960,#962,#82,.T.);
#1108=ADVANCED_FACE('',(#1107),#1073,.F.);
#1114=EDGE_CURVE('',#971,#972,#86,.T.);
#1116=EDGE_CURVE('',#984,#971,#90,.T.);
#1118=EDGE_CURVE('',#984,#974,#94,.T.);
#1120=EDGE_CURVE('',#974,#972,#98,.T.);
#1124=ADVANCED_FACE('',(#1123),#1113,.F.);
#1131=EDGE_CURVE('',#955,#987,#106,.T.);
#1133=EDGE_CURVE('',#987,#988,#224,.T.);
#1135=EDGE_CURVE('',#991,#988,#158,.T.);
#1137=EDGE_CURVE('',#991,#992,#237,.T.);
#1139=EDGE_CURVE('',#944,#992,#170,.T.);
#1141=EDGE_CURVE('',#956,#944,#102,.T.);
#1145=ADVANCED_FACE('',(#1144),#1129,.F.);
#1153=EDGE_CURVE('',#967,#1011,#110,.T.);
#1155=EDGE_CURVE('',#1011,#1052,#389,.T.);
#1157=EDGE_CURVE('',#1052,#987,#228,.T.);
#1161=ADVANCED_FACE('',(#1160),#1150,.T.);
#1167=EDGE_CURVE('',#959,#995,#114,.T.);
#1169=EDGE_CURVE('',#995,#839,#272,.T.);
#1171=EDGE_CURVE('',#831,#839,#792,.T.);
#1176=ADVANCED_FACE('',(#1175),#1166,.T.);
#1182=EDGE_CURVE('',#964,#1003,#118,.T.);
#1185=EDGE_CURVE('',#896,#891,#122,.T.);
#1187=EDGE_CURVE('',#896,#1003,#321,.T.);
#1191=ADVANCED_FACE('',(#1190),#1181,.T.);
#1198=EDGE_CURVE('',#968,#943,#126,.T.);
#1200=EDGE_CURVE('',#1016,#943,#162,.T.);
#1202=EDGE_CURVE('',#1015,#1016,#246,.T.);
#1204=EDGE_CURVE('',#1012,#1015,#146,.T.);
#1206=EDGE_CURVE('',#1011,#1012,#380,.T.);
#1211=ADVANCED_FACE('',(#1210),#1196,.F.);
#1219=EDGE_CURVE('',#943,#944,#166,.T.);
#1224=ADVANCED_FACE('',(#1223),#1216,.F.);
#1230=EDGE_CURVE('',#1036,#1044,#211,.T.);
#1232=EDGE_CURVE('',#1044,#1047,#130,.T.);
#1234=EDGE_CURVE('',#1039,#1047,#555,.T.);
#1236=EDGE_CURVE('',#1039,#1036,#134,.T.);
#1240=ADVANCED_FACE('',(#1239),#1229,.F.);
#1246=EDGE_CURVE('',#1020,#1028,#220,.T.);
#1248=EDGE_CURVE('',#1028,#1031,#138,.T.);
#1250=EDGE_CURVE('',#1023,#1031,#560,.T.);
#1252=EDGE_CURVE('',#1023,#1020,#142,.T.);
#1256=ADVANCED_FACE('',(#1255),#1245,.F.);
#1262=EDGE_CURVE('',#1004,#1012,#481,.T.);
#1265=EDGE_CURVE('',#1007,#1015,#541,.T.);
#1267=EDGE_CURVE('',#1007,#1004,#150,.T.);
#1271=ADVANCED_FACE('',(#1270),#1261,.F.);
#1277=EDGE_CURVE('',#988,#996,#490,.T.);
#1279=EDGE_CURVE('',#996,#999,#154,.T.);
#1281=EDGE_CURVE('',#991,#999,#546,.T.);
#1286=ADVANCED_FACE('',(#1285),#1276,.F.);
#1292=EDGE_CURVE('',#1008,#1016,#637,.T.);
#1297=EDGE_CURVE('',#992,#1000,#646,.T.);
#1299=EDGE_CURVE('',#1000,#939,#174,.T.);
#1301=EDGE_CURVE('',#939,#940,#178,.T.);
#1303=EDGE_CURVE('',#940,#1008,#182,.T.);
#1307=ADVANCED_FACE('',(#1306),#1291,.F.);
#1313=EDGE_CURVE('',#1040,#1048,#651,.T.);
#1315=EDGE_CURVE('',#1048,#947,#186,.T.);
#1317=EDGE_CURVE('',#947,#948,#190,.T.);
#1319=EDGE_CURVE('',#948,#1024,#194,.T.);
#1321=EDGE_CURVE('',#1024,#1032,#660,.T.);
#1323=EDGE_CURVE('',#1032,#951,#198,.T.);
#1325=EDGE_CURVE('',#951,#952,#202,.T.);
#1327=EDGE_CURVE('',#952,#1040,#206,.T.);
#1331=ADVANCED_FACE('',(#1330),#1312,.F.);
#1338=EDGE_CURVE('',#876,#1036,#463,.T.);
#1340=EDGE_CURVE('',#843,#876,#215,.T.);
#1342=EDGE_CURVE('',#843,#844,#495,.T.);
#1344=EDGE_CURVE('',#844,#874,#485,.T.);
#1346=EDGE_CURVE('',#1028,#874,#429,.T.);
#1349=EDGE_CURVE('',#1050,#1020,#402,.T.);
#1351=EDGE_CURVE('',#1044,#1050,#472,.T.);
#1355=ADVANCED_FACE('',(#1354),#1336,.T.);
#1363=EDGE_CURVE('',#1052,#988,#233,.T.);
#1367=ADVANCED_FACE('',(#1366),#1360,.T.);
#1374=EDGE_CURVE('',#1015,#991,#242,.T.);
#1377=EDGE_CURVE('',#1016,#992,#251,.T.);
#1381=ADVANCED_FACE('',(#1380),#1372,.T.);
#1387=EDGE_CURVE('',#995,#996,#255,.T.);
#1389=EDGE_CURVE('',#996,#876,#260,.T.);
#1391=EDGE_CURVE('',#840,#876,#264,.T.);
#1393=EDGE_CURVE('',#839,#840,#268,.T.);
#1398=ADVANCED_FACE('',(#1397),#1386,.T.);
#1404=EDGE_CURVE('',#999,#1000,#276,.T.);
#1406=EDGE_CURVE('',#1000,#865,#281,.T.);
#1408=EDGE_CURVE('',#865,#866,#285,.T.);
#1410=EDGE_CURVE('',#868,#866,#290,.T.);
#1412=EDGE_CURVE('',#868,#870,#294,.T.);
#1414=EDGE_CURVE('',#870,#1040,#299,.T.);
#1416=EDGE_CURVE('',#1039,#1040,#303,.T.);
#1418=EDGE_CURVE('',#878,#1039,#308,.T.);
#1420=EDGE_CURVE('',#999,#878,#313,.T.);
#1424=ADVANCED_FACE('',(#1423),#1403,.T.);
#1430=EDGE_CURVE('',#1003,#1004,#317,.T.);
#1433=EDGE_CURVE('',#894,#896,#326,.T.);
#1435=EDGE_CURVE('',#874,#894,#330,.T.);
#1437=EDGE_CURVE('',#874,#1004,#335,.T.);
#1441=ADVANCED_FACE('',(#1440),#1429,.T.);
#1447=EDGE_CURVE('',#1007,#1008,#339,.T.);
#1449=EDGE_CURVE('',#880,#1007,#344,.T.);
#1451=EDGE_CURVE('',#1031,#880,#349,.T.);
#1453=EDGE_CURVE('',#1031,#1032,#353,.T.);
#1455=EDGE_CURVE('',#1032,#872,#358,.T.);
#1457=EDGE_CURVE('',#872,#860,#362,.T.);
#1459=EDGE_CURVE('',#859,#860,#367,.T.);
#1461=EDGE_CURVE('',#859,#862,#371,.T.);
#1463=EDGE_CURVE('',#862,#1008,#376,.T.);
#1467=ADVANCED_FACE('',(#1466),#1446,.T.);
#1474=EDGE_CURVE('',#1012,#1052,#385,.T.);
#1479=ADVANCED_FACE('',(#1478),#1472,.T.);
#1485=EDGE_CURVE('',#1019,#1020,#393,.T.);
#1487=EDGE_CURVE('',#1050,#1019,#397,.T.);
#1492=ADVANCED_FACE('',(#1491),#1484,.T.);
#1498=EDGE_CURVE('',#1023,#1024,#406,.T.);
#1500=EDGE_CURVE('',#1047,#1023,#411,.T.);
#1502=EDGE_CURVE('',#1047,#1048,#415,.T.);
#1504=EDGE_CURVE('',#1048,#1024,#420,.T.);
#1508=ADVANCED_FACE('',(#1507),#1497,.T.);
#1514=EDGE_CURVE('',#1027,#1028,#424,.T.);
#1517=EDGE_CURVE('',#836,#874,#433,.T.);
#1519=EDGE_CURVE('',#835,#836,#437,.T.);
#1521=EDGE_CURVE('',#1027,#835,#441,.T.);
#1525=ADVANCED_FACE('',(#1524),#1513,.T.);
#1531=EDGE_CURVE('',#1035,#1036,#445,.T.);
#1533=EDGE_CURVE('',#904,#1035,#449,.T.);
#1535=EDGE_CURVE('',#902,#904,#454,.T.);
#1537=EDGE_CURVE('',#876,#902,#458,.T.);
#1542=ADVANCED_FACE('',(#1541),#1530,.T.);
#1548=EDGE_CURVE('',#1043,#1044,#467,.T.);
#1551=EDGE_CURVE('',#1043,#1050,#476,.T.);
#1555=ADVANCED_FACE('',(#1554),#1547,.T.);
#1564=EDGE_CURVE('',#844,#843,#500,.T.);
#1573=ADVANCED_FACE('',(#1572),#1560,.T.);
#1583=EDGE_CURVE('',#847,#848,#505,.T.);
#1585=EDGE_CURVE('',#848,#847,#510,.T.);
#1589=ADVANCED_FACE('',(#1582,#1588),#1578,.T.);
#1595=EDGE_CURVE('',#884,#881,#569,.T.);
#1597=EDGE_CURVE('',#852,#884,#514,.T.);
#1599=EDGE_CURVE('',#851,#852,#519,.T.);
#1601=EDGE_CURVE('',#885,#851,#523,.T.);
#1603=EDGE_CURVE('',#888,#885,#603,.T.);
#1605=EDGE_CURVE('',#856,#888,#527,.T.);
#1607=EDGE_CURVE('',#855,#856,#532,.T.);
#1609=EDGE_CURVE('',#881,#855,#536,.T.);
#1613=ADVANCED_FACE('',(#1612),#1594,.T.);
#1623=EDGE_CURVE('',#847,#878,#550,.T.);
#1626=EDGE_CURVE('',#848,#880,#564,.T.);
#1631=ADVANCED_FACE('',(#1630),#1618,.F.);
#1647=ADVANCED_FACE('',(#1646),#1636,.F.);
#1654=EDGE_CURVE('',#881,#882,#580,.T.);
#1656=EDGE_CURVE('',#882,#883,#574,.T.);
#1658=EDGE_CURVE('',#883,#884,#628,.T.);
#1662=ADVANCED_FACE('',(#1661),#1652,.T.);
#1670=EDGE_CURVE('',#855,#866,#588,.T.);
#1673=EDGE_CURVE('',#882,#865,#584,.T.);
#1677=ADVANCED_FACE('',(#1676),#1667,.T.);
#1686=EDGE_CURVE('',#856,#868,#598,.T.);
#1690=ADVANCED_FACE('',(#1689),#1682,.F.);
#1696=EDGE_CURVE('',#887,#888,#594,.T.);
#1698=EDGE_CURVE('',#887,#870,#655,.T.);
#1705=ADVANCED_FACE('',(#1704),#1695,.T.);
#1712=EDGE_CURVE('',#885,#886,#614,.T.);
#1714=EDGE_CURVE('',#886,#887,#608,.T.);
#1719=ADVANCED_FACE('',(#1718),#1710,.T.);
#1727=EDGE_CURVE('',#851,#860,#622,.T.);
#1730=EDGE_CURVE('',#886,#872,#618,.T.);
#1734=ADVANCED_FACE('',(#1733),#1724,.T.);
#1743=EDGE_CURVE('',#852,#859,#632,.T.);
#1747=ADVANCED_FACE('',(#1746),#1739,.F.);
#1754=EDGE_CURVE('',#883,#862,#641,.T.);
#1761=ADVANCED_FACE('',(#1760),#1752,.T.);
#1777=ADVANCED_FACE('',(#1776),#1766,.T.);
#1793=ADVANCED_FACE('',(#1792),#1782,.T.);
#1800=EDGE_CURVE('',#960,#939,#664,.T.);
#1809=ADVANCED_FACE('',(#1808),#1798,.F.);
#1816=EDGE_CURVE('',#962,#940,#668,.T.);
#1822=ADVANCED_FACE('',(#1821),#1814,.F.);
#1837=ADVANCED_FACE('',(#1836),#1827,.F.);
#1843=EDGE_CURVE('',#902,#900,#672,.T.);
#1846=EDGE_CURVE('',#832,#840,#676,.T.);
#1852=ADVANCED_FACE('',(#1851),#1842,.T.);
#1861=EDGE_CURVE('',#904,#899,#696,.T.);
#1865=ADVANCED_FACE('',(#1864),#1857,.T.);
#1871=EDGE_CURVE('',#974,#1019,#680,.T.);
#1874=EDGE_CURVE('',#984,#1043,#684,.T.);
#1880=ADVANCED_FACE('',(#1879),#1870,.T.);
#1886=EDGE_CURVE('',#977,#1027,#688,.T.);
#1889=EDGE_CURVE('',#827,#835,#716,.T.);
#1894=ADVANCED_FACE('',(#1893),#1885,.T.);
#1900=EDGE_CURVE('',#982,#1035,#692,.T.);
#1907=ADVANCED_FACE('',(#1906),#1899,.T.);
#1919=EDGE_CURVE('',#972,#948,#700,.T.);
#1923=ADVANCED_FACE('',(#1922),#1912,.F.);
#1932=EDGE_CURVE('',#971,#947,#704,.T.);
#1936=ADVANCED_FACE('',(#1935),#1928,.F.);
#1951=ADVANCED_FACE('',(#1950),#1941,.F.);
#1958=EDGE_CURVE('',#978,#951,#708,.T.);
#1967=ADVANCED_FACE('',(#1966),#1956,.F.);
#1974=EDGE_CURVE('',#980,#952,#712,.T.);
#1980=ADVANCED_FACE('',(#1979),#1972,.F.);
#1995=ADVANCED_FACE('',(#1994),#1985,.F.);
#2004=EDGE_CURVE('',#828,#836,#740,.T.);
#2008=EDGE_CURVE('',#923,#924,#720,.T.);
#2010=EDGE_CURVE('',#924,#926,#724,.T.);
#2012=EDGE_CURVE('',#926,#928,#728,.T.);
#2014=EDGE_CURVE('',#928,#923,#732,.T.);
#2018=ADVANCED_FACE('',(#2007,#2017),#2000,.T.);
#2024=EDGE_CURVE('',#894,#892,#736,.T.);
#2032=ADVANCED_FACE('',(#2031),#2023,.T.);
#2044=ADVANCED_FACE('',(#2043),#2037,.T.);
#2051=EDGE_CURVE('',#923,#915,#744,.T.);
#2053=EDGE_CURVE('',#915,#916,#776,.T.);
#2055=EDGE_CURVE('',#924,#916,#768,.T.);
#2059=ADVANCED_FACE('',(#2058),#2049,.T.);
#2065=EDGE_CURVE('',#931,#932,#796,.T.);
#2067=EDGE_CURVE('',#908,#932,#772,.T.);
#2069=EDGE_CURVE('',#907,#908,#812,.T.);
#2071=EDGE_CURVE('',#907,#931,#748,.T.);
#2075=ADVANCED_FACE('',(#2074),#2064,.T.);
#2082=EDGE_CURVE('',#928,#920,#752,.T.);
#2084=EDGE_CURVE('',#920,#915,#780,.T.);
#2089=ADVANCED_FACE('',(#2088),#2080,.T.);
#2095=EDGE_CURVE('',#936,#931,#800,.T.);
#2098=EDGE_CURVE('',#912,#907,#824,.T.);
#2100=EDGE_CURVE('',#912,#936,#756,.T.);
#2104=ADVANCED_FACE('',(#2103),#2094,.T.);
#2111=EDGE_CURVE('',#926,#918,#760,.T.);
#2113=EDGE_CURVE('',#918,#920,#784,.T.);
#2118=ADVANCED_FACE('',(#2117),#2109,.T.);
#2124=EDGE_CURVE('',#934,#936,#804,.T.);
#2127=EDGE_CURVE('',#910,#912,#820,.T.);
#2129=EDGE_CURVE('',#910,#934,#764,.T.);
#2133=ADVANCED_FACE('',(#2132),#2123,.T.);
#2141=EDGE_CURVE('',#916,#918,#788,.T.);
#2146=ADVANCED_FACE('',(#2145),#2138,.T.);
#2152=EDGE_CURVE('',#932,#934,#808,.T.);
#2155=EDGE_CURVE('',#908,#910,#816,.T.);
#2160=ADVANCED_FACE('',(#2159),#2151,.T.);
#2172=ADVANCED_FACE('',(#2171),#2165,.T.);
#2190=ADVANCED_FACE('',(#2183,#2189),#2177,.T.);
#2202=ADVANCED_FACE('',(#2201),#2195,.F.);
#2205=(LENGTH_UNIT()NAMED_UNIT(*)SI_UNIT(.MILLI.,.METRE.));
#2207=(NAMED_UNIT(*)PLANE_ANGLE_UNIT()SI_UNIT($,.RADIAN.));
#2210=(NAMED_UNIT(*)SI_UNIT($,.STERADIAN.)SOLID_ANGLE_UNIT());
#2212=(GEOMETRIC_REPRESENTATION_CONTEXT(3)GLOBAL_UNCERTAINTY_ASSIGNED_CONTEXT((
#2211))GLOBAL_UNIT_ASSIGNED_CONTEXT((#2205,#2209,#2210))REPRESENTATION_CONTEXT(
'ID1','3'));
#2213=ADVANCED_BREP_SHAPE_REPRESENTATION('',(#2204),#2212);
#2220=PRODUCT_DEFINITION('design','',#2219,#2216);
#2221=PRODUCT_DEFINITION_SHAPE('','SHAPE FOR SRR7032.',#2220);
#2222=SHAPE_DEFINITION_REPRESENTATION(#2221,#2213);
ENDSEC;
END-ISO-10303-21;
