(module "DIP-14_with_Socket_W7.62mm" (layer F.Cu) (tedit 5E472A95)
  (descr "14-lead though-hole mounted DIP package, row spacing 7.62 mm (300 mils), Socket")
  (tags "THT DIP DIL PDIP 2.54mm 7.62mm 300mil Socket")
  (fp_text reference "REF**" (at 3.81 -2.33) (layer F.SilkS)
    (effects (font (size 1 1) (thickness 0.15)))
  )
  (fp_text value "DIP-14_with_Socket_W7.62mm" (at 3.81 17.57) (layer F.Fab)
    (effects (font (size 1 1) (thickness 0.15)))
  )
  (fp_text user "%R" (at 3.81 7.62) (layer F.Fab)
    (effects (font (size 1 1) (thickness 0.15)))
  )
  (fp_line (start 9.15 -1.6) (end -1.55 -1.6) (layer F.CrtYd) (width 0.05))
  (fp_line (start 9.15 16.85) (end 9.15 -1.6) (layer F.CrtYd) (width 0.05))
  (fp_line (start -1.55 16.85) (end 9.15 16.85) (layer F.CrtYd) (width 0.05))
  (fp_line (start -1.55 -1.6) (end -1.55 16.85) (layer F.CrtYd) (width 0.05))
  (fp_line (start 8.95 -1.39) (end -1.33 -1.39) (layer F.SilkS) (width 0.12))
  (fp_line (start 8.95 16.63) (end 8.95 -1.39) (layer F.SilkS) (width 0.12))
  (fp_line (start -1.33 16.63) (end 8.95 16.63) (layer F.SilkS) (width 0.12))
  (fp_line (start -1.33 -1.39) (end -1.33 16.63) (layer F.SilkS) (width 0.12))
  (fp_line (start 6.46 -1.33) (end 4.81 -1.33) (layer F.SilkS) (width 0.12))
  (fp_line (start 6.46 16.57) (end 6.46 -1.33) (layer F.SilkS) (width 0.12))
  (fp_line (start 1.16 16.57) (end 6.46 16.57) (layer F.SilkS) (width 0.12))
  (fp_line (start 1.16 -1.33) (end 1.16 16.57) (layer F.SilkS) (width 0.12))
  (fp_line (start 2.81 -1.33) (end 1.16 -1.33) (layer F.SilkS) (width 0.12))
  (fp_line (start 8.89 -1.33) (end -1.27 -1.33) (layer F.Fab) (width 0.1))
  (fp_line (start 8.89 16.57) (end 8.89 -1.33) (layer F.Fab) (width 0.1))
  (fp_line (start -1.27 16.57) (end 8.89 16.57) (layer F.Fab) (width 0.1))
  (fp_line (start -1.27 -1.33) (end -1.27 16.57) (layer F.Fab) (width 0.1))
  (fp_line (start 0.635 -0.27) (end 1.635 -1.27) (layer F.Fab) (width 0.1))
  (fp_line (start 0.635 16.51) (end 0.635 -0.27) (layer F.Fab) (width 0.1))
  (fp_line (start 6.985 16.51) (end 0.635 16.51) (layer F.Fab) (width 0.1))
  (fp_line (start 6.985 -1.27) (end 6.985 16.51) (layer F.Fab) (width 0.1))
  (fp_line (start 1.635 -1.27) (end 6.985 -1.27) (layer F.Fab) (width 0.1))
  (fp_arc (start 3.81 -1.33) (end 2.81 -1.33) (angle -180) (layer F.SilkS) (width 0.12))
  (pad "1" thru_hole rect (at 0 0) (size 1.6 1.6) (drill 0.8) (layers *.Cu *.Mask))
  (pad "8" thru_hole oval (at 7.62 15.24) (size 1.6 1.6) (drill 0.8) (layers *.Cu *.Mask))
  (pad "2" thru_hole oval (at 0 2.54) (size 1.6 1.6) (drill 0.8) (layers *.Cu *.Mask))
  (pad "9" thru_hole oval (at 7.62 12.7) (size 1.6 1.6) (drill 0.8) (layers *.Cu *.Mask))
  (pad "3" thru_hole oval (at 0 5.08) (size 1.6 1.6) (drill 0.8) (layers *.Cu *.Mask))
  (pad "10" thru_hole oval (at 7.62 10.16) (size 1.6 1.6) (drill 0.8) (layers *.Cu *.Mask))
  (pad "4" thru_hole oval (at 0 7.62) (size 1.6 1.6) (drill 0.8) (layers *.Cu *.Mask))
  (pad "11" thru_hole oval (at 7.62 7.62) (size 1.6 1.6) (drill 0.8) (layers *.Cu *.Mask))
  (pad "5" thru_hole oval (at 0 10.16) (size 1.6 1.6) (drill 0.8) (layers *.Cu *.Mask))
  (pad "12" thru_hole oval (at 7.62 5.08) (size 1.6 1.6) (drill 0.8) (layers *.Cu *.Mask))
  (pad "6" thru_hole oval (at 0 12.7) (size 1.6 1.6) (drill 0.8) (layers *.Cu *.Mask))
  (pad "13" thru_hole oval (at 7.62 2.54) (size 1.6 1.6) (drill 0.8) (layers *.Cu *.Mask))
  (pad "7" thru_hole oval (at 0 15.24) (size 1.6 1.6) (drill 0.8) (layers *.Cu *.Mask))
  (pad "14" thru_hole oval (at 7.62 0) (size 1.6 1.6) (drill 0.8) (layers *.Cu *.Mask))
  (model "${KISYS3DMOD}/Package_DIP.3dshapes/DIP-14_W7.62mm_Socket.wrl"
    (at (xyz 0 0 0))
    (scale (xyz 1 1 1))
    (rotate (xyz 0 0 0))
  )
  (model "${KISYS3DMOD}/Package_DIP.3dshapes/DIP-14_W7.62mm.step"
    (offset (xyz 0 0 4))
    (scale (xyz 1 1 1))
    (rotate (xyz 0 0 0))
  )
)
