(module "LED_SMT_PLCC6x2_Module" (layer F.Cu) (tedit 5DDBFC5D)
  (fp_text reference "REF**" (at 5.5 -21 unlocked) (layer F.SilkS)
    (effects (font (size 1 1) (thickness 0.15)))
  )
  (fp_text value "LED_SMT_PLCC6x2_Module" (at 18 -20 unlocked) (layer F.Fab)
    (effects (font (size 1 1) (thickness 0.15)))
  )
)
