(footprint "microSD_PinHeader_1x07_P2.54mm_Vertical" (version 20201116) (generator pcbnew) (layer "F.Cu")
  (tedit 5FD373C6)
  (descr "Through hole straight pin header, 1x07, 2.54mm pitch, single row, SD_Breakout")
  (tags "Through hole pin header THT 1x07 2.54mm single row SD_Breakout")
  (property "Sheet file" "Vegas-PAM8302AASCR.kicad_sch")
  (property "Sheet name" "")
  (attr through_hole exclude_from_pos_files)
  (fp_text reference "J4" (at -2.823154 -0.103738 90) (layer "F.SilkS")
    (effects (font (size 1 1) (thickness 0.15)))
    (tstamp 4c9fc0d9-d4e8-4d7f-b608-627b183e27f9)
  )
  (fp_text value "SD_Breakout" (at 2.676846 8.646262 90) (layer "F.Fab")
    (effects (font (size 1 1) (thickness 0.15)))
    (tstamp 0d5c5c41-3744-43b5-b975-b896ebb21bb5)
  )
  (fp_text user "${REFERENCE}" (at 0 7.62 90) (layer "F.Fab")
    (effects (font (size 1 1) (thickness 0.15)))
    (tstamp 2567f2bd-9fad-4bcc-9227-451413bf951f)
  )
  (fp_line (start 1.33 1.27) (end 1.33 16.57) (layer "F.SilkS") (width 0.12) (tstamp 1b6a8ef5-8c15-4898-927f-be56a695f460))
  (fp_line (start -1.33 16.57) (end 1.33 16.57) (layer "F.SilkS") (width 0.12) (tstamp 2dda5361-4a9c-4694-a3c1-5d622b5909bf))
  (fp_line (start -1.33 0) (end -1.33 -1.33) (layer "F.SilkS") (width 0.12) (tstamp 4ef09f7e-5818-4517-a29f-129a57c3a71e))
  (fp_line (start -1.33 1.27) (end 1.33 1.27) (layer "F.SilkS") (width 0.12) (tstamp 9638db42-3027-4eb8-b4fe-0bbe73a684e3))
  (fp_line (start -1.33 1.27) (end -1.33 16.57) (layer "F.SilkS") (width 0.12) (tstamp f6d931fd-ef17-4185-99d5-d258dc701d2e))
  (fp_line (start -1.33 -1.33) (end 0 -1.33) (layer "F.SilkS") (width 0.12) (tstamp fe61d489-75ab-458f-8fdf-69823b50b832))
  (fp_line (start -1.8 17.05) (end 1.8 17.05) (layer "F.CrtYd") (width 0.05) (tstamp 26de35a4-322e-41c6-9fbd-9fb10646f3de))
  (fp_line (start 1.8 -1.8) (end -1.8 -1.8) (layer "F.CrtYd") (width 0.05) (tstamp 3066fc7e-91ec-4b8c-a433-16669db6d1dd))
  (fp_line (start 1.8 17.05) (end 1.8 -1.8) (layer "F.CrtYd") (width 0.05) (tstamp 4e66ff55-56ca-4a4a-98b2-7baf38070326))
  (fp_line (start -1.8 -1.8) (end -1.8 17.05) (layer "F.CrtYd") (width 0.05) (tstamp a35e1cfd-8515-4dc4-be1e-1c8b19f1db0b))
  (fp_line (start -1.27 -0.635) (end -0.635 -1.27) (layer "F.Fab") (width 0.1) (tstamp 2c185c9a-89f9-4f70-989a-26b3699ec58c))
  (fp_line (start -1.27 16.51) (end -1.27 -0.635) (layer "F.Fab") (width 0.1) (tstamp 3211944f-7e20-4945-9d39-fda843ac1028))
  (fp_line (start -0.635 -1.27) (end 1.27 -1.27) (layer "F.Fab") (width 0.1) (tstamp a59c948e-2d6e-4eb5-9d42-0fbd09cef616))
  (fp_line (start 1.27 -1.27) (end 1.27 16.51) (layer "F.Fab") (width 0.1) (tstamp c5f955f7-637c-46c2-914f-1e2a5129ae7e))
  (fp_line (start 1.27 16.51) (end -1.27 16.51) (layer "F.Fab") (width 0.1) (tstamp f4483905-9f37-4d03-9b39-a4380c7e47e2))
  (pad "1" thru_hole rect (at 0 0) (size 2.2 1.8) (drill 1) (property pad_prop_testpoint) (layers *.Cu *.Mask) (tstamp 187d1215-2af4-48fe-ac9e-3ebac1427b31))
  (pad "2" thru_hole oval (at 0 2.54) (size 2.2 1.8) (drill 1) (property pad_prop_testpoint) (layers *.Cu *.Mask) (tstamp 94191b50-53bd-4a01-93fa-f44078ccb1ab))
  (pad "4" thru_hole oval (at 0 7.62) (size 2.2 1.8) (drill 1) (property pad_prop_testpoint) (layers *.Cu *.Mask) (tstamp 6aa8c851-bb86-4d3f-aec2-c3cddfde660b))
  (pad "5" thru_hole oval (at 0 10.16) (size 2.2 1.8) (drill 1) (property pad_prop_testpoint) (layers *.Cu *.Mask) (tstamp 7b559947-c035-4b84-8e6f-69302bb77d81))
  (pad "6" thru_hole oval (at 0 12.7) (size 2.2 1.8) (drill 1) (property pad_prop_testpoint) (layers *.Cu *.Mask) (tstamp 25c86736-6969-4adf-881e-b7bbd012e3e6))
  (pad "7" thru_hole oval (at 0 15.24) (size 2.2 1.8) (drill 1) (property pad_prop_testpoint) (layers *.Cu *.Mask) (tstamp e56e29ce-48fa-42ed-9381-6589aafe3b6f))
  (model "${KISYS3DMOD}/Connector_PinHeader_2.54mm.3dshapes/PinHeader_1x07_P2.54mm_Vertical.wrl"
    (offset (xyz 0 0 0))
    (scale (xyz 1 1 1))
    (rotate (xyz 0 0 0))
  )
)
