(footprint "Optoisolator_CNY65B" (version 20210228) (generator pcbnew) (layer "F.Cu")
  (tedit 60526B70)
  (fp_text reference "REF**" (at -2 -10.25) (layer "F.SilkS")
    (effects (font (size 1 1) (thickness 0.15)))
    (tstamp b2732c64-9965-4088-becd-1ccebbf951e9)
  )
  (fp_text value "CNY65B" (at 0 0 270 unlocked) (layer "F.Fab")
    (effects (font (size 1 1) (thickness 0.15)))
    (tstamp 7de2a291-a015-43ff-b7d7-83b335901cc5)
  )
  (fp_text user "Coll" (at 2 7 270 unlocked) (layer "F.Fab")
    (effects (font (size 1 1) (thickness 0.15)))
    (tstamp 5c3075d8-bdd3-4382-a6ee-4bcdfa247e75)
  )
  (fp_text user "E" (at -2 7.5 270 unlocked) (layer "F.Fab")
    (effects (font (size 1 1) (thickness 0.15)))
    (tstamp a6608dc4-17f8-4f00-a50c-f48bbe715683)
  )
  (fp_text user "A" (at 2 -7.5 270 unlocked) (layer "F.Fab")
    (effects (font (size 1 1) (thickness 0.15)))
    (tstamp bd779bb8-cd6f-4962-8ca7-f5468a8659af)
  )
  (fp_text user "K" (at -2 -7.5 270 unlocked) (layer "F.Fab")
    (effects (font (size 1 1) (thickness 0.15)))
    (tstamp dae21604-e29d-45ab-baf9-b268a4a2db3b)
  )
  (fp_line (start -4.9 9) (end -4.9 -9) (layer "F.SilkS") (width 0.2) (tstamp 116e8697-110d-442e-9b6a-2d9b4ac44502))
  (fp_line (start -1.4 -6.4) (end -1.4 -8.9) (layer "F.SilkS") (width 0.12) (tstamp 3aa8217d-1add-48d4-bb27-2b9009e0cdd4))
  (fp_line (start 1.4 -6.4) (end 1.4 -8.8) (layer "F.SilkS") (width 0.12) (tstamp 59f4e2c2-74b3-4f6d-a88d-91906c7de8ef))
  (fp_line (start 4.9 -9) (end 4.9 9) (layer "F.SilkS") (width 0.2) (tstamp 64cbdb8e-8f44-41b0-9800-382dfb498d05))
  (fp_line (start -4.9 -9) (end 4.9 -9) (layer "F.SilkS") (width 0.2) (tstamp a9467d9b-15ad-4cd9-9f71-bec2c669937e))
  (fp_line (start 4.9 9) (end -4.9 9) (layer "F.SilkS") (width 0.2) (tstamp d9bdea19-c9ce-4192-8e47-56f8033238b1))
  (fp_arc (start 0 -6.4) (end -1.4 -6.4) (angle -180) (layer "F.SilkS") (width 0.1) (tstamp 319693e7-ea68-4738-a695-6ad3e2c8372b))
  (fp_circle (center -5.4 -8.4) (end -5.3 -8.4) (layer "F.SilkS") (width 0.2) (fill none) (tstamp 3258b4a2-0f58-489a-bb29-2e7dd474d55a))
  (fp_line (start -5 9.1) (end -5 -9.1) (layer "F.CrtYd") (width 0.05) (tstamp 5c38c0ad-9cdd-4f3a-b7ae-b11a84431a16))
  (fp_line (start 5 -9.1) (end 5 9.15) (layer "F.CrtYd") (width 0.05) (tstamp 6f1fa52e-1b39-44ec-852f-45090bd80b43))
  (fp_line (start 5 9.15) (end -5 9.1) (layer "F.CrtYd") (width 0.05) (tstamp 8c2afeed-c700-4813-b822-1e7d093ae079))
  (fp_line (start -5 -9.1) (end 5 -9.1) (layer "F.CrtYd") (width 0.05) (tstamp d9db8700-6caf-4414-a845-5a76b56ce3ae))
  (fp_line (start -1.4 -6.4) (end -1.4 -8.9) (layer "F.Fab") (width 0.12) (tstamp 46c86ffc-b6f9-4e26-9d8e-a10eed6f676b))
  (fp_line (start 1.4 -6.4) (end 1.4 -8.8) (layer "F.Fab") (width 0.12) (tstamp d0dca1a0-b83a-4b4f-861b-e17d37663b40))
  (fp_rect (start -4.8 -8.9) (end 4.8 8.9) (layer "F.Fab") (width 0.1) (fill none) (tstamp a1da854e-4efa-4c85-a19b-1e5dd225cd10))
  (fp_arc (start 0 -6.4) (end -1.4 -6.4) (angle -180) (layer "F.Fab") (width 0.1) (tstamp 20123890-67fa-4ff3-98c4-fc1f21d07b6f))
  (pad "1" thru_hole rect (at -3.81 -7.62) (size 1.9 2) (drill 1) (layers *.Cu *.Mask) (tstamp ac4ceb8a-f817-45d1-81a7-ce82db0d265e))
  (pad "2" thru_hole circle (at -3.81 7.62) (size 1.9 1.9) (drill 1) (layers *.Cu *.Mask) (tstamp 93d3ce48-3f43-4adf-896e-6094cda731f6))
  (pad "3" thru_hole circle (at 3.81 7.62) (size 1.9 1.9) (drill 1) (layers *.Cu *.Mask) (tstamp 159b2bd1-5113-4cdc-b6a4-1d659b234b09))
  (pad "4" thru_hole circle (at 3.81 -7.62) (size 1.9 1.9) (drill 1) (layers *.Cu *.Mask) (tstamp 657b192f-19c6-45a7-a7d7-c004bd3f6849))
  (model "${KISYSMINE}/MyPackages3D/Optoisolator_THT.3dshapes/CNY65B_TH.STEP"
    (offset (xyz 0 0 0))
    (scale (xyz 1 1 1))
    (rotate (xyz 0 0 -180))
  )
)
