(module "PCB_Proxxon_LED" locked (layer F.Cu) (tedit 5DDC40F5)
  (fp_text reference "PCB1" (at 4 -36 unlocked) (layer F.SilkS)
    (effects (font (size 1 1) (thickness 0.15)))
  )
  (fp_text value "PCB" (at 14 -36 unlocked) (layer F.Fab)
    (effects (font (size 1 1) (thickness 0.15)))
  )
  (fp_line (start 21 -35) (end 21 -24) (layer Dwgs.User) (width 0.12))
  (fp_line (start -21 -35) (end 21 -35) (layer Dwgs.User) (width 0.12))
  (fp_line (start -21 -24) (end -21 -35) (layer Dwgs.User) (width 0.12))
  (fp_line (start 14 24) (end 21 -24) (layer Dwgs.User) (width 0.12))
  (fp_line (start -15.5 14) (end -21 -24) (layer Dwgs.User) (width 0.12))
  (fp_line (start -14 14) (end -15.5 14) (layer Dwgs.User) (width 0.12))
  (fp_line (start -14 24) (end -14 14) (layer Dwgs.User) (width 0.12))
  (fp_line (start -14 24) (end 14 24) (layer Dwgs.User) (width 0.12))
  (fp_line (start 21 -24) (end -21 -24) (layer Dwgs.User) (width 0.12))
  (fp_line (start -21 -35) (end 21 -35) (layer F.SilkS) (width 0.12))
  (fp_line (start -21 -24) (end -21 -35) (layer F.SilkS) (width 0.12))
  (fp_line (start 21 -24) (end -21 -24) (layer F.SilkS) (width 0.12))
  (fp_line (start -15.5 14) (end -21 -24) (layer F.SilkS) (width 0.12))
  (fp_line (start -14 14) (end -15.5 14) (layer F.SilkS) (width 0.12))
  (fp_line (start -14 24) (end -14 14) (layer F.SilkS) (width 0.12))
  (fp_line (start -14 24) (end 14 24) (layer F.SilkS) (width 0.12))
  (fp_line (start 14 24) (end 21 -24) (layer F.SilkS) (width 0.12))
  (fp_line (start 21 -35) (end 21 -24) (layer F.SilkS) (width 0.12))
  (fp_line (start -21 -24) (end -21 -35) (layer B.SilkS) (width 0.12))
  (fp_line (start 21 -24) (end -21 -24) (layer B.SilkS) (width 0.12))
  (fp_line (start -15.5 14) (end -21 -24) (layer B.SilkS) (width 0.12))
  (fp_line (start -14 14) (end -15.5 14) (layer B.SilkS) (width 0.12))
  (fp_line (start -14 24) (end -14 14) (layer B.SilkS) (width 0.12))
  (fp_line (start -14 24) (end 14 24) (layer B.SilkS) (width 0.12))
  (fp_line (start 14 24) (end 21 -24) (layer B.SilkS) (width 0.12))
  (fp_line (start 21 -35) (end 21 -24) (layer B.SilkS) (width 0.12))
  (fp_line (start -21 -35) (end 21 -35) (layer B.SilkS) (width 0.12))
  (pad "" np_thru_hole circle (at 0 4) (size 22 22) (drill 22) (layers *.Cu *.Mask))
)
