(module "PCB_Linda_Microphone" (layer F.Cu) (tedit 5E08C9D9)
  (fp_text reference "REF**" (at 37.5 -25 unlocked) (layer F.SilkS)
    (effects (font (size 1 1) (thickness 0.15)))
  )
  (fp_text value "PCB_Linda_Microphone" (at 30 -27.5 unlocked) (layer F.Fab)
    (effects (font (size 1 1) (thickness 0.15)))
  )
  (fp_line (start -47.5 -55) (end 47.5 -55) (layer F.Fab) (width 0.12))
  (fp_line (start -27.5 55) (end 27.5 55) (layer F.Fab) (width 0.12))
  (fp_line (start 35 0) (end -35 0) (layer F.Fab) (width 0.12))
  (pad "" np_thru_hole circle (at -31 -46) (size 3 3) (drill 3) (layers *.Cu *.Mask))
  (pad "" np_thru_hole circle (at 31 -46) (size 3 3) (drill 3) (layers *.Cu *.Mask))
  (pad "" np_thru_hole circle (at -19.5 46) (size 3 3) (drill 3) (layers *.Cu *.Mask))
  (pad "" np_thru_hole circle (at 19.5 46) (size 3 3) (drill 3) (layers *.Cu *.Mask))
)
