(module PDIP-20 (layer F.Cu) (tedit 55C4D2BA)
  (fp_text reference IC1 (at -2.52 -3.81 90) (layer F.SilkS)
    (effects (font (size 1.5 1.5) (thickness 0.15)))
  )
  (fp_text value ATTINY2313-P (at 11.43 -3.81 180) (layer F.Fab)
    (effects (font (size 1.5 1.5) (thickness 0.15)))
  )
  (fp_circle (center -0.82 -1.46) (end -0.37 -1.51) (layer F.SilkS) (width 0.15))
  (fp_arc (start -2.37 -3.81) (end -1.52 -4.66) (angle 90) (layer F.SilkS) (width 0.15))
  (fp_line (start -1.562 -0.726) (end 24.422 -0.726) (layer F.SilkS) (width 0.15))
  (fp_line (start 24.422 -6.894) (end 24.422 -0.726) (layer F.SilkS) (width 0.15))
  (fp_line (start -1.562 -6.894) (end -1.562 -0.726) (layer F.SilkS) (width 0.15))
  (fp_line (start -1.562 -6.894) (end 24.422 -6.894) (layer F.SilkS) (width 0.15))
  (pad 1 thru_hole rect (at 0 0) (size 1.5 2) (drill 0.8) (layers *.Cu *.Mask F.SilkS))
  (pad 11 thru_hole oval (at 22.86 -7.62) (size 1.5 2) (drill 0.8) (layers *.Cu *.Mask F.SilkS))
  (pad 2 thru_hole oval (at 2.54 0) (size 1.5 2) (drill 0.8) (layers *.Cu *.Mask F.SilkS))
  (pad 3 thru_hole oval (at 5.08 0) (size 1.5 2) (drill 0.8) (layers *.Cu *.Mask F.SilkS))
  (pad 4 thru_hole oval (at 7.62 0) (size 1.5 2) (drill 0.8) (layers *.Cu *.Mask F.SilkS))
  (pad 5 thru_hole oval (at 10.16 0) (size 1.5 2) (drill 0.8) (layers *.Cu *.Mask F.SilkS))
  (pad 6 thru_hole oval (at 12.7 0) (size 1.5 2) (drill 0.8) (layers *.Cu *.Mask F.SilkS))
  (pad 7 thru_hole oval (at 15.24 0) (size 1.5 2) (drill 0.8) (layers *.Cu *.Mask F.SilkS))
  (pad 8 thru_hole oval (at 17.78 0) (size 1.5 2) (drill 0.8) (layers *.Cu *.Mask F.SilkS))
  (pad 9 thru_hole oval (at 20.32 0) (size 1.5 2) (drill 0.8) (layers *.Cu *.Mask F.SilkS))
  (pad 10 thru_hole oval (at 22.86 0) (size 1.5 2) (drill 0.8) (layers *.Cu *.Mask F.SilkS))
  (pad 12 thru_hole oval (at 20.32 -7.62 180) (size 1.5 2) (drill 0.8) (layers *.Cu *.Mask F.SilkS))
  (pad 13 thru_hole oval (at 17.78 -7.62 180) (size 1.5 2) (drill 0.8) (layers *.Cu *.Mask F.SilkS))
  (pad 14 thru_hole oval (at 15.24 -7.62 180) (size 1.5 2) (drill 0.8) (layers *.Cu *.Mask F.SilkS))
  (pad 15 thru_hole oval (at 12.7 -7.62 180) (size 1.5 2) (drill 0.8) (layers *.Cu *.Mask F.SilkS))
  (pad 16 thru_hole oval (at 10.16 -7.62 180) (size 1.5 2) (drill 0.8) (layers *.Cu *.Mask F.SilkS))
  (pad 17 thru_hole oval (at 7.62 -7.62 180) (size 1.5 2) (drill 0.8) (layers *.Cu *.Mask F.SilkS))
  (pad 18 thru_hole oval (at 5.08 -7.62 180) (size 1.5 2) (drill 0.8) (layers *.Cu *.Mask F.SilkS))
  (pad 19 thru_hole oval (at 2.54 -7.62 180) (size 1.5 2) (drill 0.8) (layers *.Cu *.Mask F.SilkS))
  (pad 20 thru_hole oval (at 0 -7.62 180) (size 1.5 2) (drill 0.8) (layers *.Cu *.Mask F.SilkS))
  (model Housings_DIP.3dshapes/DIP-20_W7.62mm.wrl
    (offset (xyz 0 0 0.5079999923706054))
    (scale (xyz 1 1 1))
    (rotate (xyz 0 0 270))
  )
)
