(module PIN_ARRAY_2X1 (layer F.Cu) (tedit 53503117)
  (descr "Connecteurs 2 pins")
  (tags "CONN DEV")
  (fp_text reference SW1 (at 0 -1.905) (layer F.SilkS)
    (effects (font (size 0.762 0.762) (thickness 0.1524)))
  )
  (fp_text value SPST (at 0 -1.905) (layer F.SilkS) hide
    (effects (font (size 0.762 0.762) (thickness 0.1524)))
  )
  (fp_line (start -2.54 1.27) (end -2.54 -1.27) (layer F.SilkS) (width 0.1524))
  (fp_line (start -2.54 -1.27) (end 2.54 -1.27) (layer F.SilkS) (width 0.1524))
  (fp_line (start 2.54 -1.27) (end 2.54 1.27) (layer F.SilkS) (width 0.1524))
  (fp_line (start 2.54 1.27) (end -2.54 1.27) (layer F.SilkS) (width 0.1524))
  (pad 1 thru_hole rect (at -1.27 0) (size 1.75 1.75) (drill 1) (layers *.Cu *.Mask F.SilkS))
  (pad 2 thru_hole circle (at 1.27 0) (size 1.75 1.75) (drill 1) (layers *.Cu *.Mask F.SilkS))
  (model pin_array/pins_array_2x1.wrl
    (at (xyz 0 0 0))
    (scale (xyz 1 1 1))
    (rotate (xyz 0 0 0))
  )
)
