(module POT-TRIM (layer F.Cu) (tedit 5BC7A553)
  (fp_text reference REF** (at 0 -5.2) (layer F.SilkS)
    (effects (font (size 1 1) (thickness 0.15)))
  )
  (fp_text value VAL** (at 0 5) (layer F.Fab)
    (effects (font (size 1 1) (thickness 0.15)))
  )
  (fp_text user %R (at 0 -5.2) (layer F.Fab)
    (effects (font (size 1 1) (thickness 0.15)))
  )
  (fp_line (start 0 -2) (end 0 2) (layer F.Fab) (width 0.15))
  (fp_line (start -2 0) (end 2 0) (layer F.Fab) (width 0.15))
  (fp_circle (center 0 0) (end 3.041381 0) (layer F.Fab) (width 0.15))
  (fp_line (start 3.5 1.1) (end 3.5 3.5) (layer F.SilkS) (width 0.15))
  (fp_line (start -2 -4) (end 2 -4) (layer F.SilkS) (width 0.15))
  (fp_line (start -3.5 1.2) (end -3.5 4) (layer F.SilkS) (width 0.15))
  (fp_line (start -2 -4) (end -3.5 -2.5) (layer F.SilkS) (width 0.15))
  (fp_line (start 2 -4) (end 3.5 -2.5) (layer F.SilkS) (width 0.15))
  (fp_line (start 3.5 4) (end -3.5 4) (layer F.SilkS) (width 0.15))
  (fp_line (start 3.5 4) (end 3.5 3.5) (layer F.SilkS) (width 0.15))
  (fp_line (start -2 -4) (end 2 -4) (layer F.Fab) (width 0.12))
  (fp_line (start 2 -4) (end 3.5 -2.5) (layer F.Fab) (width 0.12))
  (fp_line (start 3.5 -2.5) (end 3.5 4) (layer F.Fab) (width 0.12))
  (fp_line (start 3.5 4) (end -3.5 4) (layer F.Fab) (width 0.12))
  (fp_line (start -3.5 4) (end -3.5 -2.5) (layer F.Fab) (width 0.12))
  (fp_line (start -3.5 -2.5) (end -2 -4) (layer F.Fab) (width 0.12))
  (fp_line (start -3.75 -4.25) (end 3.75 -4.25) (layer F.CrtYd) (width 0.12))
  (fp_line (start 3.75 -4.25) (end 3.75 4.25) (layer F.CrtYd) (width 0.12))
  (fp_line (start 3.75 4.25) (end -3.75 4.25) (layer F.CrtYd) (width 0.12))
  (fp_line (start -3.75 4.25) (end -3.75 -4.25) (layer F.CrtYd) (width 0.12))
  (fp_line (start -3.5 -2.5) (end -3.5 -1.2) (layer F.SilkS) (width 0.15))
  (fp_line (start 3.5 -2.5) (end 3.5 -1.2) (layer F.SilkS) (width 0.15))
  (pad 1 thru_hole circle (at -2.5 0) (size 1.8 1.8) (drill 1) (layers *.Cu *.Mask))
  (pad 2 thru_hole circle (at 0 -2.5) (size 1.8 1.8) (drill 1) (layers *.Cu *.Mask))
  (pad 3 thru_hole circle (at 2.5 0) (size 1.8 1.8) (drill 1) (layers *.Cu *.Mask))
)
