(module POT-SMD-BOURNS-TC33X-2 (layer F.Cu) (tedit 52F92490)
  (fp_text reference POT-SMD-BOURNS-TC33X-2 (at 0.05 -4.1) (layer F.SilkS)
    (effects (font (size 1 1) (thickness 0.15)))
  )
  (fp_text value VAL** (at 0 4.35) (layer F.SilkS)
    (effects (font (size 1 1) (thickness 0.15)))
  )
  (fp_line (start 0 -1.55) (end 0 1.6) (layer F.SilkS) (width 0.15))
  (fp_line (start -1.6 0) (end 1.6 0) (layer F.SilkS) (width 0.15))
  (fp_circle (center 0 0) (end 1.6 0.05) (layer F.SilkS) (width 0.15))
  (fp_line (start -1.8 -1.9) (end 1.8 -1.9) (layer F.SilkS) (width 0.15))
  (fp_line (start 1.8 -1.9) (end 1.8 1.9) (layer F.SilkS) (width 0.15))
  (fp_line (start 1.8 1.9) (end -1.8 1.9) (layer F.SilkS) (width 0.15))
  (fp_line (start -1.8 1.9) (end -1.8 -1.9) (layer F.SilkS) (width 0.15))
  (pad 1 smd rect (at -1 1.8) (size 1.2 1.2) (layers F.Cu F.Paste F.Mask))
  (pad 2 smd rect (at 0 -1.45) (size 1.6 1.5) (layers F.Cu F.Paste F.Mask))
  (pad 3 smd rect (at 1 1.8) (size 1.2 1.2) (layers F.Cu F.Paste F.Mask))
)
