(module "Potentiometer_Runtron_RM-065_Vertical" (layer F.Cu) (tedit 5DCE34DA)
  (descr "Potentiometer, vertical, Trimmer, RM-065 http://www.runtron.com/down/PDF%20Datasheet/Carbon%20Film%20Potentiometer/RM065%20RM063.pdf")
  (tags "Potentiometer Trimmer RM-065")
  (fp_text reference "REF**" (at 2.54 -2.54 180) (layer F.SilkS)
    (effects (font (size 1 1) (thickness 0.15)))
  )
  (fp_text value "Potentiometer_Runtron_RM-065_Vertical" (at 2.6 7.4) (layer F.Fab)
    (effects (font (size 1 1) (thickness 0.15)))
  )
  (fp_line (start -0.71 -1.41) (end 0.71 -1.41) (layer F.SilkS) (width 0.12))
  (fp_line (start 0.71 -1.21) (end 4.29 -1.21) (layer F.SilkS) (width 0.12))
  (fp_line (start 4.29 -1.21) (end 4.29 -1.41) (layer F.SilkS) (width 0.12))
  (fp_line (start 4.29 -1.41) (end 5.71 -1.41) (layer F.SilkS) (width 0.12))
  (fp_line (start 5.71 -1.41) (end 5.71 -1.21) (layer F.SilkS) (width 0.12))
  (fp_line (start 1.99 5.81) (end 0.5 5.81) (layer F.SilkS) (width 0.12))
  (fp_line (start -0.81 4.5) (end -0.81 0.96) (layer F.SilkS) (width 0.12))
  (fp_line (start 5.81 0.52) (end 5.81 4.5) (layer F.SilkS) (width 0.12))
  (fp_line (start 4.5 5.81) (end 3.01 5.81) (layer F.SilkS) (width 0.12))
  (fp_line (start 0.5 5.7) (end 4.5 5.7) (layer F.Fab) (width 0.1))
  (fp_line (start 5.7 4.5) (end 5.7 -1.1) (layer F.Fab) (width 0.1))
  (fp_line (start -0.7 4.5) (end -0.7 -1.1) (layer F.Fab) (width 0.1))
  (fp_line (start -0.6 -1.1) (end -0.6 -1.3) (layer F.Fab) (width 0.1))
  (fp_line (start -0.6 -1.3) (end 0.6 -1.3) (layer F.Fab) (width 0.1))
  (fp_line (start 0.6 -1.3) (end 0.6 -1.1) (layer F.Fab) (width 0.1))
  (fp_line (start 5.6 -1.1) (end 5.6 -1.3) (layer F.Fab) (width 0.1))
  (fp_line (start 5.6 -1.3) (end 4.41 -1.3) (layer F.Fab) (width 0.1))
  (fp_line (start 4.4 -1.3) (end 4.4 -1.1) (layer F.Fab) (width 0.1))
  (fp_line (start 5.7 -1.1) (end -0.7 -1.1) (layer F.Fab) (width 0.1))
  (fp_line (start 6.03 6.05) (end -1.03 6.05) (layer F.CrtYd) (width 0.05))
  (fp_line (start 6.03 6.05) (end 6.03 -1.55) (layer F.CrtYd) (width 0.05))
  (fp_line (start -1.03 -1.55) (end -1.03 6.05) (layer F.CrtYd) (width 0.05))
  (fp_line (start -1.03 -1.55) (end 6.03 -1.55) (layer F.CrtYd) (width 0.05))
  (fp_circle (center 2.5 2.5) (end 5.5 2.5) (layer F.Fab) (width 0.1))
  (fp_arc (start 4.5 4.5) (end 4.5 5.7) (angle -90) (layer F.Fab) (width 0.1))
  (fp_arc (start 0.5 4.5) (end -0.7 4.5) (angle -90) (layer F.Fab) (width 0.1))
  (fp_arc (start 0.5 4.5) (end -0.81 4.5) (angle -90) (layer F.SilkS) (width 0.12))
  (fp_arc (start 4.5 4.5) (end 4.5 5.81) (angle -90) (layer F.SilkS) (width 0.12))
  (fp_line (start 0.71 -1.21) (end 0.71 -1.41) (layer F.SilkS) (width 0.12))
  (fp_line (start -0.71 -1.41) (end -0.71 -1.21) (layer F.SilkS) (width 0.12))
  (fp_line (start -0.71 -1.21) (end -0.81 -1.21) (layer F.SilkS) (width 0.12))
  (fp_line (start -0.81 -1.21) (end -0.81 -0.96) (layer F.SilkS) (width 0.12))
  (fp_line (start 5.71 -1.21) (end 5.81 -1.21) (layer F.SilkS) (width 0.12))
  (fp_line (start 5.81 -1.21) (end 5.81 -0.52) (layer F.SilkS) (width 0.12))
  (pad "2" thru_hole circle (at 2.5 5) (size 1.55 1.55) (drill 1) (layers *.Cu *.Mask))
  (pad "1" thru_hole rect (at 0 0) (size 1.55 1.55) (drill 1) (layers *.Cu *.Mask))
  (pad "3" thru_hole circle (at 5 0) (size 1.55 1.55) (drill 1) (layers *.Cu *.Mask))
  (model "${KISYSMINE}/MyPackages3D/Potentiometer_THT.3dshapes/Potentiometer_Runtron_RM-065_Vertical.stp"
    (offset (xyz 5.87 2.5 3.5))
    (scale (xyz 1 1 1))
    (rotate (xyz -90 0 -180))
  )
)
