(module QFN20-MLF20-MO-220 (layer F.Cu) (tedit 52684142)
  (fp_text reference QFN20-MLF20-MO-220 (at -0.02 -3.04) (layer F.SilkS)
    (effects (font (size 1 1) (thickness 0.15)))
  )
  (fp_text value VAL** (at 0.01 3.2) (layer F.SilkS)
    (effects (font (size 1 1) (thickness 0.15)))
  )
  (fp_line (start 2 2) (end -2 2) (layer F.SilkS) (width 0.1))
  (fp_circle (center -1.74 -1.74) (end -1.66 -1.66) (layer F.SilkS) (width 0.1))
  (fp_line (start -2 -2) (end 2 -1.99) (layer F.SilkS) (width 0.1))
  (fp_line (start 2 -1.99) (end 2 2) (layer F.SilkS) (width 0.1))
  (fp_line (start -2 2) (end -2 -2) (layer F.SilkS) (width 0.1))
  (pad 20 smd oval (at -1 -1.72) (size 0.3 0.55) (layers F.Cu F.Paste F.Mask)
    (clearance 0.09))
  (pad 8 smd rect (at 0 0) (size 2.75 2.75) (layers F.Cu F.Paste F.Mask)
    (clearance 0.05))
  (pad 18 smd oval (at 0 -1.72) (size 0.3 0.55) (layers F.Cu F.Paste F.Mask)
    (clearance 0.099))
  (pad 19 smd oval (at -0.5 -1.72) (size 0.3 0.55) (layers F.Cu F.Paste F.Mask)
    (clearance 0.099))
  (pad 17 smd oval (at 0.5 -1.72) (size 0.3 0.55) (layers F.Cu F.Paste F.Mask)
    (clearance 0.099))
  (pad 16 smd oval (at 1 -1.72) (size 0.3 0.55) (layers F.Cu F.Paste F.Mask)
    (clearance 0.099))
  (pad 8 smd oval (at 0 1.72) (size 0.3 0.55) (layers F.Cu F.Paste F.Mask)
    (clearance 0.099))
  (pad 9 smd oval (at 0.5 1.72) (size 0.3 0.55) (layers F.Cu F.Paste F.Mask)
    (clearance 0.099))
  (pad 10 smd oval (at 1 1.72) (size 0.3 0.55) (layers F.Cu F.Paste F.Mask)
    (clearance 0.099))
  (pad 7 smd oval (at -0.5 1.72) (size 0.3 0.55) (layers F.Cu F.Paste F.Mask)
    (clearance 0.099))
  (pad 6 smd oval (at -1 1.72) (size 0.3 0.55) (layers F.Cu F.Paste F.Mask)
    (clearance 0.099))
  (pad 3 smd oval (at -1.72 0) (size 0.55 0.3) (layers F.Cu F.Paste F.Mask)
    (clearance 0.099))
  (pad 2 smd oval (at -1.72 -0.5) (size 0.55 0.3) (layers F.Cu F.Paste F.Mask)
    (clearance 0.099))
  (pad 4 smd oval (at -1.72 0.5) (size 0.55 0.3) (layers F.Cu F.Paste F.Mask)
    (clearance 0.099))
  (pad 5 smd oval (at -1.72 1) (size 0.55 0.3) (layers F.Cu F.Paste F.Mask)
    (clearance 0.099))
  (pad 1 smd oval (at -1.72 -1) (size 0.55 0.3) (layers F.Cu F.Paste F.Mask)
    (clearance 0.099))
  (pad 11 smd oval (at 1.72 1) (size 0.55 0.3) (layers F.Cu F.Paste F.Mask)
    (clearance 0.099))
  (pad 12 smd oval (at 1.72 0.5) (size 0.55 0.3) (layers F.Cu F.Paste F.Mask)
    (clearance 0.099))
  (pad 13 smd oval (at 1.72 0) (size 0.55 0.3) (layers F.Cu F.Paste F.Mask)
    (clearance 0.099))
  (pad 14 smd oval (at 1.72 -0.5) (size 0.55 0.3) (layers F.Cu F.Paste F.Mask)
    (clearance 0.099))
  (pad 15 smd oval (at 1.72 -1) (size 0.55 0.3) (layers F.Cu F.Paste F.Mask)
    (clearance 0.099))
)
