(footprint "Socket_microSD_HRS_DM3D-SF" (version 20201116) (generator pcbnew) (layer "F.Cu")
  (tedit 5FD28E58)
  (descr "Micro SD card holder")
  (fp_text reference "REF**" (at -3.175 -12.065) (layer "F.SilkS")
    (effects (font (size 1 1) (thickness 0.015)))
    (tstamp 4cb99a60-244e-4f52-bbfc-cd7914ba47b3)
  )
  (fp_text value "HRS_DM3D-SF" (at 0.635 1.905) (layer "F.Fab")
    (effects (font (size 1 1) (thickness 0.015)))
    (tstamp 5f3b0265-c6b7-42eb-833f-22a5bddbd03b)
  )
  (fp_line (start -5.95 -11.075) (end 4.7 -11.075) (layer "F.SilkS") (width 0.127) (tstamp 5a17fd91-2ddf-4629-b074-5395dab19b5d))
  (fp_line (start -5.95 -6.6) (end -5.95 -1.3) (layer "F.SilkS") (width 0.127) (tstamp 5a5b3fe2-7f3a-4cb7-b169-8a00865c745d))
  (fp_line (start -5.95 -11.075) (end -5.95 -10.15) (layer "F.SilkS") (width 0.127) (tstamp 850acae1-142f-4a75-8e80-45a2136ef7f3))
  (fp_line (start 6 -7.25) (end 6 -1.3) (layer "F.SilkS") (width 0.127) (tstamp fc8404b8-329d-40e1-b2ac-6f2e8c26d789))
  (fp_circle (center 3.4 1.4) (end 3.5 1.4) (layer "F.SilkS") (width 0.2) (fill none) (tstamp 88420161-d288-4902-b05e-b22533f89e48))
  (fp_poly (pts (xy -4.9 -6.875)
    (xy 3.6 -6.875)
    (xy 3.6 -4.875)
    (xy -4.9 -4.875)) (layer "Dwgs.User") (width 0.01) (fill solid) (tstamp 72fb10a3-93d0-4754-9e84-d7f36faaec43))
  (fp_poly (pts (xy -4.9 -6.875)
    (xy 3.6 -6.875)
    (xy 3.6 -4.875)
    (xy -4.9 -4.875)) (layer "Dwgs.User") (width 0.01) (fill solid) (tstamp 7657ad46-18e9-4ad7-9ba8-48ace29a5323))
  (fp_poly (pts (xy -1.95 -11.075)
    (xy 0.55 -11.075)
    (xy 0.55 -9.075)
    (xy -1.95 -9.075)) (layer "Dwgs.User") (width 0.01) (fill solid) (tstamp d84ccfb8-411d-4d53-a050-5ab81f255377))
  (fp_poly (pts (xy -1.95 -11.075)
    (xy 0.55 -11.075)
    (xy 0.55 -9.075)
    (xy -1.95 -9.075)) (layer "Dwgs.User") (width 0.01) (fill solid) (tstamp e9236477-a830-4394-9fc4-ffb165be9220))
  (fp_line (start 4.85 -11.325) (end 4.85 -11.825) (layer "F.CrtYd") (width 0.05) (tstamp 06586723-a3e9-479d-b9a0-9eb25bcf3f89))
  (fp_line (start 4.85 -11.825) (end 6.65 -11.825) (layer "F.CrtYd") (width 0.05) (tstamp 0e3e54c2-70c5-4bff-8225-771155e939f3))
  (fp_line (start 6.65 -11.825) (end 6.65 1.125) (layer "F.CrtYd") (width 0.05) (tstamp 1b43db42-3125-47bc-b0d2-c15f6a4d8799))
  (fp_line (start -6.6 -11.325) (end 4.85 -11.325) (layer "F.CrtYd") (width 0.05) (tstamp 769f04d9-11b6-494e-b680-cccc6a0bff8c))
  (fp_line (start 6.65 1.125) (end -6.6 1.125) (layer "F.CrtYd") (width 0.05) (tstamp bd452f39-5ab4-4f4c-9212-6ac305b3fad4))
  (fp_line (start -6.6 1.125) (end -6.6 -11.325) (layer "F.CrtYd") (width 0.05) (tstamp ef03ab64-3602-440b-8b46-01aa6ebe9bba))
  (fp_line (start -5.95 -11.075) (end -5.95 0.375) (layer "F.Fab") (width 0.127) (tstamp 30ccd452-ad3f-41ec-a600-930723597060))
  (fp_line (start 6 -11.075) (end -5.95 -11.075) (layer "F.Fab") (width 0.127) (tstamp 3e974b05-4dd0-48f4-ba29-fcf29c4985af))
  (fp_line (start 6 0.375) (end 6 -11.075) (layer "F.Fab") (width 0.127) (tstamp 7e4fa51d-f860-41cf-8d26-8c10cf84ea32))
  (fp_line (start -5.95 0.375) (end 6 0.375) (layer "F.Fab") (width 0.127) (tstamp d3be418e-db02-4916-a71f-992b90bdf013))
  (fp_circle (center 3.4 1.4) (end 3.5 1.4) (layer "F.Fab") (width 0.2) (fill none) (tstamp c34fe84f-ab4e-4339-acff-c010d1f8e20f))
  (pad "1" smd rect (at 3.2 0) (size 0.8 1.75) (layers "F.Cu" "F.Paste" "F.Mask") (tstamp 9ccf7093-d8e7-4863-b475-50664cca2444))
  (pad "2" smd rect (at 2.1 0) (size 0.8 1.75) (layers "F.Cu" "F.Paste" "F.Mask") (tstamp 886e724c-badc-4a9b-a962-58cd184c52e0))
  (pad "3" smd rect (at 1 0) (size 0.8 1.75) (layers "F.Cu" "F.Paste" "F.Mask") (tstamp 086fbab5-e30a-4048-b16e-58661ba8f3d7))
  (pad "4" smd rect (at -0.1 0) (size 0.8 1.75) (layers "F.Cu" "F.Paste" "F.Mask") (tstamp a9cec3f7-314b-402b-8533-e536ccd536c6))
  (pad "5" smd rect (at -1.2 0) (size 0.8 1.75) (layers "F.Cu" "F.Paste" "F.Mask") (tstamp 29761579-5a6f-4b30-96f6-7e6f9fa63661))
  (pad "6" smd rect (at -2.3 0) (size 0.8 1.75) (layers "F.Cu" "F.Paste" "F.Mask") (tstamp a0361496-c586-48cc-ae77-08c56c52a51c))
  (pad "7" smd rect (at -3.4 0) (size 0.8 1.75) (layers "F.Cu" "F.Paste" "F.Mask") (tstamp f93c217b-0c9d-4485-b90b-654437d3624c))
  (pad "8" smd rect (at -4.5 0) (size 0.8 1.75) (layers "F.Cu" "F.Paste" "F.Mask") (tstamp 83eb5dbd-5f60-441e-9fee-45065d81beb5))
  (pad "S1" smd rect (at -5.7 -0.125) (size 1.3 1.5) (layers "F.Cu" "F.Paste" "F.Mask") (tstamp 9b98b567-d000-4065-bad0-faf8c7a10ebd))
  (pad "S2" smd rect (at 5.65 -0.125) (size 1.5 1.5) (layers "F.Cu" "F.Paste" "F.Mask") (tstamp 12091202-411b-4b23-b884-d44d2760ed80))
  (pad "S3" smd rect (at -5.95 -7.725) (size 0.8 1.5) (layers "F.Cu" "F.Paste" "F.Mask") (tstamp f086d647-fefc-45f2-a996-dd59b498e593))
  (pad "S4" smd rect (at 6 -8.375) (size 0.8 1.4) (layers "F.Cu" "F.Paste" "F.Mask") (tstamp 45342405-4b1e-4b7c-9235-0159cfc91087))
  (pad "SWA" smd rect (at 5.6 -10.8) (size 1 1.55) (layers "F.Cu" "F.Paste" "F.Mask") (tstamp 721b75ad-648f-44c4-8a52-a979e5608d74))
  (pad "SWB" smd rect (at -5.625 -9.225) (size 1.45 1) (layers "F.Cu" "F.Paste" "F.Mask") (tstamp 9a8a531c-2e15-44c0-9564-e92f317e177f))
)
