(module SOIC-14 (layer F.Cu) (tedit 55C4E1D2)
  (fp_text reference REF** (at -6.09 0.02 90) (layer F.SilkS)
    (effects (font (size 1.5 1.5) (thickness 0.15)))
  )
  (fp_text value SOIC-14 (at 1.17 0.02) (layer F.Fab)
    (effects (font (size 1.5 1.5) (thickness 0.15)))
  )
  (fp_arc (start -4.89 -0.03) (end -4.32 -0.6) (angle 90) (layer F.SilkS) (width 0.15))
  (fp_circle (center -4.79 2.4) (end -4.48 2.43) (layer F.SilkS) (width 0.15))
  (fp_line (start 4.4375 2) (end 4.4375 -2) (layer F.SilkS) (width 0.15))
  (fp_line (start -4.4375 -2) (end -4.4375 2) (layer F.SilkS) (width 0.15))
  (fp_line (start -4.4375 -2) (end 4.4375 -2) (layer F.SilkS) (width 0.15))
  (fp_line (start -4.4375 2) (end 4.4375 2) (layer F.SilkS) (width 0.15))
  (pad 1 smd oval (at -3.81 2.8 180) (size 0.65 1.7) (layers F.Cu F.Paste F.Mask))
  (pad 8 smd oval (at 3.81 -2.8 180) (size 0.65 1.7) (layers F.Cu F.Paste F.Mask))
  (pad 9 smd oval (at 2.54 -2.8 180) (size 0.65 1.7) (layers F.Cu F.Paste F.Mask))
  (pad 10 smd oval (at 1.27 -2.8 180) (size 0.65 1.7) (layers F.Cu F.Paste F.Mask))
  (pad 11 smd oval (at 0 -2.8 180) (size 0.65 1.7) (layers F.Cu F.Paste F.Mask))
  (pad 12 smd oval (at -1.27 -2.8 180) (size 0.65 1.7) (layers F.Cu F.Paste F.Mask))
  (pad 13 smd oval (at -2.54 -2.8 180) (size 0.65 1.7) (layers F.Cu F.Paste F.Mask))
  (pad 14 smd oval (at -3.81 -2.8 180) (size 0.65 1.7) (layers F.Cu F.Paste F.Mask))
  (pad 2 smd oval (at -2.54 2.8 180) (size 0.65 1.7) (layers F.Cu F.Paste F.Mask))
  (pad 3 smd oval (at -1.27 2.8 180) (size 0.65 1.7) (layers F.Cu F.Paste F.Mask))
  (pad 4 smd oval (at 0 2.8 180) (size 0.65 1.7) (layers F.Cu F.Paste F.Mask))
  (pad 5 smd oval (at 1.27 2.8 180) (size 0.65 1.7) (layers F.Cu F.Paste F.Mask))
  (pad 6 smd oval (at 2.54 2.8 180) (size 0.65 1.7) (layers F.Cu F.Paste F.Mask))
  (pad 7 smd oval (at 3.81 2.8 180) (size 0.65 1.7) (layers F.Cu F.Paste F.Mask))
  (model Housings_SOIC.3dshapes/SOIC-14_3.9x8.7mm_Pitch1.27mm.wrl
    (at (xyz 0 0 0))
    (scale (xyz 1 1 1))
    (rotate (xyz 0 0 270))
  )
)
