(module "SW_THT_Toggle_MTS-103_100SP3T1B1M2QEH" (layer F.Cu) (tedit 5DCC832D)
  (descr "MTS-103 switch SPDT ON-OFF-ON 100SP3T1B1M2QEH")
  (tags "MTS-103 switch SPDT ON-OFF-ON 100SP3T1B1M2QEH")
  (fp_text reference "REF**" (at 0 4.8 180) (layer F.SilkS)
    (effects (font (size 1 1) (thickness 0.15)))
  )
  (fp_text value "SPDT" (at 0 -4.5 180) (layer F.Fab)
    (effects (font (size 1 1) (thickness 0.15)))
  )
  (fp_line (start 6.35 3.43) (end -6.35 3.43) (layer F.SilkS) (width 0.15))
  (fp_line (start 6.35 -3.43) (end -6.35 -3.43) (layer F.SilkS) (width 0.15))
  (fp_line (start 6.35 -3.43) (end 6.35 3.43) (layer F.SilkS) (width 0.15))
  (fp_line (start -6.35 -3.43) (end -6.35 3.43) (layer F.SilkS) (width 0.15))
  (fp_circle (center 0 0) (end -3.43 -0.18) (layer F.SilkS) (width 0.15))
  (fp_line (start 3.4 -0.68) (end 2.65 -0.68) (layer F.SilkS) (width 0.15))
  (fp_line (start 2.65 -0.68) (end 2.65 0.57) (layer F.SilkS) (width 0.15))
  (fp_line (start 2.65 0.57) (end 3.4 0.57) (layer F.SilkS) (width 0.15))
  (fp_line (start -6.75 -3.75) (end 6.75 -3.75) (layer F.CrtYd) (width 0.05))
  (fp_line (start 6.75 -3.75) (end 6.75 3.75) (layer F.CrtYd) (width 0.05))
  (fp_line (start 6.75 3.75) (end -6.75 3.75) (layer F.CrtYd) (width 0.05))
  (fp_line (start -6.75 3.75) (end -6.75 -3.75) (layer F.CrtYd) (width 0.05))
  (fp_circle (center 0 0) (end 3.5 0) (layer F.CrtYd) (width 0.05))
  (fp_line (start 6.35 -3.4) (end -6.35 -3.4) (layer F.Fab) (width 0.15))
  (fp_line (start 6.35 -3.43) (end 6.35 3.43) (layer F.Fab) (width 0.15))
  (fp_line (start 6.35 3.43) (end -6.35 3.43) (layer F.Fab) (width 0.15))
  (fp_circle (center 0 0) (end 3.43472 0) (layer F.Fab) (width 0.15))
  (fp_line (start -6.35 -3.43) (end -6.35 3.43) (layer F.Fab) (width 0.15))
  (fp_line (start 2.65 -0.68) (end 2.65 0.57) (layer F.Fab) (width 0.15))
  (fp_line (start 3.4 -0.68) (end 2.65 -0.68) (layer F.Fab) (width 0.15))
  (fp_line (start 2.65 0.57) (end 3.4 0.57) (layer F.Fab) (width 0.15))
  (pad "3" thru_hole circle (at 4.7 0 90) (size 3.5 3.5) (drill oval 1.8 1.2) (layers *.Cu *.Mask))
  (pad "2" thru_hole circle (at 0 0 90) (size 3.5 3.5) (drill oval 1.8 1.2) (layers *.Cu *.Mask))
  (pad "1" thru_hole circle (at -4.7 0 90) (size 3.5 3.5) (drill oval 1.8 1.2) (layers *.Cu *.Mask))
  (model "${KISYSMINE}/MyPackages3D/Switch_THT.3dshapes/100SPxT1B1M2xE.stp"
    (offset (xyz 0 0 8))
    (scale (xyz 1 1 1))
    (rotate (xyz 0 0 180))
  )
)
