(footprint "TE_280390-1" (version 20210228) (generator pcbnew) (layer "F.Cu")
  (tedit 607FF44A)
  (attr through_hole)
  (fp_text reference "REF**" (at -0.385 -3.345) (layer "F.SilkS")
    (effects (font (size 1 1) (thickness 0.15)))
    (tstamp 1bb43f18-2767-41c9-9e22-c56f874a2ca7)
  )
  (fp_text value "TE_280390-1" (at 3.425 17.555) (layer "F.Fab")
    (effects (font (size 0.75 0.75) (thickness 0.15)))
    (tstamp d06aa087-c781-4f64-8fd1-79081ffed4cb)
  )
  (fp_text user "${REFERENCE}" (at 0 0) (layer "F.Fab")
    (effects (font (size 1 1) (thickness 0.15)))
    (tstamp d6ec70de-ae68-4795-910b-bffb5ea32583)
  )
  (fp_line (start -2.56 15.94) (end -2.56 -1.46) (layer "F.SilkS") (width 0.127) (tstamp 3646e2d3-d6d2-43a8-ac87-13257a03f151))
  (fp_line (start 20.34 15.94) (end -2.56 15.94) (layer "F.SilkS") (width 0.127) (tstamp 8d853a7f-ce34-42ed-8011-d1dda1883eb4))
  (fp_line (start 20.34 -1.46) (end 20.34 15.94) (layer "F.SilkS") (width 0.127) (tstamp a0e497c1-3199-4749-958d-14af1d72e5b8))
  (fp_line (start 20.34 -1.46) (end -2.56 -1.46) (layer "F.SilkS") (width 0.127) (tstamp be3b7f95-28da-43b4-a107-52a422e54dab))
  (fp_circle (center -3.21 0) (end -3.11 0) (layer "F.SilkS") (width 0.2) (fill none) (tstamp 0f6ce444-9ca2-4a61-a7f4-dbc75486e67e))
  (fp_line (start -2.81 16.19) (end -2.81 -1.71) (layer "F.CrtYd") (width 0.05) (tstamp 21c75f05-efaa-4084-ab6a-ada58705c0b6))
  (fp_line (start -2.81 -1.71) (end 20.59 -1.71) (layer "F.CrtYd") (width 0.05) (tstamp 5cec6ccf-5d0c-41a7-8052-9ecce6353de8))
  (fp_line (start 20.59 -1.71) (end 20.59 16.19) (layer "F.CrtYd") (width 0.05) (tstamp 654836d6-6d32-4d1a-a97b-d5d31fad6edd))
  (fp_line (start 20.59 16.19) (end -2.81 16.19) (layer "F.CrtYd") (width 0.05) (tstamp bdf399a7-600f-499f-8ea5-eaceb2e90a2e))
  (fp_line (start -2.56 -1.46) (end 20.34 -1.46) (layer "F.Fab") (width 0.127) (tstamp 049b51d1-3d47-4844-81c0-eb6e9d737437))
  (fp_line (start 20.34 15.94) (end 20.34 15.94) (layer "F.Fab") (width 0.127) (tstamp 24cec14f-015d-4ec7-a811-47d7de013fa4))
  (fp_line (start 20.34 -1.46) (end 20.34 15.94) (layer "F.Fab") (width 0.127) (tstamp 6548d1ab-9958-46d7-8bcb-d892b7cfaa1b))
  (fp_line (start -2.56 15.94) (end -2.56 15.94) (layer "F.Fab") (width 0.127) (tstamp 6594a91f-acd1-4ddd-81b1-c389108b02b0))
  (fp_line (start -2.56 15.94) (end -2.56 -1.46) (layer "F.Fab") (width 0.127) (tstamp 6d899520-f854-44ca-a3d6-3397a99c9c27))
  (fp_line (start 20.34 15.94) (end -2.56 15.94) (layer "F.Fab") (width 0.127) (tstamp 936f6c56-0f73-4bf7-b023-75c1e786a9fe))
  (fp_line (start -2.56 15.94) (end 20.34 15.94) (layer "F.Fab") (width 0.127) (tstamp d9c18cb2-b215-4e37-a6dd-9611cf3f8856))
  (fp_circle (center -3.21 0) (end -3.11 0) (layer "F.Fab") (width 0.2) (fill none) (tstamp 39036b43-268a-4bc3-88a9-dae48b3210f0))
  (pad "1" thru_hole rect (at 0 0) (size 1.39 1.39) (drill 1.04) (layers *.Cu *.Mask) (tstamp 229b1cce-0267-4332-9941-825e1809d247))
  (pad "2" thru_hole circle (at 0 2.54) (size 1.39 1.39) (drill 1.04) (layers *.Cu *.Mask) (tstamp c232844d-d68e-4f52-82f1-2b8d6ac882a5))
  (pad "3" thru_hole circle (at 2.54 0) (size 1.39 1.39) (drill 1.04) (layers *.Cu *.Mask) (tstamp 85f7cccd-0521-4e1c-a5bb-a34deebab267))
  (pad "4" thru_hole circle (at 2.54 2.54) (size 1.39 1.39) (drill 1.04) (layers *.Cu *.Mask) (tstamp df68ed0e-019a-4170-876c-f636814c023c))
  (pad "5" thru_hole circle (at 5.08 0) (size 1.39 1.39) (drill 1.04) (layers *.Cu *.Mask) (tstamp 4bafd8ed-aab6-463b-b532-d1b9d1f85010))
  (pad "6" thru_hole circle (at 5.08 2.54) (size 1.39 1.39) (drill 1.04) (layers *.Cu *.Mask) (tstamp 7b502ae5-0ab5-402a-9b4f-ec617b01678b))
  (pad "7" thru_hole circle (at 7.62 0) (size 1.39 1.39) (drill 1.04) (layers *.Cu *.Mask) (tstamp 047c8fa2-5100-42e2-8547-f3e9c2ac13fc))
  (pad "8" thru_hole circle (at 7.62 2.54) (size 1.39 1.39) (drill 1.04) (layers *.Cu *.Mask) (tstamp d8e8fef2-c707-4d36-8479-72476466a007))
  (pad "9" thru_hole circle (at 10.16 0) (size 1.39 1.39) (drill 1.04) (layers *.Cu *.Mask) (tstamp 31c674a4-ef33-41d2-864d-7936d66622fa))
  (pad "10" thru_hole circle (at 10.16 2.54) (size 1.39 1.39) (drill 1.04) (layers *.Cu *.Mask) (tstamp a2a3b509-bbbf-41be-83c8-786c20dd95c5))
  (pad "11" thru_hole circle (at 12.7 0) (size 1.39 1.39) (drill 1.04) (layers *.Cu *.Mask) (tstamp c414703b-310c-4868-871b-10e8745300fb))
  (pad "12" thru_hole circle (at 12.7 2.54) (size 1.39 1.39) (drill 1.04) (layers *.Cu *.Mask) (tstamp fdb53d19-c99f-4a72-96f6-ea9a1f88fb40))
  (pad "13" thru_hole circle (at 15.24 0) (size 1.39 1.39) (drill 1.04) (layers *.Cu *.Mask) (tstamp be094b4f-a077-4611-a470-e8969cf820e2))
  (pad "14" thru_hole circle (at 15.24 2.54) (size 1.39 1.39) (drill 1.04) (layers *.Cu *.Mask) (tstamp 41b8683d-3de6-46b7-8411-ea986ec5c966))
  (pad "15" thru_hole circle (at 17.78 0) (size 1.39 1.39) (drill 1.04) (layers *.Cu *.Mask) (tstamp d4c88f2c-7866-41db-8362-a8028cbc8c3c))
  (pad "16" thru_hole circle (at 17.78 2.54) (size 1.39 1.39) (drill 1.04) (layers *.Cu *.Mask) (tstamp 451ddc36-18e7-4993-8607-8463af4c4ceb))
  (model "${KISYSMINE}/MyPackages3D/Connector.3dshapes/c-280390-1-ab-3d.igs"
    (offset (xyz 8.9 -16 3.6))
    (scale (xyz 1 1 1))
    (rotate (xyz 90 180 180))
  )
)
