(footprint "TE_280377-2" (version 20210228) (generator pcbnew) (layer "F.Cu")
  (tedit 607FF374)
  (attr through_hole)
  (fp_text reference "REF**" (at -0.405 -15.035) (layer "F.SilkS")
    (effects (font (size 1 1) (thickness 0.15)))
    (tstamp 1b39f41d-6670-49dc-8306-84fae7720947)
  )
  (fp_text value "TE_280377-2" (at 3.405 3.365) (layer "F.Fab")
    (effects (font (size 0.75 0.75) (thickness 0.15)))
    (tstamp a70ee318-644f-4c26-a473-bcef154318ef)
  )
  (fp_text user "${REFERENCE}" (at 0 0) (layer "F.Fab")
    (effects (font (size 1 1) (thickness 0.15)))
    (tstamp 8c8c9616-2173-44f1-ad55-a9230a26bca5)
  )
  (fp_line (start 5.12 1.5) (end -2.58 1.5) (layer "F.SilkS") (width 0.127) (tstamp 24caea1a-8914-436a-a207-691223708e98))
  (fp_line (start -2.58 1.5) (end -2.58 -13.4) (layer "F.SilkS") (width 0.127) (tstamp 52040c48-d636-4dce-9827-165b2adb2cbb))
  (fp_line (start 5.12 -13.4) (end 5.12 1.5) (layer "F.SilkS") (width 0.127) (tstamp be3db5bb-d523-4d5d-b2d1-9c2602ce2b76))
  (fp_line (start 5.12 -13.4) (end -2.58 -13.4) (layer "F.SilkS") (width 0.127) (tstamp f0132da3-f829-4edb-9ec2-b7c9785857fe))
  (fp_circle (center -3.23 0) (end -3.13 0) (layer "F.SilkS") (width 0.2) (fill none) (tstamp eaaea695-31a8-436e-b027-4f4288325dfe))
  (fp_line (start -2.83 1.75) (end -2.83 -13.65) (layer "F.CrtYd") (width 0.05) (tstamp 408cb80a-ed0d-4dcc-870e-47fa20caecd5))
  (fp_line (start 5.37 1.75) (end -2.83 1.75) (layer "F.CrtYd") (width 0.05) (tstamp 414e90b0-0f77-424a-aab2-6ccef99d98dc))
  (fp_line (start -2.83 -13.65) (end 5.37 -13.65) (layer "F.CrtYd") (width 0.05) (tstamp 9bdfaf74-5c8c-4210-ac11-4ab01681c0f9))
  (fp_line (start 5.37 -13.65) (end 5.37 1.75) (layer "F.CrtYd") (width 0.05) (tstamp a9bd2c33-1198-4f4d-839e-a6e4e3d1e587))
  (fp_line (start -2.58 -13.4) (end 5.12 -13.4) (layer "F.Fab") (width 0.127) (tstamp 04677ac5-8088-49de-8170-8e12c5eed4a6))
  (fp_line (start -2.58 -13.4) (end 5.12 -13.4) (layer "F.Fab") (width 0.127) (tstamp 26a5c8b3-42db-4877-adc6-38ceb3f49515))
  (fp_line (start -2.58 1.5) (end -2.58 -13.4) (layer "F.Fab") (width 0.127) (tstamp 5309c85e-53ba-42ca-889a-1ee0f39813dc))
  (fp_line (start 5.12 -13.4) (end 5.12 1.5) (layer "F.Fab") (width 0.127) (tstamp 6f7af65f-2fd4-4215-b303-85d535eed98f))
  (fp_line (start 5.12 1.5) (end -2.58 1.5) (layer "F.Fab") (width 0.127) (tstamp 802bfa49-f8bb-48c3-a7eb-641f1deb83d6))
  (fp_line (start 5.12 -13.4) (end 5.12 1.5) (layer "F.Fab") (width 0.127) (tstamp 8a8edac9-6ff9-4beb-9c07-e28b55ab0b6b))
  (fp_line (start -2.58 1.5) (end -2.58 -13.4) (layer "F.Fab") (width 0.127) (tstamp b573c35d-2601-421a-a6d9-612c38706bbe))
  (fp_circle (center -3.23 0) (end -3.13 0) (layer "F.Fab") (width 0.2) (fill none) (tstamp 056d05f1-258c-4a96-94cc-4dddd28ebaca))
  (pad "1" thru_hole rect (at 0 0) (size 1.45 1.45) (drill 1.1) (layers *.Cu *.Mask) (tstamp 792ae25a-e455-4de8-a85f-f0bf3ce73d72))
  (pad "2" thru_hole circle (at 2.54 0) (size 1.45 1.45) (drill 1.1) (layers *.Cu *.Mask) (tstamp 98714228-601d-4ec4-ad63-56170ca3eebe))
  (model "${KISYSMINE}/MyPackages3D/Connector.3dshapes/c-280377-2-s-3d.igs"
    (offset (xyz 1.25 13.4 2.6))
    (scale (xyz 1 1 1))
    (rotate (xyz 90 180 0))
  )
)
