(module "Terminal_Block_ED555-2DS" (layer F.Cu) (tedit 5DCC6EF3)
  (descr "Terminal_Block Connector ED555-2DS 2P")
  (tags "Terminal_Block Connector ED555-2DS 2P")
  (fp_text reference "J7" (at -4.6 -1.25) (layer F.SilkS)
    (effects (font (size 1 1) (thickness 0.15)))
  )
  (fp_text value "HEATER" (at 0 -7.15) (layer F.Fab)
    (effects (font (size 1 1) (thickness 0.15)))
  )
  (fp_line (start -3.6 -6.6) (end 3.6 -6.6) (layer F.CrtYd) (width 0.15))
  (fp_line (start 3.6 -6.6) (end 3.6 0.1) (layer F.CrtYd) (width 0.15))
  (fp_line (start 3.6 0.1) (end -3.6 0.1) (layer F.CrtYd) (width 0.15))
  (fp_line (start -3.6 0.1) (end -3.6 -6.6) (layer F.CrtYd) (width 0.15))
  (fp_line (start -3.5 -6.5) (end 3.5 -6.5) (layer F.Fab) (width 0.15))
  (fp_line (start 3.5 -6.5) (end 3.5 0) (layer F.Fab) (width 0.15))
  (fp_line (start 3.5 0) (end -3.5 0) (layer F.Fab) (width 0.15))
  (fp_line (start -3.5 0) (end -3.5 -6.5) (layer F.Fab) (width 0.15))
  (fp_line (start -2.3 0.1) (end -2.3 -2) (layer F.SilkS) (width 0.12))
  (fp_line (start -2.3 -2) (end -1.2 -2) (layer F.SilkS) (width 0.12))
  (fp_line (start -1.2 -2) (end -1.2 0.1) (layer F.SilkS) (width 0.12))
  (fp_line (start -2.3 0.1) (end -3.6 0.1) (layer F.SilkS) (width 0.12))
  (fp_line (start -3.6 0.1) (end -3.6 -6.6) (layer F.SilkS) (width 0.12))
  (fp_line (start -3.6 -6.6) (end 3.6 -6.6) (layer F.SilkS) (width 0.12))
  (fp_line (start 3.6 -6.6) (end 3.6 0.1) (layer F.SilkS) (width 0.12))
  (fp_line (start 3.6 0.1) (end 2.3 0.1) (layer F.SilkS) (width 0.12))
  (fp_line (start 1.2 0.1) (end 1.2 -2) (layer F.SilkS) (width 0.12))
  (fp_line (start 2.3 -2) (end 2.3 0.1) (layer F.SilkS) (width 0.12))
  (fp_line (start 1.2 -2) (end 2.3 -2) (layer F.SilkS) (width 0.12))
  (fp_line (start 1.2 0.1) (end -1.2 0.1) (layer F.SilkS) (width 0.12))
  (pad "2" thru_hole circle (at 1.75 -3.8) (size 1.5 1.5) (drill 1) (layers *.Cu *.Mask))
  (pad "1" thru_hole circle (at -1.75 -3.8) (size 1.5 1.5) (drill 1) (layers *.Cu *.Mask))
  (model "${KISYSMINE}/MyPackages3D/Terminal_Block.3dshapes/ED555-2DS.stp"
    (offset (xyz -1.75 3.8 0))
    (scale (xyz 1 1 1))
    (rotate (xyz 90 -180 -90))
  )
)
