(module UDFN-08-2x3mm (layer F.Cu) (tedit 5531973A)
  (clearance 0.1)
  (fp_text reference U1 (at 4.3 0) (layer F.SilkS)
    (effects (font (size 1.5 1.5) (thickness 0.15)))
  )
  (fp_text value MC34676 (at -2 0 90) (layer F.Fab)
    (effects (font (size 1.5 1.5) (thickness 0.15)))
  )
  (fp_circle (center -1.4 -1.8) (end -1.3 -1.7) (layer F.SilkS) (width 0.15))
  (fp_line (start -1 -1.5) (end 1 -1.5) (layer F.SilkS) (width 0.15))
  (fp_line (start 1 -1.5) (end 1 1.5) (layer F.SilkS) (width 0.15))
  (fp_line (start 1 1.5) (end -1 1.5) (layer F.SilkS) (width 0.15))
  (fp_line (start -1 1.5) (end -1 -1.5) (layer F.SilkS) (width 0.15))
  (pad 1 smd rect (at -0.75 -1.45) (size 0.3 0.75) (layers F.Cu F.Paste F.Mask))
  (pad 2 smd rect (at -0.25 -1.45) (size 0.3 0.75) (layers F.Cu F.Paste F.Mask))
  (pad 3 smd rect (at 0.25 -1.45) (size 0.3 0.75) (layers F.Cu F.Paste F.Mask))
  (pad 4 smd rect (at 0.75 -1.45) (size 0.3 0.75) (layers F.Cu F.Paste F.Mask))
  (pad 5 smd rect (at 0.75 1.45) (size 0.3 0.75) (layers F.Cu F.Paste F.Mask))
  (pad 6 smd rect (at 0.25 1.45) (size 0.3 0.75) (layers F.Cu F.Paste F.Mask))
  (pad 7 smd rect (at -0.25 1.45) (size 0.3 0.75) (layers F.Cu F.Paste F.Mask))
  (pad 8 smd rect (at -0.75 1.45) (size 0.3 0.75) (layers F.Cu F.Paste F.Mask))
  (pad 9 smd rect (at 0 0) (size 1.45 1.75) (layers F.Cu F.Paste F.Mask))
)
